Time	Intensity
0	40
0.0250000003337858	99
0.0500000006675716	80
0.0749999992666339	89
0.100000001335143	88
0.124999996464759	104
0.149999998533268	96
0.175000000601777	89
0.200000002670286	80
0.225000004738796	85
0.249999992929517	59
0.274999994998026	89
0.299999997066536	79
0.324999999135045	84
0.350000001203554	78
0.375000003272063	91
0.400000005340573	81
0.425000007409082	99
0.450000009477591	86
0.474999983790525	107
0.499999985859034	83
0.524999987927544	84
0.549999989996053	86
0.574999992064562	88
0.599999994133071	82
0.624999996201581	88
0.64999999827009	88
0.675000000338599	90
0.700000002407108	90
0.725000004475618	108
0.750000006544127	82
0.775000008612636	81
0.800000010681146	96
0.825000012749655	102
0.850000014818164	90
0.875000016886673	83
0.900000018955183	80
0.925000021023692	90
0.94999996758105	86
0.974999969649559	73
0.999999971718068	85
1.02499997378658	86
1.04999997585509	101
1.0749999779236	87
1.09999997999211	80
1.12499998206061	78
1.14999998412912	81
1.17499998619763	91
1.19999998826614	82
1.22499999033465	81
1.24999999240316	106
1.27499999447167	99
1.29999999654018	81
1.32499999860869	75
1.3500000006772	88
1.37500000274571	90
1.40000000481422	79
1.42500000688273	86
1.45000000895124	100
1.47500001101974	79
1.50000001308825	85
1.52500001515676	67
1.55000001722527	84
1.57500001929378	73
1.60000002136229	78
1.6250000234308	90
1.65000002549931	85
1.67500002756782	84
1.70000002963633	105
1.72500003170484	73
1.75000003377335	87
1.77500003584186	99
1.80000003791037	73
1.82500003997887	83
1.85000004204738	81
1.87499993309359	81
1.8999999351621	98
1.92499993723061	79
1.94999993929912	93
1.97499994136763	72
1.99999994343614	77
2.02499994550465	74
2.04999994757316	77
2.07499994964166	90
2.09999995171017	72
2.12499995377868	70
2.14999995584719	91
2.1749999579157	94
2.19999995998421	85
2.22499996205272	76
2.24999996412123	97
2.27499996618974	79
2.29999996825825	92
2.32499997032676	75
2.34999997239527	69
2.37499997446378	81
2.39999997653229	85
2.42499997860079	79
2.4499999806693	79
2.47499998273781	88
2.49999998480632	87
2.52499998687483	85
2.54999998894334	67
2.57499999101185	81
2.59999999308036	93
2.62499999514887	83
2.64999999721738	94
2.67499999928589	86
2.7000000013544	88
2.72500000342291	75
2.75000000549142	89
2.77500000755992	69
2.80000000962843	94
2.82500001169694	76
2.85000001376545	71
2.87500001583396	78
2.90000001790247	81
2.92500001997098	89
2.95000002203949	77
2.975000024108	84
3.00000002617651	78
3.02500002824502	74
3.05000003031353	80
3.07500003238204	83
3.10000003445055	72
3.12500003651905	83
3.15000003858756	65
3.17500004065607	85
3.20000004272458	87
3.22500004479309	91
3.2500000468616	104
3.27500004893011	106
3.30000005099862	108
3.32500005306713	130
3.35000005513564	160
3.37500005720415	213
3.40000005927266	400
3.42500006134117	1034
3.45000006340967	2749
3.47500006547818	7026
3.50000006754669	15354
3.5250000696152	28452
3.55000007168371	45184
3.57500007375222	62250
3.60000007582073	77601
3.62500007788924	88484
3.65000007995775	94717
3.67500008202626	98066
3.70000008409477	97863
3.72500008616328	96640
3.74999986618718	94344
3.77499986825569	92522
3.7999998703242	89723
3.82499987239271	87344
3.84999987446122	85178
3.87499987652973	83137
3.89999987859824	81517
3.92499988066675	79303
3.94999988273526	77829
3.97499988480377	75386
3.99999988687227	73891
4.02499988894078	72317
4.04999989100929	71146
4.0749998930778	68949
4.09999989514631	67935
4.12499989721482	66564
4.14999989928333	65497
4.17499990135184	64045
4.19999990342035	63057
4.22499990548886	61994
4.24999990755737	61156
4.27499990962588	59720
4.29999991169439	59052
4.32499991376289	57781
4.3499999158314	56968
4.37499991789991	55847
4.39999991996842	54999
4.42499992203693	54398
4.44999992410544	53670
4.47499992617395	52475
4.49999992824246	51961
4.52499993031097	51263
4.54999993237948	50510
4.57499993444799	49460
4.5999999365165	49222
4.62499993858501	47900
4.64999994065352	47659
4.67499994272202	47103
4.69999994479053	46618
4.72499994685904	45978
4.74999994892755	45046
4.77499995099606	44801
4.79999995306457	44103
4.82499995513308	43992
4.84999995720159	43815
4.8749999592701	42922
4.89999996133861	42562
4.92499996340712	42199
4.94999996547563	42112
4.97499996754414	41400
4.99999996961265	41162
5.02499997168115	40697
5.04999997374966	40042
5.07499997581817	39667
5.09999997788668	39507
5.12499997995519	38959
5.1499999820237	38148
5.17499998409221	37982
5.19999998616072	37377
5.22499998822923	37052
5.24999999029774	36205
5.27499999236625	36164
5.29999999443476	35932
5.32499999650327	35128
5.34999999857177	34993
5.37500000064028	34597
5.40000000270879	33860
5.4250000047773	33871
5.45000000684581	33228
5.47500000891432	33185
5.50000001098283	32661
5.52500001305134	32183
5.55000001511985	31771
5.57500001718836	31743
5.60000001925687	31188
5.62500002132538	30947
5.65000002339389	30685
5.6750000254624	30473
5.7000000275309	29629
5.72500002959941	29698
5.75000003166792	29260
5.77500003373643	28832
5.80000003580494	28513
5.82500003787345	28432
5.85000003994196	28246
5.87500004201047	27874
5.90000004407898	27382
5.92500004614749	27158
5.950000048216	27011
5.97500005028451	26906
6.00000005235302	26319
6.02500005442153	25932
6.05000005649004	25986
6.07500005855854	25526
6.10000006062705	25336
6.12500006269556	24834
6.15000006476407	24743
6.17500006683258	24956
6.20000006890109	24289
6.2250000709696	24167
6.25000007303811	24101
6.27500007510662	23615
6.30000007717513	23581
6.32500007924364	23264
6.35000008131215	22872
6.37500008338066	22811
6.40000008544916	22489
6.42500008751767	22698
6.45000008958618	22232
6.47500009165469	22250
6.5000000937232	21721
6.52500009579171	21518
6.55000009786022	21556
6.57500009992873	21289
6.60000010199724	21195
6.62500010406575	21012
6.65000010613426	20783
6.67500010820277	20676
6.70000011027128	20181
6.72500011233978	20127
6.75000011440829	20093
6.7750001164768	19744
6.80000011854531	19363
6.82500012061382	19423
6.85000012268233	19097
6.87500012475084	18974
6.90000012681935	18845
6.92500012888786	18827
6.95000013095637	18492
6.97500013302488	18490
7.00000013509339	18101
7.0250001371619	17764
7.05000013923041	18004
7.07500014129891	17871
7.10000014336742	17707
7.12500014543593	17308
7.15000014750444	17240
7.17500014957295	17305
7.20000015164146	16946
7.22500015370997	17026
7.25000015577848	17028
7.27500015784699	16574
7.3000001599155	16409
7.32500016198401	16520
7.35000016405252	16293
7.37500016612103	15862
7.40000016818954	16101
7.42500017025805	15785
7.45000017232655	15592
7.47500017439506	15686
7.49999973237436	15431
7.52500017853208	15438
7.54999973651138	15180
7.5750001826691	15161
7.5999997406484	15172
7.62500018680612	14919
7.64999974478542	14809
7.67500019094314	14537
7.69999974892244	14480
7.72500019508016	14268
7.74999975305946	14274
7.77500019921718	14062
7.79999975719647	14067
7.82500020335419	13948
7.84999976133349	13633
7.87500020749121	13654
7.89999976547051	13629
7.92500021162823	13435
7.94999976960753	13483
7.97500021576525	13424
7.99999977374455	13117
8.02500021990227	13168
8.04999977788157	12874
8.07500022403929	12817
8.09999978201859	12713
8.1250002281763	12660
8.1499997861556	12609
8.17500023231332	12615
8.19999979029262	12439
8.22500023645034	12259
8.24999979442964	12185
8.27500024058736	12231
8.29999979856666	11951
8.32500024472438	11853
8.34999980270368	11856
8.3750002488614	11781
8.3999998068407	11840
8.42500025299842	11616
8.44999981097772	11380
8.47500025713543	11402
8.49999981511473	11362
8.52500026127245	11324
8.54999981925175	10951
8.57500026540947	11169
8.59999982338877	11084
8.62500026954649	10990
8.64999982752579	10777
8.67500027368351	10909
8.69999983166281	10717
8.72500027782053	10672
8.74999983579983	10600
8.77500028195755	10480
8.79999983993684	10199
8.82500028609456	10119
8.84999984407386	10120
8.87500029023158	10229
8.89999984821088	10172
8.9250002943686	10074
8.9499998523479	10157
8.97500029850562	9899
8.99999985648492	9820
9.02500030264264	9788
9.04999986062194	9712
9.07500030677966	9618
9.09999986475896	9630
9.12500031091668	9513
9.14999986889597	9469
9.17500031505369	9496
9.19999987303299	9306
9.22500031919071	9211
9.24999987717001	9234
9.27500032332773	9137
9.29999988130703	8926
9.32500032746475	9046
9.34999988544405	8829
9.37500033160177	8967
9.39999988958107	8769
9.42500033573879	8790
9.44999989371809	8575
9.47500033987581	8592
9.49999989785511	8574
9.52500034401282	8635
9.54999990199212	8234
9.57500034814984	8532
9.59999990612914	8329
9.62500035228686	8142
9.64999991026616	8176
9.67500035642388	8111
9.69999991440318	8222
9.7250003605609	7941
9.7499999185402	8039
9.77500036469792	8002
9.79999992267722	7860
9.82500036883494	7961
9.84999992681423	7711
9.87500037297195	7707
9.89999993095125	7725
9.92500037710897	7533
9.94999993508827	7579
9.97500038124599	7628
9.99999993922529	7480
10.025000385383	7316
10.0499999433623	7340
10.07500038952	7213
10.0999999474993	7220
10.125000393657	7126
10.1499999516363	7136
10.1750003977941	7076
10.1999999557734	7045
10.2250004019311	6935
10.2499999599104	6904
10.2750004060681	6948
10.2999999640474	6941
10.3250004102051	6874
10.3499999681844	6915
10.3750004143421	6774
10.3999999723214	6623
10.4250004184792	6608
10.4499999764585	6696
10.4750004226162	6503
10.4999999805955	6724
10.5250004267532	6602
10.5499999847325	6636
10.5750004308902	6507
10.5999999888695	6334
10.6250004350272	6375
10.6499999930065	6279
10.6750004391643	6261
10.6999999971435	6258
10.7250004433013	6272
10.7500000012806	6169
10.7750004474383	6099
10.8000000054176	6107
10.8250004515753	6017
10.8500000095546	5949
10.8750004557123	5895
10.9000000136916	5978
10.9250004598493	5769
10.9500000178286	5771
10.9750004639864	5872
11.0000000219657	5801
11.0250004681234	5699
11.0500000261027	5641
11.0750004722604	5675
11.1000000302397	5775
11.1250004763974	5731
11.1500000343767	5563
11.1750004805344	5499
11.2000000385137	5444
11.2250004846715	5510
11.2500000426508	5646
11.2750004888085	5385
11.3000000467878	5326
11.3250004929455	5332
11.3500000509248	5250
11.3750004970825	5278
11.4000000550618	5265
11.4250005012195	5123
11.4500000591988	5104
11.4750005053565	5199
11.5000000633358	5146
11.5250005094936	5074
11.5500000674729	5054
11.5750005136306	5108
11.6000000716099	5139
11.6250005177676	4872
11.6500000757469	5036
11.6750005219046	4974
11.7000000798839	4857
11.7250005260416	4804
11.7500000840209	4772
11.7750005301787	4676
11.800000088158	4740
11.8250005343157	4805
11.850000092295	4791
11.8750005384527	4689
11.900000096432	4742
11.9250005425897	4679
11.950000100569	4664
11.9750005467267	4579
12.000000104706	4504
12.0250005508638	4515
12.0500001088431	4442
12.0750005550008	4489
12.1000001129801	4508
12.1250005591378	4483
12.1500001171171	4362
12.1750005632748	4314
12.2000001212541	4357
12.2250005674118	4369
12.2500001253911	4277
12.2750005715488	4273
12.3000001295281	4250
12.3250005756859	4129
12.3500001336652	4245
12.3750005798229	4201
12.4000001378022	4023
12.4250005839599	4139
12.4500001419392	4184
12.4750005880969	4009
12.5000001460762	4006
12.5250005922339	4015
12.5500001502132	3945
12.575000596371	3991
12.6000001543503	3997
12.625000600508	3907
12.6500001584873	3864
12.675000604645	3937
12.7000001626243	3874
12.725000608782	3965
12.7500001667613	3829
12.775000612919	3814
12.8000001708983	3711
12.8249997288776	3796
12.8500001750353	3820
12.8749997330146	3681
12.9000001791724	3811
12.9249997371517	3724
12.9500001833094	3688
12.9749997412887	3773
13.0000001874464	3577
13.0249997454257	3719
13.0500001915834	3580
13.0749997495627	3549
13.1000001957204	3618
13.1249997536997	3540
13.1500001998575	3476
13.1749997578368	3487
13.2000002039945	3504
13.2249997619738	3525
13.2500002081315	3462
13.2749997661108	3494
13.3000002122685	3408
13.3249997702478	3381
13.3500002164055	3263
13.3749997743848	3274
13.4000002205426	3307
13.4249997785219	3354
13.4500002246796	3258
13.4749997826589	3312
13.5000002288166	3283
13.5249997867959	3168
13.5500002329536	3308
13.5749997909329	3235
13.6000002370906	3253
13.6249997950699	3097
13.6500002412276	3078
13.6749997992069	3003
13.7000002453647	3194
13.724999803344	3187
13.7500002495017	3196
13.774999807481	3169
13.8000002536387	3011
13.824999811618	3069
13.8500002577757	2983
13.874999815755	2962
13.9000002619127	3087
13.924999819892	2913
13.9500002660498	3056
13.9749998240291	2958
14.0000002701868	2899
14.0249998281661	2867
14.0500002743238	2899
14.0749998323031	2929
14.1000002784608	2875
14.1249998364401	2891
14.1500002825978	2915
14.1749998405771	2834
14.2000002867348	2838
14.2249998447141	2787
14.2500002908719	2804
14.2749998488512	2816
14.3000002950089	2801
14.3249998529882	2716
14.3500002991459	2757
14.3749998571252	2674
14.4000003032829	2625
14.4249998612622	2645
14.4500003074199	2615
14.4749998653992	2541
14.500000311557	2586
14.5249998695363	2646
14.550000315694	2677
14.5749998736733	2627
14.600000319831	2575
14.6249998778103	2592
14.650000323968	2553
14.6749998819473	2542
14.700000328105	2494
14.7249998860843	2607
14.7500003322421	2544
14.7749998902214	2530
14.8000003363791	2450
14.8249998943584	2496
14.8500003405161	2486
14.8749998984954	2370
14.9000003446531	2318
14.9249999026324	2486
14.9500003487901	2323
14.9750007949478	2349
14.9999994647487	2407
15.0249999109064	2383
15.0500003570642	2380
15.0750008032219	2359
15.0999994730228	2358
15.1249999191805	2345
15.1500003653382	2312
15.1750008114959	2306
15.1999994812968	2305
15.2249999274545	2264
15.2500003736122	2202
15.27500081977	2274
15.2999994895708	2265
15.3249999357286	2210
15.3500003818863	2250
15.375000828044	2174
15.3999994978449	2175
15.4249999440026	2172
15.4500003901603	2241
15.475000836318	2142
15.4999995061189	2175
15.5249999522766	2148
15.5500003984343	2123
15.5750008445921	2069
15.5999995143929	2047
15.6249999605507	2097
15.6500004067084	2021
15.6750008528661	2094
15.699999522667	2060
15.7249999688247	2048
15.7500004149824	2088
15.7750008611401	2072
15.799999530941	2053
15.8249999770987	2033
15.8500004232565	2005
15.8750008694142	2085
15.8999995392151	1971
15.9249999853728	2000
15.9500004315305	2075
15.9750008776882	1940
15.9999995474891	2006
16.0249999936468	1989
16.0500004398045	1943
16.0750008859623	1903
16.0999995557631	1956
16.1250000019209	1910
16.1500004480786	1874
16.1750008942363	1882
16.1999995640372	1951
16.2250000101949	1902
16.2500004563526	1969
16.2750009025103	1890
16.2999995723112	1821
16.3250000184689	1850
16.3500004646266	1852
16.3750009107844	1826
16.3999995805852	1813
16.425000026743	1857
16.4500004729007	1805
16.4750009190584	1752
16.4999995888593	1798
16.525000035017	1781
16.5500004811747	1716
16.5750009273324	1776
16.5999995971333	1762
16.625000043291	1773
16.6500004894488	1700
16.6750009356065	1695
16.6999996054074	1795
16.7250000515651	1687
16.7500004977228	1690
16.7750009438805	1667
16.7999996136814	1666
16.8250000598391	1701
16.8500005059968	1685
16.8750009521546	1753
16.8999996219554	1626
16.9250000681131	1684
16.9500005142709	1659
16.9750009604286	1625
16.9999996302295	1627
17.0250000763872	1674
17.0500005225449	1589
17.0750009687026	1591
17.0999996385035	1608
17.1250000846612	1671
17.1500005308189	1556
17.1750009769767	1569
17.1999996467775	1585
17.2250000929353	1541
17.250000539093	1492
17.2750009852507	1531
17.2999996550516	1530
17.3250001012093	1500
17.350000547367	1529
17.3750009935247	1511
17.3999996633256	1486
17.4250001094833	1532
17.4500005556411	1466
17.4750010017988	1493
17.4999996715997	1451
17.5250001177574	1421
17.5500005639151	1511
17.5750010100728	1467
17.5999996798737	1462
17.6250001260314	1455
17.6500005721891	1443
17.6750010183468	1471
17.6999996881477	1393
17.7250001343054	1418
17.7500005804632	1411
17.7750010266209	1380
17.7999996964218	1354
17.8250001425795	1384
17.8500005887372	1429
17.8750010348949	1408
17.8999997046958	1358
17.9250001508535	1380
17.9500005970112	1342
17.975001043169	1375
17.9999997129698	1331
18.0250001591276	1332
18.0500006052853	1312
18.075001051443	1344
18.0999997212439	1417
18.1250001674016	1226
18.1500006135593	1388
18.175001059717	1325
18.1999997295179	1250
18.2250001756756	1310
18.2500006218334	1334
18.2750010679911	1305
18.2999997377919	1284
18.3250001839497	1219
18.3500006301074	1351
18.3750010762651	1296
18.399999746066	1245
18.4250001922237	1310
18.4500006383814	1228
18.4750010845391	1271
18.49999975434	1244
18.5250002004977	1222
18.5500006466555	1198
18.5750010928132	1183
18.5999997626141	1241
18.6250002087718	1222
18.6500006549295	1196
18.6750011010872	1195
18.6999997708881	1221
18.7250002170458	1239
18.7500006632035	1213
18.7750011093613	1158
18.7999997791621	1183
18.8250002253199	1225
18.8500006714776	1237
18.8750011176353	1160
18.8999997874362	1181
18.9250002335939	1196
18.9500006797516	1149
18.9750011259093	1133
18.9999997957102	1154
19.0250002418679	1180
19.0500006880256	1200
19.0750011341834	1136
19.0999998039842	1095
19.125000250142	1124
19.1500006962997	1156
19.1750011424574	1075
19.1999998122583	1120
19.225000258416	1068
19.2500007045737	1079
19.2749993743746	1092
19.2999998205323	1059
19.32500026669	1067
19.3500007128478	1089
19.3749993826486	1028
19.3999998288064	1088
19.4250002749641	1111
19.4500007211218	1064
19.4749993909227	1108
19.4999998370804	1075
19.5250002832381	1017
19.5500007293958	1066
19.5749993991967	1025
19.5999998453544	1037
19.6250002915122	1063
19.6500007376699	1056
19.6749994074707	1026
19.6999998536285	1020
19.7250002997862	979
19.7500007459439	1050
19.7749994157448	1037
19.7999998619025	1056
19.8250003080602	991
19.8500007542179	984
19.8749994240188	979
19.8999998701765	991
19.9250003163343	958
19.950000762492	968
19.9749994322929	932
19.9999998784506	992
20.0250003246083	966
20.050000770766	992
20.0749994405669	989
20.0999998867246	940
20.1250003328823	993
20.1500007790401	987
20.1749994488409	923
20.1999998949987	941
20.2250003411564	919
20.2500007873141	950
20.274999457115	951
20.2999999032727	924
20.3250003494304	868
20.3500007955881	864
20.374999465389	973
20.3999999115467	962
20.4250003577044	926
20.4500008038622	929
20.474999473663	889
20.4999999198208	926
20.5250003659785	882
20.5500008121362	858
20.5749994819371	916
20.5999999280948	908
20.6250003742525	884
20.6500008204102	861
20.6749994902111	846
20.6999999363688	854
20.7250003825266	878
20.7500008286843	871
20.7749994984852	856
20.7999999446429	841
20.8250003908006	894
20.8500008369583	840
20.8749995067592	859
20.8999999529169	847
20.9250003990746	810
20.9500008452324	810
20.9749995150332	798
20.999999961191	806
21.0250004073487	868
21.0500008535064	828
21.0749995233073	774
21.099999969465	853
21.1250004156227	853
21.1500008617804	858
21.1749995315813	837
21.199999977739	838
21.2250004238967	807
21.2500008700545	815
21.2749995398553	812
21.2999999860131	762
21.3250004321708	764
21.3500008783285	772
21.3749995481294	831
21.3999999942871	799
21.4250004404448	820
21.4500008866025	783
21.4749995564034	750
21.5000000025611	787
21.5250004487189	800
21.5500008948766	765
21.5749995646775	791
21.6000000108352	748
21.6250004569929	794
21.6500009031506	759
21.6749995729515	785
21.7000000191092	756
21.7250004652669	748
21.7500009114246	783
21.7749995812255	738
21.8000000273832	720
21.825000473541	714
21.8500009196987	768
21.8749995894996	711
21.9000000356573	683
21.925000481815	731
21.9500009279727	767
21.9749995977736	704
22.0000000439313	701
22.025000490089	714
22.0500009362468	742
22.0749996060476	675
22.1000000522054	674
22.1250004983631	685
22.1500009445208	721
22.1749996143217	744
22.2000000604794	701
22.2250005066371	684
22.2500009527948	711
22.2749996225957	715
22.3000000687534	662
22.3250005149112	684
22.3500009610689	668
22.3749996308698	706
22.4000000770275	709
22.4250005231852	670
22.4500009693429	660
22.4749996391438	650
22.5000000853015	690
22.5250005314592	609
22.5500009776169	689
22.5749996474178	682
22.6000000935755	618
22.6250005397333	628
22.650000985891	641
22.6749996556919	623
22.7000001018496	683
22.7250005480073	658
22.750000994165	679
22.7749996639659	648
22.8000001101236	614
22.8250005562813	612
22.8500010024391	625
22.8749996722399	658
22.9000001183977	635
22.9250005645554	606
22.9500010107131	702
22.974999680514	649
23.0000001266717	642
23.0250005728294	590
23.0500010189871	595
23.074999688788	634
23.1000001349457	584
23.1250005811034	618
23.1500010272612	617
23.174999697062	675
23.2000001432198	618
23.2250005893775	599
23.2500010355352	620
23.2749997053361	566
23.3000001514938	600
23.3250005976515	635
23.3500010438092	592
23.3749997136101	643
23.4000001597678	634
23.4250006059256	580
23.4500010520833	618
23.4749997218842	574
23.5000001680419	576
23.5250006141996	614
23.5500010603573	592
23.5749997301582	558
23.6000001763159	542
23.6250006224736	580
23.6500010686314	550
23.6749997384322	594
23.70000018459	559
23.7250006307477	564
23.7500010769054	608
23.7749997467063	541
23.800000192864	560
23.8250006390217	545
23.8500010851794	541
23.8749997549803	537
23.900000201138	556
23.9250006472957	560
23.9500010934535	528
23.9749997632543	553
24.0000002094121	513
24.0250006555698	522
24.0500011017275	529
24.0749997715284	571
24.1000002176861	532
24.1250006638438	560
24.1500011100015	571
24.1749997798024	506
24.2000002259601	520
24.2250006721179	553
24.2500011182756	530
24.2749997880765	569
24.3000002342342	488
24.3250006803919	552
24.3500011265496	492
24.3749997963505	503
24.4000002425082	520
24.4250006886659	503
24.4500011348237	487
24.4749998046245	493
24.5000002507822	480
24.52500069694	490
24.5500011430977	512
24.5749998128986	486
24.6000002590563	477
24.625000705214	504
24.6500011513717	520
24.6749998211726	496
24.7000002673303	454
24.725000713488	515
24.7500011596458	510
24.7749998294466	537
24.8000002756044	490
24.8250007217621	516
24.8500011679198	493
24.8749998377207	496
24.9000002838784	446
24.9250007300361	449
24.9500011761938	454
24.9749998459947	507
25.0000002921524	474
25.0250007383102	486
25.0500011844679	482
25.0749998542688	473
25.1000003004265	450
25.1250007465842	477
25.1500011927419	460
25.1749998625428	439
25.2000003087005	432
25.2250007548582	442
25.2500012010159	479
25.2749998708168	464
25.3000003169745	474
25.3250007631323	467
25.35000120929	453
25.3749998790909	473
25.4000003252486	450
25.4250007714063	432
25.450001217564	447
25.4749998873649	507
25.5000003335226	448
25.5250007796803	427
25.5500012258381	486
25.5749998956389	493
25.6000003417967	466
25.6250007879544	416
25.6499994577553	471
25.674999903913	439
25.7000003500707	447
25.7250007962284	440
25.7499994660293	394
25.774999912187	419
25.8000003583447	415
25.8250008045025	459
25.8499994743033	414
25.874999920461	414
25.9000003666188	436
25.9250008127765	390
25.9499994825774	426
25.9749999287351	408
26.0000003748928	417
26.0250008210505	440
26.0499994908514	421
26.0749999370091	391
26.1000003831668	397
26.1250008293246	425
26.1499994991254	410
26.1749999452832	410
26.2000003914409	431
26.2250008375986	427
26.2499995073995	414
26.2749999535572	429
26.3000003997149	425
26.3250008458726	476
26.3499995156735	408
26.3749999618312	412
26.400000407989	399
26.4250008541467	412
26.4499995239476	418
26.4749999701053	380
26.500000416263	409
26.5250008624207	432
26.5499995322216	356
26.5749999783793	347
26.600000424537	371
26.6250008706947	408
26.6499995404956	416
26.6749999866533	379
26.7000004328111	355
26.7250008789688	389
26.7499995487697	380
26.7749999949274	399
26.8000004410851	368
26.8250008872428	392
26.8499995570437	357
26.8750000032014	365
26.9000004493591	370
26.9250008955169	384
26.9499995653177	402
26.9750000114755	395
27.0000004576332	396
27.0250009037909	388
27.0499995735918	354
27.0750000197495	366
27.1000004659072	340
27.1250009120649	353
27.1499995818658	358
27.1750000280235	412
27.2000004741813	327
27.225000920339	341
27.2499995901398	350
27.2750000362976	350
27.3000004824553	372
27.325000928613	365
27.3499995984139	364
27.3750000445716	397
27.4000004907293	355
27.425000936887	374
27.4499996066879	354
27.4750000528456	370
27.5000004990034	358
27.5250009451611	339
27.549999614962	316
27.5750000611197	348
27.6000005072774	343
27.6250009534351	340
27.649999623236	347
27.6750000693937	336
27.7000005155514	348
27.7250009617092	353
27.74999963151	347
27.7750000776678	357
27.8000005238255	330
27.8250009699832	354
27.8499996397841	315
27.8750000859418	315
27.9000005320995	380
27.9250009782572	316
27.9499996480581	324
27.9750000942158	343
28.0000005403735	335
28.0250009865313	305
28.0499996563321	338
28.0750001024899	325
28.1000005486476	315
28.1250009948053	325
28.1499996646062	335
28.1750001107639	319
28.2000005569216	316
28.2250010030793	330
28.2499996728802	299
28.2750001190379	307
28.3000005651957	333
28.3250010113534	313
28.3499996811543	330
28.375000127312	317
28.4000005734697	314
28.4250010196274	322
28.4499996894283	303
28.475000135586	333
28.5000005817437	326
28.5250010279015	292
28.5499996977023	335
28.5750001438601	289
28.6000005900178	339
28.6250010361755	318
28.6499997059764	324
28.6750001521341	304
28.7000005982918	348
28.7250010444495	277
28.7499997142504	306
28.7750001604081	346
28.8000006065658	303
28.8250010527236	299
28.8499997225244	335
28.8750001686822	323
28.9000006148399	333
28.9250010609976	315
28.9499997307985	287
28.9750001769562	305
29.0000006231139	298
29.0250010692716	270
29.0499997390725	306
29.0750001852302	278
29.100000631388	302
29.1250010775457	300
29.1499997473466	297
29.1750001935043	271
29.200000639662	303
29.2250010858197	291
29.2499997556206	274
29.2750002017783	284
29.300000647936	290
29.3250010940937	274
29.3499997638946	280
29.3750002100524	291
29.4000006562101	272
29.4250011023678	258
29.4499997721687	269
29.4750002183264	284
29.5000006644841	299
29.5250011106418	266
29.5499997804427	292
29.5750002266004	286
29.6000006727581	276
29.6250011189159	276
29.6499997887167	266
29.6750002348745	315
29.7000006810322	278
29.7250011271899	272
29.7499997969908	282
29.7750002431485	285
29.8000006893062	299
29.8249993591071	273
29.8499998052648	315
29.8750002514225	279
29.9000006975803	265
29.925001143738	253
29.9500015898957	268
29.9750020360534	235
29.9999989294975	251
30.0249993756552	250
30.0499998218129	282
30.0750002679706	269
30.1000007141283	264
30.125001160286	240
30.1500016064438	280
30.1750020526015	252
30.1999989460455	305
30.2249993922032	263
30.249999838361	247
30.2750002845187	298
30.3000007306764	280
30.3250011768341	295
30.3500016229918	249
30.3750020691496	262
30.3999989625936	238
30.4249994087513	284
30.449999854909	271
30.4750003010668	271
30.5000007472245	271
30.5250011933822	267
30.5500016395399	269
30.5750020856976	232
30.5999989791417	249
30.6249994252994	282
30.6499998714571	230
30.6750003176148	250
30.7000007637726	249
30.7250012099303	242
30.750001656088	244
30.7750021022457	266
30.7999989956897	262
30.8249994418475	242
30.8499998880052	263
30.8750003341629	239
30.9000007803206	243
30.9250012264783	251
30.9500016726361	262
30.9750021187938	229
30.9999990122378	279
31.0249994583955	236
31.0499999045533	253
31.075000350711	252
31.1000007968687	238
31.1250012430264	268
31.1500016891841	246
31.1750021353419	244
31.1999990287859	229
31.2249994749436	266
31.2499999211013	259
31.2750003672591	248
31.3000008134168	214
31.3250012595745	251
31.3500017057322	239
31.3750021518899	234
31.399999045334	259
31.4249994914917	225
31.4499999376494	255
31.4750003838071	275
31.5000008299648	218
31.5250012761226	259
31.5500017222803	220
31.575002168438	235
31.599999061882	259
31.6249995080398	248
31.6499999541975	237
31.6750004003552	209
31.7000008465129	215
31.7250012926706	230
31.7500017388284	248
31.7750021849861	243
31.7999990784301	219
31.8249995245878	258
31.8499999707456	255
31.8750004169033	216
31.900000863061	242
31.9250013092187	217
31.9500017553764	227
31.9750022015342	210
31.9999990949782	235
32.0249995411359	223
32.0499999872936	237
32.0750004334514	216
32.1000008796091	231
32.1250013257668	209
32.1500017719245	233
32.1749986653686	216
32.1999991115263	194
32.224999557684	225
32.2500000038417	223
32.2750004499994	203
32.3000008961571	224
32.3250013423149	240
32.3500017884726	213
32.3749986819166	223
32.3999991280743	217
32.4249995742321	226
32.4500000203898	206
32.4750004665475	239
32.5000009127052	220
32.5250013588629	231
32.5500018050207	183
32.5749986984647	210
32.5999991446224	213
32.6249995907801	210
32.6500000369379	226
32.6750004830956	209
32.7000009292533	206
32.725001375411	220
32.7500018215687	231
32.7749987150128	221
32.7999991611705	202
32.8249996073282	213
32.8500000534859	201
32.8750004996436	221
32.9000009458014	201
32.9250013919591	205
32.9500018381168	219
32.9749987315608	198
32.9999991777186	211
33.0249996238763	219
33.050000070034	206
33.0750005161917	230
33.1000009623494	201
33.1250014085072	206
33.1500018546649	221
33.1749987481089	226
33.1999991942666	192
33.2249996404244	204
33.2500000865821	196
33.2750005327398	229
33.3000009788975	205
33.3250014250552	232
33.350001871213	197
33.374998764657	181
33.3999992108147	196
33.4249996569724	179
33.4500001031302	223
33.4750005492879	223
33.5000009954456	212
33.5250014416033	202
33.550001887761	201
33.5749987812051	171
33.5999992273628	198
33.6249996735205	186
33.6500001196782	220
33.6750005658359	166
33.7000010119937	194
33.7250014581514	198
33.7500019043091	187
33.7749987977531	191
33.7999992439109	174
33.8249996900686	188
33.8500001362263	205
33.875000582384	197
33.9000010285417	225
33.9250014746995	218
33.9500019208572	179
33.9749988143012	187
33.9999992604589	203
34.0249997066167	194
34.0500001527744	197
34.0750005989321	215
34.1000010450898	197
34.1250014912475	216
34.1500019374052	184
34.1749988308493	197
34.199999277007	188
34.2249997231647	173
34.2500001693224	186
34.2750006154802	193
34.3000010616379	195
34.3250015077956	168
34.3500019539533	199
34.3749988473974	203
34.3999992935551	180
34.4249997397128	182
34.4500001858705	188
34.4750006320282	195
34.500001078186	203
34.5250015243437	175
34.5500019705014	184
34.5749988639454	170
34.5999993101032	194
34.6249997562609	188
34.6500002024186	174
34.6750006485763	192
34.700001094734	158
34.7250015408918	184
34.7500019870495	203
34.7749988804935	177
34.7999993266512	186
34.824999772809	162
34.8500002189667	192
34.8750006651244	177
34.9000011112821	182
34.9250015574398	178
34.9500020035975	202
34.9749988970416	179
34.9999993431993	175
35.024999789357	147
35.0500002355147	192
35.0750006816725	193
35.1000011278302	195
35.1250015739879	165
35.1500020201456	204
35.1749989135897	175
35.1999993597474	190
35.2249998059051	168
35.2500002520628	181
35.2750006982205	170
35.3000011443783	186
35.325001590536	194
35.3500020366937	174
35.3749989301377	164
35.3999993762955	209
35.4249998224532	171
35.4500002686109	169
35.4750007147686	168
35.5000011609263	159
35.5250016070841	157
35.5500020532418	153
35.5749989466858	175
35.5999993928435	148
35.6249998390012	160
35.650000285159	173
35.6750007313167	172
35.7000011774744	175
35.7250016236321	156
35.7500020697898	178
35.7749989632339	178
35.7999994093916	173
35.8249998555493	167
35.850000301707	147
35.8750007478648	162
35.9000011940225	172
35.9250016401802	170
35.9500020863379	131
35.974998979782	175
35.9999994259397	176
36.0249998720974	158
36.0500003182551	182
36.0750007644128	173
36.1000012105706	159
36.1250016567283	149
36.150002102886	149
36.17499899633	156
36.1999994424878	145
36.2249998886455	147
36.2500003348032	162
36.2750007809609	189
36.3000012271186	157
36.3250016732763	152
36.3500021194341	149
36.3749990128781	146
36.3999994590358	172
36.4249999051935	157
36.4500003513513	153
36.475000797509	145
36.5000012436667	143
36.5250016898244	162
36.5500021359821	168
36.5749990294262	157
36.5999994755839	161
36.6249999217416	175
36.6500003678993	150
36.6750008140571	148
36.7000012602148	155
36.7250017063725	159
36.7500021525302	141
36.7749990459743	174
36.799999492132	138
36.8249999382897	167
36.8500003844474	191
36.8750008306051	179
36.9000012767628	131
36.9250017229206	177
36.9500021690783	140
36.9749990625223	161
36.9999995086801	160
37.0249999548378	153
37.0500004009955	158
37.0750008471532	161
37.1000012933109	143
37.1250017394686	172
37.1500021856264	146
37.1749990790704	171
37.1999995252281	167
37.2249999713858	148
37.2500004175436	141
37.2750008637013	153
37.300001309859	137
37.3250017560167	158
37.3500022021744	164
37.3749990956185	181
37.3999995417762	167
37.4249999879339	153
37.4500004340916	153
37.4750008802494	149
37.5000013264071	151
37.5250017725648	163
37.5500022187225	139
37.5749991121666	148
37.5999995583243	137
37.625000004482	138
37.6500004506397	149
37.6750008967974	134
37.7000013429551	149
37.7250017891129	150
37.7500022352706	156
37.7749991287146	170
37.7999995748723	158
37.8250000210301	145
37.8500004671878	155
37.8750009133455	152
37.9000013595032	142
37.9250018056609	137
37.9500022518187	169
37.9749991452627	126
37.9999995914204	156
38.0250000375781	146
38.0500004837359	149
38.0750009298936	158
38.1000013760513	122
38.125001822209	151
38.1500022683667	128
38.1749991618108	143
38.1999996079685	146
38.2250000541262	145
38.2500005002839	148
38.2750009464417	136
38.3000013925994	143
38.3250018387571	159
38.3500022849148	150
38.3749991783588	147
38.3999996245166	150
38.4250000706743	130
38.450000516832	126
38.4750009629897	154
38.5000014091474	146
38.5250018553052	168
38.5499987487492	137
38.5749991949069	121
38.5999996410646	158
38.6250000872224	142
38.6500005333801	142
38.6750009795378	136
38.7000014256955	144
38.7250018718532	132
38.7499987652973	137
38.774999211455	148
38.7999996576127	160
38.8250001037704	139
38.8500005499282	149
38.8750009960859	150
38.9000014422436	140
38.9250018884013	128
38.9499987818454	142
38.9749992280031	146
38.9999996741608	138
39.0250001203185	134
39.0500005664762	143
39.0750010126339	135
39.1000014587917	141
39.1250019049494	130
39.1499987983934	133
39.1749992445511	130
39.1999996907089	130
39.2250001368666	125
39.2500005830243	129
39.275001029182	131
39.3000014753397	118
39.3250019214975	144
39.3499988149415	153
39.3749992610992	131
39.3999997072569	156
39.4250001534147	124
39.4500005995724	116
39.4750010457301	125
39.5000014918878	141
39.5250019380455	139
39.5499988314896	124
39.5749992776473	134
39.599999723805	140
39.6250001699627	133
39.6500006161204	128
39.6750010622782	113
39.7000015084359	136
39.7250019545936	126
39.7499988480377	124
39.7749992941954	118
39.7999997403531	137
39.8250001865108	144
39.8500006326685	144
39.8750010788262	129
39.900001524984	120
39.9250019711417	128
39.9499988645857	122
39.9749993107434	124
39.9999997569012	128
40.0250002030589	129
40.0500006492166	139
40.0750010953743	120
40.100001541532	130
40.1250019876898	102
40.1499988811338	156
40.1749993272915	128
40.1999997734492	128
40.225000219607	132
40.2500006657647	152
40.2750011119224	113
40.3000015580801	127
40.3250020042378	113
40.3499988976819	124
40.3749993438396	117
40.3999997899973	127
40.425000236155	130
40.4500006823127	129
40.4750011284705	135
40.5000015746282	121
40.5250020207859	135
40.5499989142299	139
40.5749993603877	131
40.5999998065454	131
40.6250002527031	121
40.6500006988608	128
40.6750011450185	125
40.7000015911763	127
40.725002037334	141
40.749998930778	134
40.7749993769357	126
40.7999998230935	123
40.8250002692512	141
40.8500007154089	123
40.8750011615666	140
40.9000016077243	137
40.9250020538821	119
40.9499989473261	114
40.9749993934838	131
40.9999998396415	125
41.0250002857993	133
41.050000731957	97
41.0750011781147	134
41.1000016242724	123
41.1250020704301	132
41.1499989638742	120
41.1749994100319	122
41.1999998561896	119
41.2250003023473	118
41.250000748505	136
41.2750011946628	113
41.3000016408205	119
41.3250020869782	122
41.3499989804222	125
41.37499942658	133
41.3999998727377	121
41.4250003188954	92
41.4500007650531	102
41.4750012112108	127
41.5000016573686	131
41.5250021035263	137
41.5499989969703	131
41.574999443128	116
41.5999998892858	128
41.6250003354435	124
41.6500007816012	93
41.6750012277589	125
41.7000016739166	109
41.7250021200743	128
41.7499990135184	127
41.7749994596761	120
41.7999999058338	119
41.8250003519915	102
41.8500007981493	136
41.875001244307	124
41.9000016904647	120
41.9250021366224	103
41.9499990300665	123
41.9749994762242	124
41.9999999223819	131
42.0250003685396	116
42.0500008146973	127
42.0750012608551	104
42.1000017070128	112
42.1250021531705	117
42.1499990466145	130
42.1749994927723	128
42.19999993893	129
42.2250003850877	118
42.2500008312454	112
42.2750012774031	114
42.3000017235609	104
42.3250021697186	132
42.3499990631626	104
42.3749995093203	106
42.3999999554781	131
42.4250004016358	103
42.4500008477935	100
42.4750012939512	121
42.5000017401089	101
42.5250021862666	127
42.5499990797107	109
42.5749995258684	133
42.5999999720261	106
42.6250004181838	99
42.6500008643416	108
42.6750013104993	119
42.700001756657	113
42.7250022028147	122
42.7499990962588	121
42.7749995424165	127
42.7999999885742	131
42.8250004347319	124
42.8500008808896	106
42.8750013270474	118
42.9000017732051	111
42.9250022193628	100
42.9499991128068	136
42.9749995589646	126
43.0000000051223	112
43.02500045128	120
43.0500008974377	93
43.0750013435954	108
43.1000017897532	115
43.1250022359109	114
43.1499991293549	98
43.1749995755126	131
43.2000000216703	113
43.2250004678281	115
43.2500009139858	106
43.2750013601435	115
43.3000018063012	126
43.3250022524589	116
43.349999145903	142
43.3749995920607	107
43.4000000382184	108
43.4250004843761	102
43.4500009305339	130
43.4750013766916	113
43.5000018228493	102
43.525002269007	107
43.5499991624511	114
43.5749996086088	113
43.6000000547665	126
43.6250005009242	113
43.6500009470819	141
43.6750013932397	78
43.7000018393974	118
43.7250022855551	124
43.7499991789991	89
43.7749996251569	103
43.8000000713146	110
43.8250005174723	108
43.85000096363	109
43.8750014097877	121
43.9000018559454	111
43.9250023021032	99
43.9499991955472	99
43.9749996417049	117
44.0000000878626	128
44.0250005340204	98
44.0500009801781	97
44.0750014263358	100
44.1000018724935	120
44.1250023186512	95
44.1499992120953	108
44.174999658253	101
44.2000001044107	116
44.2250005505684	125
44.2500009967262	88
44.2750014428839	107
44.3000018890416	96
44.3250023351993	106
44.3499992286434	112
44.3749996748011	109
44.4000001209588	108
44.4250005671165	107
44.4500010132742	112
44.4750014594319	89
44.5000019055897	100
44.5250023517474	119
44.5499992451914	103
44.5749996913491	116
44.6000001375069	108
44.6250005836646	103
44.6500010298223	94
44.67500147598	107
44.7000019221377	111
44.7250023682955	98
44.7499992617395	97
44.7749997078972	100
44.8000001540549	102
44.8250006002127	95
44.8500010463704	101
44.8750014925281	101
44.9000019386858	103
44.9249988321299	95
44.9499992782876	128
44.9749997244453	125
45.000000170603	102
45.0250006167607	100
45.0500010629185	111
45.0750015090762	102
45.1000019552339	118
45.1249988486779	91
45.1499992948357	121
45.1749997409934	110
45.2000001871511	93
45.2250006333088	103
45.2500010794665	112
45.2750015256242	91
45.300001971782	107
45.324998865226	112
45.3499993113837	119
45.3749997575414	83
45.4000002036992	104
45.4250006498569	120
45.4500010960146	121
45.4750015421723	100
45.50000198833	102
45.5249988817741	106
45.5499993279318	95
45.5749997740895	101
45.6000002202472	103
45.625000666405	117
45.6500011125627	111
45.6750015587204	91
45.7000020048781	102
45.7249988983222	99
45.7499993444799	99
45.7749997906376	101
45.8000002367953	105
45.825000682953	99
45.8500011291108	92
45.8750015752685	86
45.9000020214262	93
45.9249989148702	99
45.9499993610279	121
45.9749998071857	91
46.0000002533434	108
46.0250006995011	102
46.0500011456588	105
46.0750015918165	114
46.1000020379743	73
46.1249989314183	98
46.149999377576	80
46.1749998237337	101
46.2000002698915	93
46.2250007160492	109
46.2500011622069	94
46.2750016083646	92
46.3000020545223	102
46.3249989479664	112
46.3499993941241	107
46.3749998402818	120
46.4000002864395	115
46.4250007325973	104
46.450001178755	110
46.4750016249127	99
46.5000020710704	95
46.5249989645145	92
46.5499994106722	91
46.5749998568299	95
46.6000003029876	107
46.6250007491453	92
46.650001195303	107
46.6750016414608	96
46.7000020876185	109
46.7249989810625	91
46.7499994272202	77
46.774999873378	93
46.8000003195357	97
46.8250007656934	106
46.8500012118511	122
46.8750016580088	91
46.9000021041666	80
46.9249989976106	90
46.9499994437683	92
46.974999889926	104
47.0000003360838	96
47.0250007822415	97
47.0500012283992	108
47.0750016745569	101
47.1000021207146	102
47.1249990141587	91
47.1499994603164	90
47.1749999064741	102
47.2000003526318	86
47.2250007987895	88
47.2500012449473	91
47.275001691105	101
47.3000021372627	91
47.3249990307068	102
47.3499994768645	101
47.3749999230222	86
47.4000003691799	89
47.4250008153376	86
47.4500012614953	104
47.4750017076531	87
47.5000021538108	91
47.5249990472548	100
47.5499994934125	78
47.5749999395703	100
47.600000385728	89
47.6250008318857	95
47.6500012780434	97
47.6750017242011	96
47.7000021703589	84
47.7249990638029	113
47.7499995099606	103
47.7749999561183	92
47.8000004022761	83
47.8250008484338	96
47.8500012945915	96
47.8750017407492	87
47.9000021869069	116
47.924999080351	102
47.9499995265087	89
47.9749999726664	86
48.0000004188241	113
48.0250008649818	98
48.0500013111396	91
48.0750017572973	81
48.100002203455	77
48.124999096899	107
48.1499995430568	73
48.1749999892145	96
48.2000004353722	90
48.2250008815299	98
48.2500013276876	94
48.2750017738454	78
48.3000022200031	78
48.3249991134471	93
48.3499995596048	98
48.3750000057626	99
48.4000004519203	89
48.425000898078	91
48.4500013442357	87
48.4750017903934	95
48.5000022365512	69
48.5249991299952	91
48.5499995761529	68
48.5750000223106	102
48.6000004684684	79
48.6250009146261	83
48.6500013607838	78
48.6750018069415	92
48.7000022530992	89
48.7249991465433	95
48.749999592701	102
48.7750000388587	75
48.8000004850164	109
48.8250009311741	101
48.8500013773319	76
48.8750018234896	83
48.9000022696473	92
48.9249991630913	74
48.9499996092491	80
48.9750000554068	93
49.0000005015645	88
49.0250009477222	88
49.0500013938799	82
49.0750018400377	102
49.1000022861954	84
49.1249991796394	78
49.1499996257971	103
49.1750000719549	104
49.2000005181126	72
49.2250009642703	106
49.250001410428	70
49.2750018565857	90
49.3000023027434	79
49.3249991961875	88
49.3499996423452	106
49.3750000885029	96
49.4000005346606	98
49.4250009808184	81
49.4500014269761	87
49.4750018731338	96
49.5000023192915	107
49.5249992127356	97
49.5499996588933	89
49.575000105051	94
49.6000005512087	84
49.6250009973664	89
49.6500014435242	98
49.6750018896819	83
49.7000023358396	77
49.7249992292836	68
49.7499996754414	85
49.7750001215991	84
49.8000005677568	95
49.8250010139145	105
49.8500014600722	98
49.87500190623	60
49.9000023523877	80
49.9249992458317	89
49.9499996919894	99
49.9750001381472	79
50.0000005843049	63
50.0250010304626	1
