"elements_measured","S","errors.S."
"Li",195.835681214269,10.2707506547799
"Na2O",227.26924807751,5.66874250999341
"SiO2",3.53987502225013,0.0464459361164722
"CaO",7.06100460938023,0.146135421385517
"Sc",297.251340868536,7.30381174858555
"Ti",343.867387029515,8.49411874074198
"Mn",284.821408554097,8.90714871744642
"Co",202.457560757492,5.41585402572648
"Ga",188.341925726214,6.02133264790825
"As",52.6747709117043,2.9742194142307
"Y",324.058932043726,8.49752794170662
"Nb",298.071206940448,22.0391187902709
"Pd",52.3940607497673,19.0610798196137
"Sb",111.285562334403,5.47765773970536
"Cs",267.267858140538,7.19831715377662
"Ho",243.826205628445,7.04565290035237
"Au",72.1579690091454,5.25793052723745
"Th",106.08562802135,1.18840840601786
"U",103.321089020571,1.15702979785421
