Time	Intensity
0	40
0.0250000003337858	124
0.0500000006675716	136
0.0749999992666339	125
0.100000001335143	123
0.124999996464759	109
0.149999998533268	131
0.175000000601777	129
0.200000002670286	121
0.225000004738796	159
0.249999992929517	134
0.274999994998026	118
0.299999997066536	117
0.324999999135045	134
0.350000001203554	125
0.375000003272063	129
0.400000005340573	128
0.425000007409082	108
0.450000009477591	115
0.474999983790525	129
0.499999985859034	130
0.524999987927544	121
0.549999989996053	106
0.574999992064562	135
0.599999994133071	132
0.624999996201581	116
0.64999999827009	150
0.675000000338599	128
0.700000002407108	139
0.725000004475618	125
0.750000006544127	135
0.775000008612636	121
0.800000010681146	126
0.825000012749655	134
0.850000014818164	124
0.875000016886673	123
0.900000018955183	112
0.925000021023692	136
0.94999996758105	110
0.974999969649559	119
0.999999971718068	103
1.02499997378658	115
1.04999997585509	111
1.0749999779236	129
1.09999997999211	117
1.12499998206061	101
1.14999998412912	115
1.17499998619763	126
1.19999998826614	127
1.22499999033465	121
1.24999999240316	120
1.27499999447167	92
1.29999999654018	123
1.32499999860869	122
1.3500000006772	132
1.37500000274571	124
1.40000000481422	119
1.42500000688273	109
1.45000000895124	108
1.47500001101974	127
1.50000001308825	97
1.52500001515676	127
1.55000001722527	127
1.57500001929378	111
1.60000002136229	117
1.6250000234308	101
1.65000002549931	98
1.67500002756782	116
1.70000002963633	110
1.72500003170484	131
1.75000003377335	122
1.77500003584186	126
1.80000003791037	118
1.82500003997887	126
1.85000004204738	129
1.87499993309359	112
1.8999999351621	116
1.92499993723061	84
1.94999993929912	123
1.97499994136763	113
1.99999994343614	118
2.02499994550465	101
2.04999994757316	94
2.07499994964166	113
2.09999995171017	124
2.12499995377868	113
2.14999995584719	122
2.1749999579157	111
2.19999995998421	118
2.22499996205272	106
2.24999996412123	120
2.27499996618974	126
2.29999996825825	120
2.32499997032676	110
2.34999997239527	127
2.37499997446378	116
2.39999997653229	115
2.42499997860079	115
2.4499999806693	107
2.47499998273781	133
2.49999998480632	109
2.52499998687483	98
2.54999998894334	119
2.57499999101185	143
2.59999999308036	138
2.62499999514887	107
2.64999999721738	115
2.67499999928589	104
2.7000000013544	107
2.72500000342291	118
2.75000000549142	98
2.77500000755992	104
2.80000000962843	102
2.82500001169694	107
2.85000001376545	130
2.87500001583396	111
2.90000001790247	108
2.92500001997098	110
2.95000002203949	120
2.975000024108	98
3.00000002617651	98
3.02500002824502	111
3.05000003031353	92
3.07500003238204	108
3.10000003445055	122
3.12500003651905	116
3.15000003858756	97
3.17500004065607	108
3.20000004272458	94
3.22500004479309	105
3.2500000468616	105
3.27500004893011	115
3.30000005099862	102
3.32500005306713	109
3.35000005513564	105
3.37500005720415	93
3.40000005927266	153
3.42500006134117	151
3.45000006340967	203
3.47500006547818	261
3.50000006754669	433
3.5250000696152	569
3.55000007168371	722
3.57500007375222	921
3.60000007582073	1144
3.62500007788924	1275
3.65000007995775	1379
3.67500008202626	1539
3.70000008409477	1576
3.72500008616328	1739
3.74999986618718	1759
3.77499986825569	1901
3.7999998703242	1878
3.82499987239271	2022
3.84999987446122	2077
3.87499987652973	2097
3.89999987859824	2234
3.92499988066675	2255
3.94999988273526	2257
3.97499988480377	2307
3.99999988687227	2294
4.02499988894078	2360
4.04999989100929	2388
4.0749998930778	2430
4.09999989514631	2406
4.12499989721482	2502
4.14999989928333	2498
4.17499990135184	2523
4.19999990342035	2544
4.22499990548886	2660
4.24999990755737	2560
4.27499990962588	2667
4.29999991169439	2616
4.32499991376289	2723
4.3499999158314	2664
4.37499991789991	2735
4.39999991996842	2734
4.42499992203693	2699
4.44999992410544	2732
4.47499992617395	2803
4.49999992824246	2692
4.52499993031097	2841
4.54999993237948	2785
4.57499993444799	2852
4.5999999365165	2876
4.62499993858501	2816
4.64999994065352	2839
4.67499994272202	2807
4.69999994479053	2941
4.72499994685904	2951
4.74999994892755	2905
4.77499995099606	2854
4.79999995306457	2964
4.82499995513308	2946
4.84999995720159	2959
4.8749999592701	3032
4.89999996133861	2940
4.92499996340712	3038
4.94999996547563	2876
4.97499996754414	2957
4.99999996961265	3168
5.02499997168115	2952
5.04999997374966	3078
5.07499997581817	2937
5.09999997788668	2929
5.12499997995519	3055
5.1499999820237	3085
5.17499998409221	3037
5.19999998616072	3019
5.22499998822923	3060
5.24999999029774	2932
5.27499999236625	3144
5.29999999443476	3045
5.32499999650327	3205
5.34999999857177	3104
5.37500000064028	3044
5.40000000270879	3097
5.4250000047773	3185
5.45000000684581	3174
5.47500000891432	3171
5.50000001098283	3131
5.52500001305134	3122
5.55000001511985	3124
5.57500001718836	3113
5.60000001925687	3152
5.62500002132538	3149
5.65000002339389	3094
5.6750000254624	3172
5.7000000275309	3111
5.72500002959941	3199
5.75000003166792	3180
5.77500003373643	3178
5.80000003580494	3242
5.82500003787345	3064
5.85000003994196	3195
5.87500004201047	3144
5.90000004407898	3125
5.92500004614749	3178
5.950000048216	3129
5.97500005028451	3183
6.00000005235302	3272
6.02500005442153	3202
6.05000005649004	3230
6.07500005855854	3175
6.10000006062705	3251
6.12500006269556	3267
6.15000006476407	3070
6.17500006683258	3161
6.20000006890109	3140
6.2250000709696	3223
6.25000007303811	3249
6.27500007510662	3116
6.30000007717513	3119
6.32500007924364	3235
6.35000008131215	3173
6.37500008338066	3272
6.40000008544916	3225
6.42500008751767	3249
6.45000008958618	3224
6.47500009165469	3150
6.5000000937232	3087
6.52500009579171	3216
6.55000009786022	3215
6.57500009992873	3070
6.60000010199724	3281
6.62500010406575	3176
6.65000010613426	3068
6.67500010820277	3203
6.70000011027128	3162
6.72500011233978	3208
6.75000011440829	3213
6.7750001164768	3253
6.80000011854531	3144
6.82500012061382	3189
6.85000012268233	3288
6.87500012475084	3116
6.90000012681935	3247
6.92500012888786	3171
6.95000013095637	3042
6.97500013302488	3152
7.00000013509339	3134
7.0250001371619	3135
7.05000013923041	3098
7.07500014129891	3189
7.10000014336742	3132
7.12500014543593	3306
7.15000014750444	3144
7.17500014957295	3152
7.20000015164146	3218
7.22500015370997	3322
7.25000015577848	3268
7.27500015784699	3220
7.3000001599155	3266
7.32500016198401	3201
7.35000016405252	3228
7.37500016612103	3221
7.40000016818954	3133
7.42500017025805	3203
7.45000017232655	3177
7.47500017439506	3205
7.49999973237436	3178
7.52500017853208	3203
7.54999973651138	3253
7.5750001826691	3185
7.5999997406484	3139
7.62500018680612	3129
7.64999974478542	3204
7.67500019094314	3236
7.69999974892244	3266
7.72500019508016	3196
7.74999975305946	3078
7.77500019921718	3084
7.79999975719647	3256
7.82500020335419	3237
7.84999976133349	3129
7.87500020749121	3122
7.89999976547051	3139
7.92500021162823	3233
7.94999976960753	3169
7.97500021576525	3101
7.99999977374455	3150
8.02500021990227	3143
8.04999977788157	3111
8.07500022403929	3211
8.09999978201859	3199
8.1250002281763	3103
8.1499997861556	3167
8.17500023231332	3185
8.19999979029262	3216
8.22500023645034	3225
8.24999979442964	3137
8.27500024058736	3100
8.29999979856666	3048
8.32500024472438	3114
8.34999980270368	3129
8.3750002488614	3080
8.3999998068407	3217
8.42500025299842	3143
8.44999981097772	3161
8.47500025713543	3182
8.49999981511473	3105
8.52500026127245	3174
8.54999981925175	3182
8.57500026540947	3128
8.59999982338877	3119
8.62500026954649	3075
8.64999982752579	3109
8.67500027368351	3117
8.69999983166281	3118
8.72500027782053	3143
8.74999983579983	3159
8.77500028195755	3029
8.79999983993684	3010
8.82500028609456	2999
8.84999984407386	3047
8.87500029023158	3084
8.89999984821088	3154
8.9250002943686	3111
8.9499998523479	3116
8.97500029850562	3038
8.99999985648492	3085
9.02500030264264	3037
9.04999986062194	3095
9.07500030677966	3046
9.09999986475896	3101
9.12500031091668	3096
9.14999986889597	3117
9.17500031505369	3036
9.19999987303299	3056
9.22500031919071	3132
9.24999987717001	3012
9.27500032332773	2973
9.29999988130703	3005
9.32500032746475	3028
9.34999988544405	3015
9.37500033160177	3077
9.39999988958107	2953
9.42500033573879	3006
9.44999989371809	3073
9.47500033987581	3033
9.49999989785511	2986
9.52500034401282	2972
9.54999990199212	3001
9.57500034814984	2989
9.59999990612914	3065
9.62500035228686	3051
9.64999991026616	2923
9.67500035642388	3019
9.69999991440318	2947
9.7250003605609	2954
9.7499999185402	3093
9.77500036469792	3076
9.79999992267722	3021
9.82500036883494	2985
9.84999992681423	3023
9.87500037297195	2967
9.89999993095125	2990
9.92500037710897	2999
9.94999993508827	2997
9.97500038124599	2921
9.99999993922529	2961
10.025000385383	2930
10.0499999433623	2921
10.07500038952	2955
10.0999999474993	2882
10.125000393657	2994
10.1499999516363	2931
10.1750003977941	2952
10.1999999557734	2958
10.2250004019311	2899
10.2499999599104	2950
10.2750004060681	2949
10.2999999640474	2917
10.3250004102051	2776
10.3499999681844	2904
10.3750004143421	2981
10.3999999723214	2874
10.4250004184792	2991
10.4499999764585	2928
10.4750004226162	2917
10.4999999805955	2856
10.5250004267532	2961
10.5499999847325	2879
10.5750004308902	2897
10.5999999888695	2969
10.6250004350272	2950
10.6499999930065	2877
10.6750004391643	2861
10.6999999971435	2872
10.7250004433013	2839
10.7500000012806	2778
10.7750004474383	2850
10.8000000054176	2788
10.8250004515753	2785
10.8500000095546	2881
10.8750004557123	2876
10.9000000136916	2844
10.9250004598493	2899
10.9500000178286	2743
10.9750004639864	2888
11.0000000219657	2796
11.0250004681234	2847
11.0500000261027	2780
11.0750004722604	2818
11.1000000302397	2817
11.1250004763974	2798
11.1500000343767	2800
11.1750004805344	2845
11.2000000385137	2850
11.2250004846715	2725
11.2500000426508	2854
11.2750004888085	2829
11.3000000467878	2714
11.3250004929455	2787
11.3500000509248	2796
11.3750004970825	2728
11.4000000550618	2749
11.4250005012195	2767
11.4500000591988	2767
11.4750005053565	2728
11.5000000633358	2842
11.5250005094936	2784
11.5500000674729	2806
11.5750005136306	2787
11.6000000716099	2704
11.6250005177676	2761
11.6500000757469	2755
11.6750005219046	2815
11.7000000798839	2741
11.7250005260416	2807
11.7500000840209	2692
11.7750005301787	2684
11.800000088158	2714
11.8250005343157	2630
11.850000092295	2605
11.8750005384527	2685
11.900000096432	2711
11.9250005425897	2645
11.950000100569	2740
11.9750005467267	2682
12.000000104706	2677
12.0250005508638	2673
12.0500001088431	2559
12.0750005550008	2711
12.1000001129801	2597
12.1250005591378	2699
12.1500001171171	2604
12.1750005632748	2682
12.2000001212541	2658
12.2250005674118	2674
12.2500001253911	2625
12.2750005715488	2670
12.3000001295281	2582
12.3250005756859	2644
12.3500001336652	2640
12.3750005798229	2536
12.4000001378022	2749
12.4250005839599	2661
12.4500001419392	2557
12.4750005880969	2659
12.5000001460762	2716
12.5250005922339	2652
12.5500001502132	2627
12.575000596371	2609
12.6000001543503	2585
12.625000600508	2616
12.6500001584873	2584
12.675000604645	2566
12.7000001626243	2667
12.725000608782	2626
12.7500001667613	2553
12.775000612919	2594
12.8000001708983	2556
12.8249997288776	2559
12.8500001750353	2622
12.8749997330146	2597
12.9000001791724	2516
12.9249997371517	2633
12.9500001833094	2527
12.9749997412887	2438
13.0000001874464	2638
13.0249997454257	2546
13.0500001915834	2483
13.0749997495627	2466
13.1000001957204	2528
13.1249997536997	2488
13.1500001998575	2594
13.1749997578368	2518
13.2000002039945	2497
13.2249997619738	2495
13.2500002081315	2489
13.2749997661108	2510
13.3000002122685	2519
13.3249997702478	2521
13.3500002164055	2361
13.3749997743848	2545
13.4000002205426	2573
13.4249997785219	2559
13.4500002246796	2495
13.4749997826589	2496
13.5000002288166	2371
13.5249997867959	2511
13.5500002329536	2398
13.5749997909329	2432
13.6000002370906	2467
13.6249997950699	2487
13.6500002412276	2531
13.6749997992069	2419
13.7000002453647	2393
13.724999803344	2336
13.7500002495017	2373
13.774999807481	2403
13.8000002536387	2357
13.824999811618	2370
13.8500002577757	2410
13.874999815755	2417
13.9000002619127	2372
13.924999819892	2335
13.9500002660498	2316
13.9749998240291	2314
14.0000002701868	2413
14.0249998281661	2288
14.0500002743238	2269
14.0749998323031	2340
14.1000002784608	2320
14.1249998364401	2391
14.1500002825978	2344
14.1749998405771	2302
14.2000002867348	2289
14.2249998447141	2323
14.2500002908719	2408
14.2749998488512	2250
14.3000002950089	2332
14.3249998529882	2325
14.3500002991459	2324
14.3749998571252	2331
14.4000003032829	2209
14.4249998612622	2342
14.4500003074199	2258
14.4749998653992	2386
14.500000311557	2298
14.5249998695363	2209
14.550000315694	2281
14.5749998736733	2282
14.600000319831	2290
14.6249998778103	2354
14.650000323968	2328
14.6749998819473	2215
14.700000328105	2302
14.7249998860843	2280
14.7500003322421	2213
14.7749998902214	2263
14.8000003363791	2262
14.8249998943584	2314
14.8500003405161	2259
14.8749998984954	2267
14.9000003446531	2188
14.9249999026324	2236
14.9500003487901	2229
14.9750007949478	2304
14.9999994647487	2246
15.0249999109064	2240
15.0500003570642	2262
15.0750008032219	2227
15.0999994730228	2183
15.1249999191805	2201
15.1500003653382	2107
15.1750008114959	2130
15.1999994812968	2188
15.2249999274545	2195
15.2500003736122	2167
15.27500081977	2165
15.2999994895708	2157
15.3249999357286	2141
15.3500003818863	2194
15.375000828044	2157
15.3999994978449	2133
15.4249999440026	2095
15.4500003901603	2243
15.475000836318	2148
15.4999995061189	2101
15.5249999522766	2157
15.5500003984343	2072
15.5750008445921	2082
15.5999995143929	2087
15.6249999605507	2121
15.6500004067084	2154
15.6750008528661	2150
15.699999522667	2139
15.7249999688247	2081
15.7500004149824	2060
15.7750008611401	2089
15.799999530941	2054
15.8249999770987	2027
15.8500004232565	2150
15.8750008694142	2102
15.8999995392151	2048
15.9249999853728	2077
15.9500004315305	2089
15.9750008776882	2029
15.9999995474891	2134
16.0249999936468	2047
16.0500004398045	2095
16.0750008859623	2089
16.0999995557631	2022
16.1250000019209	2022
16.1500004480786	2026
16.1750008942363	2068
16.1999995640372	1947
16.2250000101949	2062
16.2500004563526	2047
16.2750009025103	2130
16.2999995723112	2038
16.3250000184689	2048
16.3500004646266	2060
16.3750009107844	2033
16.3999995805852	2052
16.425000026743	2010
16.4500004729007	2014
16.4750009190584	2091
16.4999995888593	1931
16.525000035017	2088
16.5500004811747	2006
16.5750009273324	1999
16.5999995971333	1981
16.625000043291	1990
16.6500004894488	1949
16.6750009356065	1952
16.6999996054074	1999
16.7250000515651	1988
16.7500004977228	2012
16.7750009438805	1986
16.7999996136814	1926
16.8250000598391	1949
16.8500005059968	1850
16.8750009521546	1907
16.8999996219554	1891
16.9250000681131	1951
16.9500005142709	1987
16.9750009604286	1925
16.9999996302295	1830
17.0250000763872	1993
17.0500005225449	1913
17.0750009687026	1918
17.0999996385035	1903
17.1250000846612	1936
17.1500005308189	1913
17.1750009769767	1894
17.1999996467775	1867
17.2250000929353	1857
17.250000539093	1926
17.2750009852507	1883
17.2999996550516	1905
17.3250001012093	1906
17.350000547367	1837
17.3750009935247	1772
17.3999996633256	1827
17.4250001094833	1834
17.4500005556411	1964
17.4750010017988	1860
17.4999996715997	1916
17.5250001177574	1760
17.5500005639151	1822
17.5750010100728	1824
17.5999996798737	1834
17.6250001260314	1814
17.6500005721891	1810
17.6750010183468	1789
17.6999996881477	1878
17.7250001343054	1802
17.7500005804632	1833
17.7750010266209	1858
17.7999996964218	1791
17.8250001425795	1840
17.8500005887372	1794
17.8750010348949	1886
17.8999997046958	1879
17.9250001508535	1808
17.9500005970112	1743
17.975001043169	1767
17.9999997129698	1813
18.0250001591276	1746
18.0500006052853	1797
18.075001051443	1705
18.0999997212439	1739
18.1250001674016	1759
18.1500006135593	1806
18.175001059717	1771
18.1999997295179	1690
18.2250001756756	1692
18.2500006218334	1712
18.2750010679911	1722
18.2999997377919	1694
18.3250001839497	1765
18.3500006301074	1712
18.3750010762651	1729
18.399999746066	1741
18.4250001922237	1772
18.4500006383814	1686
18.4750010845391	1684
18.49999975434	1623
18.5250002004977	1682
18.5500006466555	1621
18.5750010928132	1738
18.5999997626141	1705
18.6250002087718	1631
18.6500006549295	1657
18.6750011010872	1713
18.6999997708881	1602
18.7250002170458	1673
18.7500006632035	1674
18.7750011093613	1676
18.7999997791621	1642
18.8250002253199	1595
18.8500006714776	1648
18.8750011176353	1672
18.8999997874362	1694
18.9250002335939	1676
18.9500006797516	1665
18.9750011259093	1637
18.9999997957102	1588
19.0250002418679	1627
19.0500006880256	1631
19.0750011341834	1588
19.0999998039842	1551
19.125000250142	1600
19.1500006962997	1691
19.1750011424574	1604
19.1999998122583	1658
19.225000258416	1601
19.2500007045737	1508
19.2749993743746	1627
19.2999998205323	1642
19.32500026669	1594
19.3500007128478	1579
19.3749993826486	1576
19.3999998288064	1590
19.4250002749641	1632
19.4500007211218	1544
19.4749993909227	1588
19.4999998370804	1566
19.5250002832381	1509
19.5500007293958	1512
19.5749993991967	1568
19.5999998453544	1542
19.6250002915122	1616
19.6500007376699	1560
19.6749994074707	1594
19.6999998536285	1514
19.7250002997862	1533
19.7500007459439	1570
19.7749994157448	1592
19.7999998619025	1444
19.8250003080602	1501
19.8500007542179	1455
19.8749994240188	1524
19.8999998701765	1519
19.9250003163343	1587
19.950000762492	1456
19.9749994322929	1472
19.9999998784506	1555
20.0250003246083	1456
20.050000770766	1521
20.0749994405669	1485
20.0999998867246	1566
20.1250003328823	1512
20.1500007790401	1521
20.1749994488409	1481
20.1999998949987	1479
20.2250003411564	1504
20.2500007873141	1482
20.274999457115	1486
20.2999999032727	1443
20.3250003494304	1361
20.3500007955881	1470
20.374999465389	1457
20.3999999115467	1488
20.4250003577044	1496
20.4500008038622	1398
20.474999473663	1500
20.4999999198208	1498
20.5250003659785	1407
20.5500008121362	1473
20.5749994819371	1438
20.5999999280948	1429
20.6250003742525	1360
20.6500008204102	1450
20.6749994902111	1486
20.6999999363688	1410
20.7250003825266	1424
20.7500008286843	1419
20.7749994984852	1368
20.7999999446429	1442
20.8250003908006	1396
20.8500008369583	1454
20.8749995067592	1455
20.8999999529169	1412
20.9250003990746	1431
20.9500008452324	1347
20.9749995150332	1389
20.999999961191	1423
21.0250004073487	1450
21.0500008535064	1345
21.0749995233073	1314
21.099999969465	1359
21.1250004156227	1341
21.1500008617804	1337
21.1749995315813	1281
21.199999977739	1392
21.2250004238967	1377
21.2500008700545	1398
21.2749995398553	1396
21.2999999860131	1346
21.3250004321708	1384
21.3500008783285	1297
21.3749995481294	1287
21.3999999942871	1370
21.4250004404448	1394
21.4500008866025	1389
21.4749995564034	1298
21.5000000025611	1327
21.5250004487189	1378
21.5500008948766	1341
21.5749995646775	1260
21.6000000108352	1236
21.6250004569929	1292
21.6500009031506	1309
21.6749995729515	1337
21.7000000191092	1361
21.7250004652669	1304
21.7500009114246	1316
21.7749995812255	1283
21.8000000273832	1307
21.825000473541	1250
21.8500009196987	1332
21.8749995894996	1313
21.9000000356573	1170
21.925000481815	1271
21.9500009279727	1276
21.9749995977736	1257
22.0000000439313	1252
22.025000490089	1265
22.0500009362468	1260
22.0749996060476	1280
22.1000000522054	1281
22.1250004983631	1257
22.1500009445208	1304
22.1749996143217	1221
22.2000000604794	1227
22.2250005066371	1269
22.2500009527948	1269
22.2749996225957	1218
22.3000000687534	1247
22.3250005149112	1257
22.3500009610689	1264
22.3749996308698	1215
22.4000000770275	1198
22.4250005231852	1233
22.4500009693429	1249
22.4749996391438	1187
22.5000000853015	1206
22.5250005314592	1260
22.5500009776169	1192
22.5749996474178	1231
22.6000000935755	1324
22.6250005397333	1197
22.650000985891	1162
22.6749996556919	1227
22.7000001018496	1228
22.7250005480073	1212
22.750000994165	1114
22.7749996639659	1145
22.8000001101236	1179
22.8250005562813	1223
22.8500010024391	1153
22.8749996722399	1203
22.9000001183977	1183
22.9250005645554	1175
22.9500010107131	1166
22.974999680514	1189
23.0000001266717	1197
23.0250005728294	1216
23.0500010189871	1196
23.074999688788	1169
23.1000001349457	1217
23.1250005811034	1154
23.1500010272612	1185
23.174999697062	1194
23.2000001432198	1155
23.2250005893775	1158
23.2500010355352	1125
23.2749997053361	1116
23.3000001514938	1177
23.3250005976515	1176
23.3500010438092	1175
23.3749997136101	1147
23.4000001597678	1158
23.4250006059256	1123
23.4500010520833	1125
23.4749997218842	1094
23.5000001680419	1147
23.5250006141996	1156
23.5500010603573	1078
23.5749997301582	1108
23.6000001763159	1095
23.6250006224736	1107
23.6500010686314	1073
23.6749997384322	1128
23.70000018459	1060
23.7250006307477	1120
23.7500010769054	1051
23.7749997467063	1136
23.800000192864	1076
23.8250006390217	1078
23.8500010851794	1138
23.8749997549803	1030
23.900000201138	1077
23.9250006472957	1093
23.9500010934535	1100
23.9749997632543	1080
24.0000002094121	1026
24.0250006555698	1030
24.0500011017275	1062
24.0749997715284	1033
24.1000002176861	1134
24.1250006638438	1059
24.1500011100015	1067
24.1749997798024	1060
24.2000002259601	1059
24.2250006721179	1041
24.2500011182756	1014
24.2749997880765	1021
24.3000002342342	973
24.3250006803919	1031
24.3500011265496	1032
24.3749997963505	1017
24.4000002425082	1047
24.4250006886659	1042
24.4500011348237	1018
24.4749998046245	1036
24.5000002507822	1073
24.52500069694	963
24.5500011430977	1079
24.5749998128986	1023
24.6000002590563	983
24.625000705214	1029
24.6500011513717	1016
24.6749998211726	1012
24.7000002673303	1009
24.725000713488	996
24.7500011596458	1004
24.7749998294466	1009
24.8000002756044	1018
24.8250007217621	988
24.8500011679198	951
24.8749998377207	983
24.9000002838784	1026
24.9250007300361	1033
24.9500011761938	985
24.9749998459947	1023
25.0000002921524	1023
25.0250007383102	979
25.0500011844679	955
25.0749998542688	936
25.1000003004265	995
25.1250007465842	971
25.1500011927419	959
25.1749998625428	998
25.2000003087005	968
25.2250007548582	986
25.2500012010159	976
25.2749998708168	928
25.3000003169745	933
25.3250007631323	945
25.35000120929	921
25.3749998790909	914
25.4000003252486	957
25.4250007714063	944
25.450001217564	927
25.4749998873649	934
25.5000003335226	938
25.5250007796803	969
25.5500012258381	954
25.5749998956389	908
25.6000003417967	921
25.6250007879544	945
25.6499994577553	937
25.674999903913	946
25.7000003500707	875
25.7250007962284	958
25.7499994660293	970
25.774999912187	936
25.8000003583447	904
25.8250008045025	923
25.8499994743033	923
25.874999920461	924
25.9000003666188	886
25.9250008127765	907
25.9499994825774	947
25.9749999287351	898
26.0000003748928	854
26.0250008210505	881
26.0499994908514	876
26.0749999370091	820
26.1000003831668	931
26.1250008293246	881
26.1499994991254	858
26.1749999452832	886
26.2000003914409	837
26.2250008375986	964
26.2499995073995	865
26.2749999535572	834
26.3000003997149	869
26.3250008458726	842
26.3499995156735	860
26.3749999618312	846
26.400000407989	831
26.4250008541467	864
26.4499995239476	830
26.4749999701053	836
26.500000416263	859
26.5250008624207	852
26.5499995322216	816
26.5749999783793	857
26.600000424537	885
26.6250008706947	868
26.6499995404956	838
26.6749999866533	844
26.7000004328111	883
26.7250008789688	902
26.7499995487697	819
26.7749999949274	861
26.8000004410851	850
26.8250008872428	871
26.8499995570437	836
26.8750000032014	872
26.9000004493591	879
26.9250008955169	795
26.9499995653177	805
26.9750000114755	857
27.0000004576332	814
27.0250009037909	854
27.0499995735918	843
27.0750000197495	815
27.1000004659072	808
27.1250009120649	769
27.1499995818658	858
27.1750000280235	790
27.2000004741813	772
27.225000920339	833
27.2499995901398	790
27.2750000362976	802
27.3000004824553	789
27.325000928613	816
27.3499995984139	827
27.3750000445716	782
27.4000004907293	787
27.425000936887	785
27.4499996066879	767
27.4750000528456	779
27.5000004990034	787
27.5250009451611	798
27.549999614962	816
27.5750000611197	741
27.6000005072774	765
27.6250009534351	775
27.649999623236	791
27.6750000693937	817
27.7000005155514	759
27.7250009617092	768
27.74999963151	726
27.7750000776678	769
27.8000005238255	774
27.8250009699832	731
27.8499996397841	748
27.8750000859418	747
27.9000005320995	750
27.9250009782572	770
27.9499996480581	741
27.9750000942158	697
28.0000005403735	778
28.0250009865313	771
28.0499996563321	740
28.0750001024899	758
28.1000005486476	749
28.1250009948053	744
28.1499996646062	712
28.1750001107639	749
28.2000005569216	766
28.2250010030793	747
28.2499996728802	752
28.2750001190379	717
28.3000005651957	766
28.3250010113534	746
28.3499996811543	693
28.375000127312	757
28.4000005734697	723
28.4250010196274	742
28.4499996894283	716
28.475000135586	748
28.5000005817437	751
28.5250010279015	710
28.5499996977023	726
28.5750001438601	687
28.6000005900178	713
28.6250010361755	726
28.6499997059764	720
28.6750001521341	701
28.7000005982918	698
28.7250010444495	704
28.7499997142504	731
28.7750001604081	658
28.8000006065658	703
28.8250010527236	697
28.8499997225244	733
28.8750001686822	710
28.9000006148399	743
28.9250010609976	740
28.9499997307985	725
28.9750001769562	724
29.0000006231139	701
29.0250010692716	700
29.0499997390725	683
29.0750001852302	650
29.100000631388	663
29.1250010775457	689
29.1499997473466	688
29.1750001935043	672
29.200000639662	660
29.2250010858197	708
29.2499997556206	640
29.2750002017783	688
29.300000647936	674
29.3250010940937	707
29.3499997638946	670
29.3750002100524	667
29.4000006562101	690
29.4250011023678	659
29.4499997721687	646
29.4750002183264	691
29.5000006644841	635
29.5250011106418	687
29.5499997804427	645
29.5750002266004	689
29.6000006727581	660
29.6250011189159	670
29.6499997887167	619
29.6750002348745	655
29.7000006810322	653
29.7250011271899	644
29.7499997969908	633
29.7750002431485	670
29.8000006893062	656
29.8249993591071	642
29.8499998052648	625
29.8750002514225	619
29.9000006975803	618
29.925001143738	639
29.9500015898957	652
29.9750020360534	618
29.9999989294975	616
30.0249993756552	614
30.0499998218129	677
30.0750002679706	659
30.1000007141283	641
30.125001160286	627
30.1500016064438	607
30.1750020526015	595
30.1999989460455	620
30.2249993922032	629
30.249999838361	632
30.2750002845187	655
30.3000007306764	616
30.3250011768341	629
30.3500016229918	608
30.3750020691496	598
30.3999989625936	612
30.4249994087513	605
30.449999854909	597
30.4750003010668	619
30.5000007472245	590
30.5250011933822	567
30.5500016395399	591
30.5750020856976	623
30.5999989791417	594
30.6249994252994	610
30.6499998714571	546
30.6750003176148	566
30.7000007637726	603
30.7250012099303	592
30.750001656088	638
30.7750021022457	575
30.7999989956897	612
30.8249994418475	522
30.8499998880052	610
30.8750003341629	592
30.9000007803206	580
30.9250012264783	582
30.9500016726361	612
30.9750021187938	569
30.9999990122378	567
31.0249994583955	593
31.0499999045533	537
31.075000350711	580
31.1000007968687	582
31.1250012430264	586
31.1500016891841	563
31.1750021353419	589
31.1999990287859	579
31.2249994749436	500
31.2499999211013	598
31.2750003672591	597
31.3000008134168	535
31.3250012595745	566
31.3500017057322	550
31.3750021518899	557
31.399999045334	546
31.4249994914917	574
31.4499999376494	552
31.4750003838071	521
31.5000008299648	533
31.5250012761226	522
31.5500017222803	534
31.575002168438	521
31.599999061882	522
31.6249995080398	510
31.6499999541975	495
31.6750004003552	555
31.7000008465129	558
31.7250012926706	525
31.7500017388284	554
31.7750021849861	544
31.7999990784301	575
31.8249995245878	560
31.8499999707456	562
31.8750004169033	577
31.900000863061	512
31.9250013092187	516
31.9500017553764	507
31.9750022015342	531
31.9999990949782	521
32.0249995411359	533
32.0499999872936	495
32.0750004334514	551
32.1000008796091	512
32.1250013257668	578
32.1500017719245	472
32.1749986653686	535
32.1999991115263	491
32.224999557684	520
32.2500000038417	515
32.2750004499994	509
32.3000008961571	524
32.3250013423149	505
32.3500017884726	500
32.3749986819166	570
32.3999991280743	510
32.4249995742321	555
32.4500000203898	515
32.4750004665475	507
32.5000009127052	483
32.5250013588629	499
32.5500018050207	471
32.5749986984647	484
32.5999991446224	500
32.6249995907801	496
32.6500000369379	525
32.6750004830956	471
32.7000009292533	491
32.725001375411	487
32.7500018215687	499
32.7749987150128	452
32.7999991611705	526
32.8249996073282	470
32.8500000534859	504
32.8750004996436	466
32.9000009458014	498
32.9250013919591	498
32.9500018381168	523
32.9749987315608	454
32.9999991777186	500
33.0249996238763	510
33.050000070034	473
33.0750005161917	484
33.1000009623494	476
33.1250014085072	489
33.1500018546649	536
33.1749987481089	482
33.1999991942666	503
33.2249996404244	507
33.2500000865821	474
33.2750005327398	498
33.3000009788975	471
33.3250014250552	476
33.350001871213	487
33.374998764657	489
33.3999992108147	462
33.4249996569724	455
33.4500001031302	427
33.4750005492879	466
33.5000009954456	452
33.5250014416033	487
33.550001887761	460
33.5749987812051	469
33.5999992273628	435
33.6249996735205	443
33.6500001196782	439
33.6750005658359	446
33.7000010119937	452
33.7250014581514	430
33.7500019043091	455
33.7749987977531	451
33.7999992439109	488
33.8249996900686	450
33.8500001362263	450
33.875000582384	446
33.9000010285417	440
33.9250014746995	450
33.9500019208572	452
33.9749988143012	472
33.9999992604589	451
34.0249997066167	415
34.0500001527744	439
34.0750005989321	433
34.1000010450898	465
34.1250014912475	419
34.1500019374052	429
34.1749988308493	475
34.199999277007	468
34.2249997231647	436
34.2500001693224	424
34.2750006154802	369
34.3000010616379	405
34.3250015077956	471
34.3500019539533	441
34.3749988473974	431
34.3999992935551	457
34.4249997397128	418
34.4500001858705	452
34.4750006320282	445
34.500001078186	394
34.5250015243437	421
34.5500019705014	421
34.5749988639454	414
34.5999993101032	389
34.6249997562609	433
34.6500002024186	405
34.6750006485763	425
34.700001094734	427
34.7250015408918	454
34.7500019870495	413
34.7749988804935	404
34.7999993266512	407
34.824999772809	435
34.8500002189667	426
34.8750006651244	386
34.9000011112821	429
34.9250015574398	383
34.9500020035975	428
34.9749988970416	410
34.9999993431993	388
35.024999789357	417
35.0500002355147	416
35.0750006816725	388
35.1000011278302	405
35.1250015739879	376
35.1500020201456	389
35.1749989135897	394
35.1999993597474	404
35.2249998059051	397
35.2500002520628	347
35.2750006982205	377
35.3000011443783	410
35.325001590536	414
35.3500020366937	376
35.3749989301377	406
35.3999993762955	395
35.4249998224532	377
35.4500002686109	399
35.4750007147686	393
35.5000011609263	409
35.5250016070841	386
35.5500020532418	379
35.5749989466858	388
35.5999993928435	383
35.6249998390012	349
35.650000285159	407
35.6750007313167	380
35.7000011774744	364
35.7250016236321	396
35.7500020697898	350
35.7749989632339	410
35.7999994093916	367
35.8249998555493	374
35.850000301707	378
35.8750007478648	359
35.9000011940225	388
35.9250016401802	366
35.9500020863379	354
35.974998979782	401
35.9999994259397	392
36.0249998720974	397
36.0500003182551	353
36.0750007644128	395
36.1000012105706	383
36.1250016567283	364
36.150002102886	383
36.17499899633	382
36.1999994424878	357
36.2249998886455	393
36.2500003348032	369
36.2750007809609	357
36.3000012271186	360
36.3250016732763	372
36.3500021194341	353
36.3749990128781	368
36.3999994590358	355
36.4249999051935	399
36.4500003513513	395
36.475000797509	340
36.5000012436667	344
36.5250016898244	343
36.5500021359821	313
36.5749990294262	367
36.5999994755839	349
36.6249999217416	360
36.6500003678993	362
36.6750008140571	340
36.7000012602148	313
36.7250017063725	322
36.7500021525302	337
36.7749990459743	375
36.799999492132	336
36.8249999382897	336
36.8500003844474	336
36.8750008306051	345
36.9000012767628	298
36.9250017229206	360
36.9500021690783	341
36.9749990625223	346
36.9999995086801	381
37.0249999548378	395
37.0500004009955	325
37.0750008471532	335
37.1000012933109	362
37.1250017394686	334
37.1500021856264	347
37.1749990790704	325
37.1999995252281	344
37.2249999713858	317
37.2500004175436	361
37.2750008637013	368
37.300001309859	345
37.3250017560167	304
37.3500022021744	341
37.3749990956185	331
37.3999995417762	314
37.4249999879339	311
37.4500004340916	300
37.4750008802494	345
37.5000013264071	350
37.5250017725648	320
37.5500022187225	377
37.5749991121666	325
37.5999995583243	329
37.625000004482	335
37.6500004506397	296
37.6750008967974	350
37.7000013429551	306
37.7250017891129	347
37.7500022352706	334
37.7749991287146	304
37.7999995748723	343
37.8250000210301	315
37.8500004671878	308
37.8750009133455	290
37.9000013595032	307
37.9250018056609	338
37.9500022518187	326
37.9749991452627	323
37.9999995914204	313
38.0250000375781	322
38.0500004837359	312
38.0750009298936	315
38.1000013760513	357
38.125001822209	292
38.1500022683667	334
38.1749991618108	331
38.1999996079685	298
38.2250000541262	326
38.2500005002839	317
38.2750009464417	309
38.3000013925994	310
38.3250018387571	291
38.3500022849148	315
38.3749991783588	293
38.3999996245166	296
38.4250000706743	298
38.450000516832	301
38.4750009629897	280
38.5000014091474	271
38.5250018553052	325
38.5499987487492	279
38.5749991949069	308
38.5999996410646	260
38.6250000872224	289
38.6500005333801	319
38.6750009795378	263
38.7000014256955	285
38.7250018718532	309
38.7499987652973	270
38.774999211455	307
38.7999996576127	286
38.8250001037704	284
38.8500005499282	271
38.8750009960859	322
38.9000014422436	280
38.9250018884013	292
38.9499987818454	266
38.9749992280031	298
38.9999996741608	287
39.0250001203185	265
39.0500005664762	306
39.0750010126339	287
39.1000014587917	265
39.1250019049494	264
39.1499987983934	268
39.1749992445511	271
39.1999996907089	273
39.2250001368666	260
39.2500005830243	306
39.275001029182	302
39.3000014753397	299
39.3250019214975	285
39.3499988149415	292
39.3749992610992	302
39.3999997072569	282
39.4250001534147	301
39.4500005995724	291
39.4750010457301	300
39.5000014918878	251
39.5250019380455	290
39.5499988314896	255
39.5749992776473	278
39.599999723805	274
39.6250001699627	285
39.6500006161204	303
39.6750010622782	267
39.7000015084359	252
39.7250019545936	280
39.7499988480377	284
39.7749992941954	275
39.7999997403531	299
39.8250001865108	330
39.8500006326685	287
39.8750010788262	283
39.900001524984	262
39.9250019711417	280
39.9499988645857	264
39.9749993107434	273
39.9999997569012	253
40.0250002030589	281
40.0500006492166	267
40.0750010953743	241
40.100001541532	268
40.1250019876898	257
40.1499988811338	280
40.1749993272915	260
40.1999997734492	254
40.225000219607	255
40.2500006657647	237
40.2750011119224	232
40.3000015580801	242
40.3250020042378	246
40.3499988976819	276
40.3749993438396	257
40.3999997899973	267
40.425000236155	267
40.4500006823127	292
40.4750011284705	280
40.5000015746282	271
40.5250020207859	273
40.5499989142299	261
40.5749993603877	259
40.5999998065454	248
40.6250002527031	259
40.6500006988608	220
40.6750011450185	280
40.7000015911763	273
40.725002037334	303
40.749998930778	249
40.7749993769357	246
40.7999998230935	263
40.8250002692512	244
40.8500007154089	249
40.8750011615666	241
40.9000016077243	243
40.9250020538821	257
40.9499989473261	264
40.9749993934838	258
40.9999998396415	226
41.0250002857993	247
41.050000731957	228
41.0750011781147	268
41.1000016242724	204
41.1250020704301	277
41.1499989638742	228
41.1749994100319	251
41.1999998561896	252
41.2250003023473	235
41.250000748505	239
41.2750011946628	246
41.3000016408205	208
41.3250020869782	232
41.3499989804222	235
41.37499942658	234
41.3999998727377	248
41.4250003188954	226
41.4500007650531	238
41.4750012112108	248
41.5000016573686	232
41.5250021035263	220
41.5499989969703	220
41.574999443128	257
41.5999998892858	242
41.6250003354435	225
41.6500007816012	259
41.6750012277589	246
41.7000016739166	246
41.7250021200743	247
41.7499990135184	234
41.7749994596761	250
41.7999999058338	204
41.8250003519915	224
41.8500007981493	222
41.875001244307	220
41.9000016904647	209
41.9250021366224	216
41.9499990300665	239
41.9749994762242	236
41.9999999223819	237
42.0250003685396	231
42.0500008146973	220
42.0750012608551	244
42.1000017070128	210
42.1250021531705	250
42.1499990466145	238
42.1749994927723	201
42.19999993893	218
42.2250003850877	208
42.2500008312454	220
42.2750012774031	230
42.3000017235609	214
42.3250021697186	241
42.3499990631626	221
42.3749995093203	204
42.3999999554781	230
42.4250004016358	216
42.4500008477935	231
42.4750012939512	173
42.5000017401089	190
42.5250021862666	231
42.5499990797107	236
42.5749995258684	259
42.5999999720261	226
42.6250004181838	199
42.6500008643416	235
42.6750013104993	182
42.700001756657	230
42.7250022028147	211
42.7499990962588	196
42.7749995424165	226
42.7999999885742	195
42.8250004347319	209
42.8500008808896	199
42.8750013270474	185
42.9000017732051	208
42.9250022193628	215
42.9499991128068	194
42.9749995589646	213
43.0000000051223	197
43.02500045128	212
43.0500008974377	195
43.0750013435954	228
43.1000017897532	206
43.1250022359109	206
43.1499991293549	192
43.1749995755126	199
43.2000000216703	185
43.2250004678281	198
43.2500009139858	211
43.2750013601435	190
43.3000018063012	188
43.3250022524589	202
43.349999145903	224
43.3749995920607	189
43.4000000382184	211
43.4250004843761	233
43.4500009305339	208
43.4750013766916	182
43.5000018228493	213
43.525002269007	210
43.5499991624511	195
43.5749996086088	187
43.6000000547665	183
43.6250005009242	210
43.6500009470819	196
43.6750013932397	198
43.7000018393974	194
43.7250022855551	186
43.7499991789991	200
43.7749996251569	194
43.8000000713146	200
43.8250005174723	192
43.85000096363	193
43.8750014097877	183
43.9000018559454	193
43.9250023021032	203
43.9499991955472	212
43.9749996417049	222
44.0000000878626	183
44.0250005340204	193
44.0500009801781	206
44.0750014263358	187
44.1000018724935	187
44.1250023186512	177
44.1499992120953	171
44.174999658253	188
44.2000001044107	194
44.2250005505684	199
44.2500009967262	208
44.2750014428839	176
44.3000018890416	182
44.3250023351993	191
44.3499992286434	173
44.3749996748011	187
44.4000001209588	190
44.4250005671165	187
44.4500010132742	203
44.4750014594319	188
44.5000019055897	155
44.5250023517474	182
44.5499992451914	179
44.5749996913491	190
44.6000001375069	180
44.6250005836646	174
44.6500010298223	164
44.67500147598	176
44.7000019221377	195
44.7250023682955	203
44.7499992617395	182
44.7749997078972	194
44.8000001540549	203
44.8250006002127	194
44.8500010463704	164
44.8750014925281	187
44.9000019386858	185
44.9249988321299	189
44.9499992782876	197
44.9749997244453	188
45.000000170603	194
45.0250006167607	181
45.0500010629185	190
45.0750015090762	201
45.1000019552339	171
45.1249988486779	169
45.1499992948357	175
45.1749997409934	174
45.2000001871511	167
45.2250006333088	167
45.2500010794665	197
45.2750015256242	185
45.300001971782	171
45.324998865226	191
45.3499993113837	162
45.3749997575414	195
45.4000002036992	181
45.4250006498569	152
45.4500010960146	188
45.4750015421723	184
45.50000198833	163
45.5249988817741	173
45.5499993279318	171
45.5749997740895	164
45.6000002202472	199
45.625000666405	162
45.6500011125627	145
45.6750015587204	142
45.7000020048781	194
45.7249988983222	180
45.7499993444799	182
45.7749997906376	190
45.8000002367953	163
45.825000682953	187
45.8500011291108	179
45.8750015752685	174
45.9000020214262	167
45.9249989148702	177
45.9499993610279	182
45.9749998071857	177
46.0000002533434	172
46.0250006995011	194
46.0500011456588	170
46.0750015918165	167
46.1000020379743	153
46.1249989314183	153
46.149999377576	163
46.1749998237337	150
46.2000002698915	172
46.2250007160492	149
46.2500011622069	174
46.2750016083646	184
46.3000020545223	173
46.3249989479664	151
46.3499993941241	145
46.3749998402818	169
46.4000002864395	138
46.4250007325973	161
46.450001178755	169
46.4750016249127	183
46.5000020710704	153
46.5249989645145	181
46.5499994106722	182
46.5749998568299	171
46.6000003029876	154
46.6250007491453	173
46.650001195303	193
46.6750016414608	157
46.7000020876185	152
46.7249989810625	151
46.7499994272202	157
46.774999873378	155
46.8000003195357	137
46.8250007656934	143
46.8500012118511	158
46.8750016580088	164
46.9000021041666	176
46.9249989976106	171
46.9499994437683	144
46.974999889926	153
47.0000003360838	134
47.0250007822415	153
47.0500012283992	135
47.0750016745569	155
47.1000021207146	167
47.1249990141587	154
47.1499994603164	163
47.1749999064741	158
47.2000003526318	167
47.2250007987895	151
47.2500012449473	165
47.275001691105	147
47.3000021372627	143
47.3249990307068	146
47.3499994768645	135
47.3749999230222	166
47.4000003691799	138
47.4250008153376	164
47.4500012614953	159
47.4750017076531	174
47.5000021538108	142
47.5249990472548	147
47.5499994934125	147
47.5749999395703	165
47.600000385728	151
47.6250008318857	152
47.6500012780434	161
47.6750017242011	145
47.7000021703589	143
47.7249990638029	165
47.7499995099606	140
47.7749999561183	156
47.8000004022761	162
47.8250008484338	150
47.8500012945915	165
47.8750017407492	158
47.9000021869069	137
47.924999080351	126
47.9499995265087	147
47.9749999726664	145
48.0000004188241	146
48.0250008649818	166
48.0500013111396	128
48.0750017572973	111
48.100002203455	126
48.124999096899	132
48.1499995430568	135
48.1749999892145	166
48.2000004353722	157
48.2250008815299	165
48.2500013276876	138
48.2750017738454	134
48.3000022200031	137
48.3249991134471	148
48.3499995596048	129
48.3750000057626	166
48.4000004519203	161
48.425000898078	140
48.4500013442357	135
48.4750017903934	139
48.5000022365512	141
48.5249991299952	138
48.5499995761529	135
48.5750000223106	135
48.6000004684684	152
48.6250009146261	142
48.6500013607838	153
48.6750018069415	148
48.7000022530992	140
48.7249991465433	160
48.749999592701	124
48.7750000388587	145
48.8000004850164	173
48.8250009311741	145
48.8500013773319	124
48.8750018234896	145
48.9000022696473	144
48.9249991630913	130
48.9499996092491	168
48.9750000554068	137
49.0000005015645	142
49.0250009477222	141
49.0500013938799	147
49.0750018400377	135
49.1000022861954	134
49.1249991796394	147
49.1499996257971	135
49.1750000719549	120
49.2000005181126	144
49.2250009642703	148
49.250001410428	149
49.2750018565857	123
49.3000023027434	148
49.3249991961875	146
49.3499996423452	102
49.3750000885029	116
49.4000005346606	123
49.4250009808184	138
49.4500014269761	144
49.4750018731338	116
49.5000023192915	117
49.5249992127356	121
49.5499996588933	148
49.575000105051	127
49.6000005512087	133
49.6250009973664	129
49.6500014435242	118
49.6750018896819	131
49.7000023358396	132
49.7249992292836	132
49.7499996754414	145
49.7750001215991	125
49.8000005677568	124
49.8250010139145	127
49.8500014600722	131
49.87500190623	135
49.9000023523877	121
49.9249992458317	130
49.9499996919894	117
49.9750001381472	116
50.0000005843049	115
50.0250010304626	2
