Item,Value,Uncertainty,Unit
H2O, 130,,%m/m
CO2,2,,%m/m
Na2O,99407,2226,%m/m
Al2O3,19500,400,%m/m
SiO2,325823,2337,%m/m
CaO,81475,1429,%m/m
H,15,,ug/g
Li,468,24,ug/g
Be,476,31,ug/g
B,350,56,ug/g
F,304,,ug/g
Mg,432,29,ug/g
P,413,46,ug/g
S,575,32,ug/g
Cl,274,67,ug/g
K,464,21,ug/g
Sc,455,10,ug/g
Ti,452,10,ug/g
V,450,9,ug/g
Cr,408,10,ug/g
Mn,444,13,ug/g
Fe,458,9,ug/g
Co,410,10,ug/g
Ni,458.7,4,ug/g
Cu,441,15,ug/g
Zn,460,18,ug/g
Ga,433,13,ug/g
Ge,447,78,ug/g
As,325,18,ug/g
Se,138,42,ug/g
Br,93,,ug/g
Rb,425.7,1,ug/g
Sr,515.5,1,ug/g
Y,462,11,ug/g
Zr,448,9,ug/g
Nb,465,34,ug/g
Mo,417,21,ug/g
Rh,1.29,0.07,ug/g
Pd,1.21,0.44,ug/g
Ag,251,9,ug/g
Cd,270,16,ug/g
In,434,19,ug/g
Sn,430,29,ug/g
Sb,396,19,ug/g
Te,302,,ug/g
Cs,366,9,ug/g
Ba,452,9,ug/g
La,440,10,ug/g
Ce,453,8,ug/g
Pr,448,7,ug/g
Nd,430,8,ug/g
Sm,453,11,ug/g
Eu,447,12,ug/g
Gd,449,12,ug/g
Tb,437,9,ug/g
Dy,437,11,ug/g
Ho,449,12,ug/g
Er,455,14,ug/g
Tm,435,10,ug/g
Yb,450,9,ug/g
Lu,439,8,ug/g
Hf,435,12,ug/g
Ta,446,33,ug/g
W,444,29,ug/g
Re,49.9,3.7,ug/g
Pt,3.12,0.08,ug/g
Au,23.6,1.7,ug/g
Tl,59.6,2.8,ug/g
Pb,426,1,ug/g
Bi,384,26,ug/g
Th,457.2,1,ug/g
U,461.5,1,ug/g
