C:\ICPCHEM\1\DATA\LabCourse23\Group12\TRANS50.d\TRANS50.d#
Intensity Vs Time,Counts
Acquired      : Oct 16 2023  04:45 pm using AcqMethod LABC23.M
Time [Sec],Li7,Na23,Si29,Ca44,Ti47,Ti48,Mn55,Fe56,Fe57,Ni60,Zn66,Sr88,Mo98,Cs133,Pb208,Th232,U238
0.895,28.00,10720.92,776.40,1201.96,18.00,12.00,76.00,2068.87,97.01,7.00,4.00,2.00,3.00,20.00,1.00,5.00,4.00
1.780,43.00,10718.90,724.35,1188.94,10.00,9.00,73.00,2029.76,97.01,7.00,3.00,4.00,4.00,47.00,4.00,0.00,1.00
2.665,28.00,10907.55,716.34,1231.01,13.00,11.00,74.00,2095.95,110.01,7.00,7.00,1.00,3.00,48.00,2.00,3.00,1.00
3.550,33.00,10699.63,754.37,1231.01,14.00,11.00,89.01,2125.03,94.01,11.00,3.00,3.00,2.00,31.00,2.00,1.00,2.00
4.435,28.00,10684.42,846.47,1225.00,14.00,13.00,64.00,2108.98,95.01,4.00,9.00,5.00,3.00,31.00,1.00,1.00,5.00
5.320,37.00,10764.53,821.44,1142.87,12.00,13.00,77.00,2178.18,121.01,10.00,4.00,2.00,0.00,41.00,3.00,3.00,1.00
6.205,35.00,10706.73,773.39,1266.07,17.00,12.00,81.00,2157.12,99.01,1.00,5.00,5.00,0.00,37.00,2.00,3.00,2.00
7.090,37.00,10746.28,818.44,1204.97,14.00,10.00,73.00,2115.00,108.01,4.00,3.00,2.00,3.00,24.00,3.00,1.00,4.00
7.975,41.00,10980.59,792.41,1223.00,22.00,15.00,88.01,2144.08,93.01,7.00,4.00,1.00,2.00,35.00,3.00,3.00,4.00
8.860,25.00,10665.15,808.43,1209.97,16.00,15.00,88.01,2097.95,104.01,6.00,2.00,1.00,1.00,34.00,5.00,1.00,2.00
9.745,28.00,10732.08,794.42,1186.94,15.00,10.00,94.01,2106.98,101.01,3.00,2.00,2.00,2.00,40.00,2.00,3.00,4.00
10.630,30.00,10783.80,820.44,1217.99,21.00,10.00,115.01,2221.31,99.01,4.00,5.00,4.00,0.00,31.00,2.00,2.00,3.00
11.515,40.00,10845.67,762.38,1267.07,15.00,6.00,97.01,2059.85,116.01,6.00,2.00,2.00,5.00,35.00,5.00,2.00,1.00
12.400,34.00,10807.13,783.40,1265.07,20.00,14.00,78.00,1995.67,111.01,8.00,9.00,1.00,2.00,33.00,1.00,2.00,3.00
13.285,30.00,10755.41,777.40,1233.01,11.00,9.00,64.00,2123.02,112.01,3.00,3.00,1.00,3.00,32.00,4.00,1.00,3.00
14.170,23.00,10692.53,723.34,1248.04,22.00,5.00,90.01,2138.07,107.01,4.00,6.00,1.00,3.00,26.00,3.00,2.00,1.00
15.055,44.00,10726.00,812.43,1205.97,12.00,15.00,85.00,2066.87,82.00,5.00,8.00,6.00,1.00,30.00,3.00,2.00,2.00
15.940,28.00,10761.49,818.44,1200.96,19.00,13.00,69.00,2116.00,102.01,2.00,6.00,4.00,2.00,36.00,2.00,2.00,2.00
16.825,24.00,10809.16,753.37,1241.03,17.00,13.00,90.01,2159.13,107.01,4.00,5.00,1.00,0.00,39.00,1.00,3.00,2.00
17.710,34.00,10717.88,802.42,1180.93,13.00,7.00,94.01,2127.03,116.01,3.00,5.00,4.00,1.00,35.00,4.00,0.00,2.00
18.595,31.00,10873.06,798.42,1218.99,20.00,20.00,82.00,2165.14,97.01,4.00,7.00,3.00,0.00,32.00,5.00,1.00,1.00
19.480,32.00,10804.09,773.39,1195.95,19.00,14.00,81.00,2106.98,94.01,9.00,7.00,2.00,0.00,28.00,2.00,3.00,3.00
20.365,40.00,10698.62,770.39,1200.96,10.00,12.00,68.00,2121.02,114.01,4.00,7.00,2.00,5.00,29.00,3.00,0.00,0.00
21.250,39.00,10759.46,780.40,1191.95,16.00,16.00,75.00,2102.97,108.01,5.00,4.00,4.00,3.00,40.00,3.00,4.00,2.00
22.135,31.00,10609.38,805.43,1169.91,9.00,20.00,87.01,2083.91,105.01,7.00,11.00,3.00,0.00,43.00,3.00,2.00,1.00
23.020,29.00,10980.59,788.41,1223.00,16.00,22.00,73.00,2138.07,125.01,6.00,5.00,1.00,2.00,28.00,0.00,2.00,2.00
23.905,28.00,10746.28,811.43,1186.94,14.00,16.00,84.00,2069.87,97.01,4.00,5.00,3.00,3.00,41.00,0.00,1.00,3.00
24.790,35.00,10782.79,775.40,1205.97,16.00,14.00,81.00,2120.01,111.01,5.00,4.00,2.00,2.00,42.00,0.00,3.00,3.00
25.675,35.00,10578.96,765.39,1175.92,14.00,24.00,69.00,2092.94,83.00,4.00,3.00,4.00,2.00,35.00,3.00,0.00,1.00
26.560,38.00,10862.92,746.37,1172.92,16.00,12.00,82.00,2131.05,109.01,3.00,5.00,5.00,1.00,30.00,4.00,2.00,1.00
27.445,29.00,10702.67,779.40,1194.95,14.00,9.00,76.00,2072.88,111.01,3.00,2.00,3.00,2.00,29.00,1.00,0.00,1.00
28.330,29.00,10835.53,794.42,1289.11,14.00,9.00,79.00,2103.97,95.01,6.00,5.00,3.00,2.00,38.00,2.00,3.00,1.00
29.216,38.00,10809.16,770.39,1161.90,10.00,15.00,85.00,2044.80,110.01,4.00,5.00,2.00,5.00,40.00,3.00,1.00,3.00
30.101,33.00,10872.04,785.41,1274.08,17.00,13.00,79.00,2097.95,92.01,10.00,5.00,3.00,0.00,40.00,3.00,0.00,2.00
30.986,44.00,10862.92,816.44,1256.05,20.00,8.00,91.01,2141.07,91.01,3.00,6.00,3.00,2.00,35.00,3.00,1.00,2.00
31.871,32.00,10736.14,812.43,1186.94,19.00,4.00,77.00,2072.88,97.01,13.00,5.00,1.00,3.00,49.00,3.00,4.00,1.00
32.756,43.00,10732.08,786.41,1153.89,11.00,9.00,96.01,2058.84,100.01,9.00,2.00,5.00,4.00,35.00,4.00,2.00,1.00
33.641,37.00,10824.37,826.45,1237.02,14.00,12.00,82.00,2154.11,119.01,7.00,4.00,4.00,2.00,23.00,1.00,1.00,2.00
34.526,29.00,10774.68,772.39,1226.00,14.00,10.00,86.00,2076.89,90.01,7.00,5.00,4.00,2.00,28.00,0.00,2.00,2.00
35.411,23.00,10773.66,801.42,1247.04,15.00,9.00,101.01,2150.10,110.01,7.00,5.00,3.00,4.00,40.00,1.00,5.00,2.00
36.296,31.00,10777.72,823.45,1204.97,16.00,15.00,68.00,2003.69,104.01,11.00,4.00,1.00,2.00,36.00,2.00,3.00,2.00
37.181,29.00,10949.14,845.47,1271.08,13.00,10.00,71.00,2115.00,112.01,7.00,9.00,2.00,2.00,29.00,2.00,1.00,2.00
38.066,32.00,10915.66,787.41,1160.90,14.00,16.00,94.01,2168.15,95.01,6.00,3.00,6.00,1.00,40.00,3.00,1.00,7.00
38.951,26.00,10743.24,788.41,1224.00,16.00,8.00,76.00,2048.82,97.01,3.00,5.00,3.00,2.00,37.00,6.00,1.00,1.00
39.836,21.00,10828.43,787.41,1214.98,14.00,11.00,83.00,2076.89,89.01,4.00,9.00,5.00,2.00,31.00,2.00,3.00,3.00
40.721,26.00,10731.07,804.43,1216.99,14.00,9.00,88.01,2049.82,97.01,6.00,3.00,3.00,0.00,39.00,3.00,3.00,3.00
41.606,34.00,10687.46,799.42,1260.06,19.00,16.00,88.01,2082.91,109.01,4.00,6.00,5.00,2.00,41.00,3.00,5.00,1.00
42.491,39.00,10753.38,761.38,1217.99,17.00,12.00,90.01,2134.05,127.01,2.00,3.00,5.00,2.00,23.00,3.00,1.00,4.00
43.376,24.00,10631.69,827.45,1241.03,20.00,13.00,65.00,2091.94,105.01,10.00,3.00,3.00,3.00,32.00,0.00,3.00,2.00
44.261,26.00,10630.67,802.42,1170.91,18.00,14.00,81.00,2149.10,98.01,4.00,7.00,19.00,12.00,77.00,32.00,153.02,613.28
45.146,1937.43,814231.94,62397.13,34679.05,507.17,11535.21,6818.06,8724.83,328.07,1398.32,726.36,11029.89,2528.41,7717.90,1890.65,4908.07,4099.66
46.031,5870.28,1830260.38,91455.91,47523.31,930.58,15309.99,13073.73,13571.60,451.14,1830.25,973.64,16563.21,3159.89,9735.57,2874.12,5631.78,5678.26
46.916,8275.21,2231849.75,113968.94,59927.52,1120.84,20226.65,20140.65,19431.35,666.30,2804.29,1795.18,21465.71,5112.00,18364.46,5106.27,9111.08,10586.01
47.801,11471.79,3161396.25,174608.75,95388.04,1262.06,24171.07,22753.28,23021.57,739.37,3168.75,1584.70,21897.28,6308.38,18289.55,5272.54,8055.56,8815.34
48.686,11400.75,3147439.25,181957.19,100776.71,1390.29,24586.27,23560.81,24438.69,898.54,3067.32,1676.90,24895.30,5383.96,18180.80,5532.61,8131.48,7728.88
49.571,12514.84,3744066.50,219414.20,108585.77,1684.89,25152.63,19522.52,20099.75,779.41,3262.15,1759.09,25880.78,5464.56,19947.49,5345.11,9188.13,9962.44
50.456,10908.70,3353510.75,179279.11,80174.32,1305.14,23283.59,22973.89,20822.21,698.33,2907.68,1732.03,21021.02,4344.00,15371.30,4766.80,8051.52,7547.81
51.341,11661.61,3715540.00,179410.80,86815.00,1687.90,30880.12,21445.32,19509.35,618.26,2847.45,2096.97,26986.85,4952.90,14437.94,4606.69,8338.02,11140.00
52.226,14218.01,3680644.50,189733.84,97065.82,1485.47,23997.62,20414.97,20994.96,878.52,3846.94,2207.29,23439.17,5203.65,18214.65,5918.88,8619.58,9644.79
53.111,18057.19,4504173.00,200239.47,108468.91,1658.83,26081.62,25752.59,24300.26,703.33,2996.03,2262.46,30226.43,7595.66,20719.22,5741.35,8082.89,8994.73
53.996,12477.24,4345685.50,210587.53,99655.63,1621.75,23149.53,20426.27,22880.31,708.34,3378.67,2128.06,23822.30,6781.63,20068.86,7347.84,9742.95,8654.23
54.881,12159.21,4519647.00,184651.72,92483.66,1617.75,29994.16,23918.96,21803.72,844.48,4080.18,2127.06,23172.84,5883.83,18714.46,6035.91,8269.17,7605.46
55.766,9504.27,2629392.75,149672.44,89590.97,1129.85,17717.23,15669.08,15740.68,632.27,2717.97,1604.74,21840.61,4890.47,15321.24,4607.70,6511.77,6390.72
56.651,8373.26,2656518.25,143183.58,75672.78,1132.86,21012.86,20219.75,17715.32,610.25,3168.75,2167.17,20035.83,5721.53,17406.68,5600.17,6802.66,6409.90
57.536,10538.60,3022051.50,152367.81,77784.00,1195.95,20419.79,16554.94,17130.88,562.21,2761.13,1972.63,19103.27,5290.27,16527.96,5697.98,5517.83,6685.61
58.421,12540.25,2742693.25,119714.58,59657.46,1001.67,18892.46,18968.47,14634.45,557.21,2621.62,1931.52,18088.86,4986.12,17487.64,6522.41,5836.54,5835.62
59.306,8526.93,2204587.00,122301.68,56579.02,885.52,15968.54,12803.09,12262.17,481.16,2142.09,1544.61,14840.67,3913.56,11840.33,4894.71,5959.62,6470.49
60.191,9086.27,2535994.75,128012.62,73731.99,1232.01,21613.62,15610.88,13786.50,509.17,2190.23,1596.72,14647.82,3834.13,16027.64,6181.21,5678.17,5664.14
61.076,7155.08,3078093.50,132545.52,52013.81,756.38,12777.13,10738.85,12552.96,579.23,2040.80,1293.13,10657.40,2847.59,9560.21,4918.88,4628.07,4025.21
61.961,5167.27,1636280.88,92994.83,49131.04,702.33,10686.75,8607.44,10734.85,472.15,1704.96,1305.15,10539.71,2688.99,8632.38,4739.61,4756.98,4189.22
62.846,5958.96,1552678.88,72050.77,44720.73,866.50,13613.69,10232.80,10265.30,371.09,1799.18,1320.18,11095.88,2768.29,8913.84,4220.17,4113.70,4358.31
63.731,5257.88,1950558.75,94983.41,44933.91,715.34,12313.46,12281.42,12229.64,422.12,1589.70,1254.06,11042.07,3594.91,11035.46,3916.35,3846.11,3575.64
64.616,4981.05,1624908.88,83969.14,49332.64,846.48,11741.37,10278.43,9877.10,379.10,1714.98,1189.96,10290.18,2525.40,7518.77,4127.60,4113.70,3689.26
65.501,5962.99,1506900.63,67376.00,38628.05,626.26,10442.34,9524.50,8985.91,322.07,1361.25,1585.70,10887.77,2878.72,6891.42,3051.89,3254.96,3285.14
66.387,4181.32,1450156.00,78983.03,39222.73,589.23,9383.45,7960.31,8592.30,348.08,1401.32,1110.83,7917.80,1865.40,6696.56,4092.39,3156.48,2780.83
67.272,4193.38,1367308.50,66287.96,32975.80,571.22,8239.10,7172.36,8721.80,328.07,1396.31,1300.14,8573.16,2110.07,6122.40,2861.06,2807.92,2783.84
68.157,4341.20,1225451.88,57936.09,33513.87,539.19,8235.05,7790.53,8387.99,343.08,1314.16,978.65,9402.30,1962.66,7389.42,3333.22,4262.64,3771.72
69.042,6365.19,2059321.38,108796.20,57736.37,872.51,16103.38,11821.06,13215.27,505.17,2459.07,1853.32,17590.88,3916.57,11656.30,4113.51,5643.88,7034.19
69.927,9506.30,2661165.00,118097.42,55075.11,1011.68,17397.87,15634.37,15448.66,514.18,2235.36,1526.57,14139.93,3290.47,12712.27,6064.16,6062.55,5453.38
70.812,7310.53,2193679.25,91545.67,52457.20,858.49,14833.54,13348.54,12756.37,470.15,1812.21,1376.28,12857.49,3544.66,10024.57,3949.54,5717.51,5258.82
71.697,8846.51,2605169.00,113529.58,57345.00,988.65,16815.79,14123.64,14749.70,578.22,2484.15,1920.49,17583.71,3721.55,11097.42,4678.18,5788.11,5255.79
72.582,9658.17,2911175.25,115908.59,66292.36,1057.75,17708.02,17052.99,15094.51,487.16,2084.92,1582.69,18137.04,4630.77,12950.54,5274.56,5849.65,5067.33
73.467,8551.20,3297242.00,136953.58,68632.75,1000.67,17391.73,14551.76,14567.15,510.17,2454.05,1707.97,14317.34,3397.96,12230.89,5071.01,6423.92,5469.51
74.352,7046.08,2032226.25,101730.64,61714.84,928.58,15545.78,13139.88,12098.52,454.14,1935.52,1532.59,16067.28,5237.89,16425.62,4888.67,4880.87,4400.59
75.237,6787.77,2265015.50,126509.26,52741.09,759.38,12161.00,10394.02,11940.00,544.20,2880.58,1509.54,11834.37,2592.64,11146.18,5468.09,5790.13,4990.75
76.122,6356.12,1726128.75,89594.00,67909.89,981.64,15666.25,12609.84,10962.13,385.10,1967.60,1619.77,13818.86,3444.18,11830.16,4361.06,4490.13,4556.64
77.007,5282.05,1735130.13,97356.91,51271.20,751.38,12838.16,11079.79,11708.36,430.12,1796.17,1441.40,12633.62,3595.91,9479.12,5013.58,4920.16,4325.09
77.892,5700.01,1873334.38,87015.10,46309.88,798.43,12086.81,9589.33,10063.57,357.09,1461.44,1268.09,11457.41,2725.12,7676.45,3857.00,4187.16,4278.79
78.777,5317.29,1493505.13,73263.27,41927.20,682.31,10758.77,9421.20,9956.14,370.09,1476.47,1327.19,10661.46,2876.71,9014.10,4182.94,4247.54,4516.36
79.662,4822.05,1513921.25,77700.39,42147.02,670.30,10778.04,9347.28,10451.87,384.10,1523.56,1283.11,9897.80,2485.26,8114.30,3543.29,3759.61,3203.74
80.547,4652.00,1341850.00,61468.99,36471.05,615.25,9627.52,7815.79,8428.45,333.07,1321.17,1047.74,8416.35,1888.46,5801.71,3129.25,3155.48,3118.33
81.432,4348.24,1142145.25,57754.85,32551.89,491.16,8781.21,7487.44,8131.17,312.07,1029.71,891.54,8597.44,2195.33,6193.01,3299.05,3151.46,2950.56
82.317,4325.11,1273521.38,58700.94,32782.61,550.20,8526.29,7696.56,8287.88,336.08,1121.85,1034.72,8860.57,2366.87,6260.60,3026.78,3125.34,2924.45
83.202,4119.99,1128133.00,60358.79,32994.61,544.20,8294.71,7838.02,8386.98,290.06,1133.87,977.65,8176.64,2196.33,6344.34,3349.30,3375.56,3075.13
84.087,3672.73,1057894.75,47176.97,29155.47,462.14,8065.22,6719.17,7850.18,292.06,985.65,898.55,7902.64,1975.69,5973.13,2805.83,3002.77,2826.02
84.972,4172.27,1067712.50,47320.51,29943.60,502.17,8415.04,8212.02,8610.51,324.07,1076.78,963.63,9194.67,2014.80,7511.70,2999.66,3200.70,3714.40
85.857,5395.83,1528763.75,68796.71,37479.98,566.21,11119.99,9703.80,10066.61,403.11,1846.29,1193.96,11682.95,2717.09,9311.92,4610.72,5459.35,4943.40
86.742,6671.77,2456350.25,121711.38,63329.48,1043.73,16027.78,15764.06,16553.02,526.19,2140.08,1318.17,14952.93,4296.72,16676.39,5187.89,6152.37,6195.88
87.627,9755.38,2909183.50,130819.47,75851.13,1111.82,19539.76,16593.79,17126.78,608.25,2728.00,1386.30,16204.27,4927.72,15341.67,4448.63,6710.74,7219.17
88.512,9094.37,2743379.50,113190.89,60686.72,965.62,16242.34,13705.94,12942.54,552.20,2505.22,1572.67,16292.20,3989.97,11527.22,3745.38,5961.64,6378.60
89.397,7477.11,2159355.00,113205.36,59472.37,886.52,14564.33,12761.38,12274.37,418.12,1963.59,1730.02,15415.42,3484.37,10276.14,4056.17,6512.78,6327.11
90.282,7341.82,2448298.25,93157.92,59353.49,832.46,14909.02,13869.94,13475.88,476.15,1973.62,1382.29,13966.63,2918.88,9883.61,4456.69,5342.40,5089.50
91.167,7143.97,2018286.00,95076.24,54819.37,805.43,13908.02,12862.10,13030.05,465.15,2279.49,1336.21,15139.73,3344.71,12401.83,4444.61,5085.40,4658.34
92.052,8952.72,2240020.75,95367.72,48631.00,840.47,15077.34,11073.70,12079.22,502.17,2034.78,1409.34,12057.99,4023.15,12452.71,4068.24,4511.27,3744.57
92.937,5427.05,1636630.63,95245.83,47570.15,775.40,12572.71,11999.88,12393.32,482.16,1931.51,1396.32,13138.44,3484.37,10673.97,4469.77,5297.04,4982.69
93.822,6431.74,1645344.50,80092.65,44299.83,816.44,12306.34,10768.27,10773.40,421.12,1551.62,1176.94,11529.54,2864.66,7402.55,4073.27,4524.36,5054.23
94.707,5805.80,1492225.50,76481.27,44188.55,745.37,12028.89,10278.43,10474.18,390.10,1639.81,1268.09,11953.28,2703.04,8403.65,4349.99,4457.91,4203.31
95.592,5315.27,1592509.50,72102.76,44645.44,718.34,11576.84,10564.39,10705.43,452.14,1718.99,1193.96,12096.62,2796.39,8297.41,4058.18,4422.68,3693.28
96.477,5676.84,1694523.38,83241.25,45524.98,780.41,12327.69,10809.87,10269.35,366.09,1524.56,2753.12,10824.84,2545.47,7452.07,3264.89,3770.67,3205.75
97.362,4436.74,1077949.00,60042.14,36654.69,534.19,9155.65,7642.00,8218.12,323.07,1079.78,837.47,8337.45,1718.04,5510.39,2864.07,3113.28,3596.75
98.247,4477.98,1138667.63,55578.36,32660.46,565.21,9716.66,8928.19,9131.67,324.07,1193.96,964.63,9450.92,2375.89,7636.02,3843.93,4860.72,4898.06
99.132,6139.37,1743715.50,87852.63,43121.08,809.44,14118.92,12250.92,12094.46,452.14,1842.28,3054.30,13950.33,3535.62,13193.98,5209.05,6280.56,5638.93
100.017,7562.95,2289982.25,100069.09,54112.75,983.65,16163.66,13579.66,12579.40,1242.04,1967.60,1308.16,13700.65,3276.40,10435.45,4362.07,5244.63,5212.45
100.902,7773.02,2307943.50,96677.58,59731.80,955.61,14937.58,12635.26,12274.37,521.18,2136.07,1331.20,15123.39,3294.48,9902.87,4303.70,5455.32,4787.26
101.787,7016.81,2349418.25,94321.98,55363.19,852.48,14747.87,12083.21,12425.85,470.15,2079.91,1289.12,13900.38,3244.26,12368.25,4689.26,5808.29,5306.19
102.672,7347.88,2229062.50,113442.27,57556.30,992.66,15057.96,12206.20,12873.36,513.18,1915.47,1500.52,15793.39,3251.29,9988.06,4170.87,5704.40,4567.71
103.557,6431.74,1829014.38,88666.35,55047.17,835.47,14760.11,13420.82,13094.16,485.16,2010.72,1419.36,13409.31,2892.77,9254.17,4109.49,5449.27,5134.85
104.443,7219.67,1814622.25,88546.18,50233.55,790.42,13084.37,11460.49,11953.21,462.14,1747.05,1188.96,12168.81,2599.66,10801.89,3820.80,4544.50,4060.42
105.328,5086.74,1362918.25,71818.27,43774.30,763.39,11731.22,10309.86,10175.07,404.11,1413.34,1133.87,12134.24,2460.18,8429.96,4386.23,4544.50,4155.01
106.213,5378.71,1525065.25,73207.72,45425.20,731.36,12271.78,10126.36,10790.65,410.11,1817.22,1220.01,12944.00,2821.49,8807.52,4365.09,4545.50,4342.20
107.098,5577.12,1846348.50,81839.17,49118.24,728.35,12457.82,10312.90,10502.57,356.09,1415.35,1119.85,11645.36,2670.92,8818.66,3954.57,4257.60,4025.21
107.983,5703.03,1525060.75,75771.90,45232.04,713.34,11650.98,9921.64,10383.93,391.10,1778.13,1319.18,11798.79,2912.85,9008.02,3914.33,4307.93,3883.36
108.868,5708.07,1651413.63,74524.33,41388.50,663.29,11770.83,9820.31,10219.67,369.09,1345.22,1059.76,10461.59,2265.54,7812.93,3738.34,3683.19,3466.05
109.753,5098.82,1333703.88,62200.56,37532.52,613.25,10032.79,9095.19,9004.13,367.09,1336.20,1086.80,9609.98,2409.00,6743.00,3378.45,3500.20,3345.44
110.638,3908.89,1179086.25,67799.05,37048.33,600.24,9558.65,7843.07,9006.15,352.08,1315.16,1278.10,9696.11,2360.85,6941.91,3506.10,3764.64,3832.07
111.523,5207.54,1793339.50,70979.90,39031.12,640.27,10127.05,8311.11,10491.42,351.08,1404.33,1000.68,9216.95,2002.77,6255.55,3030.80,3077.11,3118.33
112.408,4712.37,1160445.88,56831.25,34171.55,565.21,9552.57,8486.06,9374.66,333.07,1373.27,1002.68,9561.35,2358.84,7676.45,3586.52,3595.71,3399.71
113.293,4548.39,1350520.25,61463.47,38084.29,617.25,9708.56,8150.35,8851.31,328.07,1436.39,1106.83,10110.69,2302.66,7645.11,3208.62,3998.00,3792.84
114.178,5263.92,1527155.38,75955.59,46373.64,782.41,12742.55,10934.67,12156.46,475.15,2009.72,1362.25,13269.79,3435.14,10713.57,4321.81,5052.15,4974.63
115.063,7630.61,2066483.75,101069.70,57637.16,979.64,16146.29,12761.38,13231.56,481.16,2125.04,1303.15,13459.22,3600.94,12998.40,4740.61,5277.89,5457.42
115.948,6974.43,2103895.50,101508.94,53836.95,951.60,15973.65,12482.72,12828.60,497.17,1894.41,1425.37,14677.41,3355.76,12167.82,4427.49,5518.84,5465.48
116.833,7252.99,2427696.75,100223.60,53748.96,892.53,15551.90,13677.43,13083.99,512.18,1895.42,1345.22,15989.60,4018.13,10799.86,4101.44,4881.88,4779.20
117.718,7268.13,2111342.25,102330.39,52122.02,786.41,13081.32,12196.03,12659.75,458.14,1819.23,1163.92,12818.82,3039.37,9654.47,3951.55,4662.31,4871.87
118.603,7764.94,2327445.50,92907.52,57166.09,902.54,15523.32,12924.15,11733.76,443.13,1989.66,1307.15,14076.72,3354.76,10184.84,3815.77,5132.76,4528.44
119.488,5780.61,1818441.38,84896.17,48310.24,743.37,12591.02,10879.88,11791.66,444.13,1750.06,1155.90,13045.79,2770.29,8472.46,3643.82,4890.95,4793.30
120.373,5139.09,1527644.13,83550.26,48618.21,821.45,11771.85,11178.25,11938.98,465.15,1744.05,1245.05,11790.66,3375.86,8970.55,3882.15,4765.03,3957.80
121.258,5190.43,1642223.13,77655.63,43551.91,651.28,11220.48,9949.00,10164.93,385.10,1596.72,1094.81,11148.67,2310.68,7721.94,3459.86,4280.75,4515.35
122.143,5247.81,1476977.63,77572.87,44077.29,685.31,11579.88,10485.28,10520.83,407.11,1525.57,1099.82,10669.58,2178.27,7186.34,3595.57,4146.91,4117.77
123.028,5482.44,1524965.13,79961.94,42209.38,661.29,11265.14,9503.24,9231.89,322.07,1416.35,1087.80,10836.01,2217.39,6831.85,3577.47,3700.28,3511.29
123.913,4843.18,1398901.63,65287.60,37297.20,621.26,10046.98,8206.96,9831.50,404.11,1364.25,1024.71,10274.96,2391.95,7638.04,3679.01,3584.65,3748.59
124.798,4881.42,1414387.13,67888.07,37425.36,589.23,10020.63,8663.08,8939.36,327.07,1123.85,891.54,9119.74,1829.31,4997.60,2350.09,3170.55,3550.50
125.683,5224.66,1358940.00,52808.23,33987.47,620.26,10091.57,9020.29,9724.10,329.07,1253.06,901.55,9748.81,2493.29,7654.21,3636.79,3945.69,3996.03
126.568,5304.20,1510876.25,66358.47,39382.79,623.26,11077.37,10570.47,10638.48,357.09,1415.35,1000.68,10032.62,2198.33,6986.35,3309.10,4060.38,4267.72
127.453,5938.81,1532434.50,67481.21,40956.77,670.30,10644.15,9162.00,9797.05,379.10,1244.04,1212.99,11021.76,2481.25,7595.58,3896.23,4222.38,4257.65
128.338,6034.54,1730848.75,82859.16,48430.65,805.43,13308.27,10979.32,10838.33,389.10,1692.93,1397.32,12426.10,2996.19,9349.41,4410.38,4680.44,5134.85
129.223,5809.83,2092786.00,74875.52,43131.66,690.32,10713.12,9712.91,10168.99,409.11,1760.08,1233.03,12381.35,3215.13,8893.59,3643.82,3810.90,3463.04
130.108,4760.67,1279283.25,56613.84,30039.32,423.12,6627.21,5628.18,6604.17,249.04,736.36,530.19,5004.13,999.69,3456.43,1345.34,1661.07,1446.58
130.993,1976.53,532972.75,25548.16,15450.40,257.04,3857.92,3169.73,4595.14,212.03,473.15,355.09,3425.03,714.35,2256.60,990.73,1169.03,925.65
131.878,1306.11,338030.91,16642.61,9752.96,151.02,2096.93,1758.07,3367.60,140.01,203.03,181.02,1607.77,323.07,919.60,416.13,446.15,371.10
132.763,551.20,131721.33,6269.81,4313.36,59.00,681.31,662.29,3034.17,112.01,87.01,66.00,489.16,92.01,353.09,163.02,138.01,162.02
133.648,220.03,70641.97,3298.16,2568.39,46.00,377.09,364.09,2404.88,125.01,43.00,40.00,508.18,75.00,298.06,110.01,113.01,113.01
134.533,154.02,47971.80,2521.18,2047.79,41.00,244.04,343.08,2297.54,91.01,42.00,25.00,182.02,48.00,196.03,88.01,82.01,72.00
135.418,131.01,37230.20,2179.13,1794.14,21.00,182.02,241.04,2305.57,102.01,31.00,21.00,142.01,35.00,149.02,47.00,46.00,49.00
136.303,112.01,32102.57,1768.06,1679.88,24.00,156.02,188.02,2174.17,103.01,33.00,22.00,261.05,33.00,154.02,48.00,43.00,42.00
137.188,99.01,27665.48,1610.71,1591.69,27.00,122.01,157.02,2033.77,102.01,23.00,20.00,86.01,34.00,107.01,35.00,32.00,43.00
138.073,67.00,23204.16,1405.30,1462.42,20.00,77.00,155.02,2100.96,99.01,20.00,6.00,77.00,21.00,838.50,28.00,24.00,36.00
138.958,74.00,20297.91,1308.13,1398.30,19.00,91.01,124.01,2101.96,88.01,8.00,12.00,42.00,22.00,69.00,27.00,15.00,31.00
139.843,56.00,16996.55,1179.92,1416.34,13.00,63.00,115.01,2051.82,110.01,14.00,11.00,48.00,14.00,76.00,13.00,12.00,22.00
140.728,49.00,16626.51,1175.91,1352.22,14.00,54.00,119.01,2060.85,107.01,11.00,103.01,36.00,10.00,78.00,19.00,17.00,14.00
141.613,47.00,14705.60,1065.75,1277.09,18.00,51.00,111.01,2105.97,103.01,10.00,7.00,27.00,12.00,59.00,10.00,7.00,13.00
142.499,49.00,14590.42,975.63,1284.10,19.00,30.00,112.01,2086.92,114.01,7.00,10.00,32.00,5.00,53.00,16.00,12.00,4.00
143.384,47.00,13436.48,974.63,1269.07,19.00,36.00,98.01,2128.04,102.01,12.00,10.00,15.00,9.00,46.00,21.00,16.00,9.00
144.269,38.00,12978.64,944.59,1328.17,15.00,22.00,89.01,2133.05,110.01,6.00,28.00,15.00,12.00,42.00,7.00,6.00,4.00
145.154,49.00,12929.82,886.52,1289.11,19.00,30.00,104.01,2235.35,123.01,6.00,131.01,19.00,3.00,37.00,9.00,4.00,7.00
146.039,44.00,12170.46,817.44,1243.03,16.00,27.00,85.00,2054.83,108.01,11.00,6.00,7.00,5.00,50.00,4.00,6.00,4.00
146.924,46.00,11984.55,891.52,1210.98,12.00,25.00,97.01,2090.93,101.01,5.00,10.00,4.00,6.00,48.00,125.01,5.00,5.00
147.809,43.00,13682.81,826.45,1207.97,17.00,24.00,87.01,2071.88,107.01,12.00,5.00,4.00,7.00,53.00,4.00,3.00,4.00
148.693,34.00,11634.18,824.45,1281.09,22.00,25.00,74.00,2039.79,116.01,10.00,13.00,5.00,4.00,46.00,4.00,5.00,6.00
149.579,43.00,11208.88,835.46,1169.91,10.00,30.00,84.00,2118.01,91.01,8.00,4.00,8.00,2.00,44.00,1.00,12.00,3.00
150.464,37.00,11329.64,1032.70,1223.00,17.00,18.00,75.00,2134.05,102.01,13.00,6.00,1.00,3.00,42.00,4.00,3.00,5.00
151.349,39.00,11253.53,803.43,1230.01,22.00,21.00,99.01,2114.00,109.01,4.00,11.00,3.00,3.00,37.00,5.00,10.00,5.00
152.234,31.00,10745.27,810.43,1259.06,18.00,13.00,79.00,1999.68,94.01,10.00,4.00,4.00,2.00,38.00,3.00,7.00,7.00
153.119,29.00,11160.17,838.46,1233.01,25.00,16.00,95.01,2060.85,104.01,6.00,5.00,6.00,1.00,39.00,8.00,3.00,3.00
154.004,35.00,10949.14,772.39,1263.06,20.00,17.00,88.01,2095.95,94.01,4.00,4.00,3.00,1.00,28.00,1.00,6.00,6.00
154.889,35.00,10900.45,723.34,1199.96,15.00,19.00,204.03,2041.80,116.01,4.00,11.00,3.00,0.00,45.00,5.00,7.00,0.00
155.774,33.00,10989.71,811.43,1231.01,17.00,17.00,86.00,2098.96,99.01,3.00,3.00,3.00,3.00,45.00,1.00,2.00,2.00
156.659,34.00,10545.50,799.42,1169.91,19.00,16.00,75.00,2064.86,108.01,4.00,9.00,1.00,1.00,40.00,1.00,1.00,7.00
157.544,33.00,10652.98,753.37,1226.00,16.00,18.00,77.00,2151.10,91.01,4.00,5.00,2.00,3.00,36.00,2.00,0.00,4.00
158.429,40.00,10853.79,792.41,1221.99,13.00,19.00,88.01,2033.77,84.00,7.00,2.00,1.00,2.00,47.00,4.00,6.00,2.00
159.314,41.00,10840.60,760.38,1284.10,22.00,17.00,96.01,2072.88,113.01,7.00,3.00,3.00,3.00,43.00,7.00,1.00,1.00
160.199,39.00,10691.52,783.40,1224.00,10.00,14.00,102.01,2128.04,96.01,5.00,6.00,3.00,4.00,34.00,1.00,1.00,2.00
161.084,34.00,10685.43,784.41,1234.01,11.00,14.00,87.01,2103.97,108.01,7.00,4.00,6.00,4.00,24.00,0.00,3.00,3.00
161.969,39.00,10817.27,779.40,1194.95,10.00,17.00,78.00,2104.97,96.01,9.00,3.00,4.00,4.00,35.00,2.00,1.00,2.00
162.854,24.00,10949.14,837.46,1229.01,19.00,18.00,88.01,2087.92,106.01,11.00,4.00,5.00,2.00,22.00,2.00,1.00,5.00
163.739,30.00,10699.63,769.39,1268.07,18.00,12.00,78.00,2043.80,115.01,9.00,5.00,2.00,3.00,27.00,4.00,3.00,1.00
164.624,34.00,10803.08,754.37,1277.09,19.00,9.00,71.00,2126.03,106.01,7.00,5.00,0.00,3.00,45.00,3.00,1.00,4.00
165.509,46.00,10893.34,853.48,1246.03,17.00,20.00,67.00,2085.92,118.01,4.00,3.00,1.00,3.00,36.00,1.00,4.00,6.00
166.394,29.00,10881.17,829.45,1276.08,16.00,16.00,84.00,2099.96,102.01,3.00,5.00,3.00,4.00,30.00,1.00,3.00,1.00
167.279,23.00,10723.97,819.44,1163.90,11.00,10.00,101.01,2117.01,102.01,3.00,5.00,1.00,3.00,36.00,0.00,3.00,0.00
168.164,25.00,10793.95,823.45,1293.11,20.00,10.00,60.00,2034.78,113.01,6.00,7.00,1.00,1.00,37.00,0.00,2.00,2.00
169.049,40.00,10738.17,807.43,1182.93,12.00,11.00,92.01,2114.00,113.01,9.00,7.00,4.00,4.00,29.00,18.00,5.00,2.00
169.934,37.00,10761.49,768.39,1287.10,13.00,14.00,74.00,1936.52,120.01,5.00,6.00,4.00,3.00,28.00,4.00,2.00,1.00
170.819,32.00,10790.90,797.42,1208.97,10.00,14.00,83.00,2056.84,100.01,6.00,3.00,2.00,6.00,40.00,3.00,7.00,4.00
171.704,33.00,10621.55,772.39,1253.05,19.00,11.00,70.00,2134.05,98.01,2.00,1.00,3.00,2.00,35.00,7.00,2.00,0.00
172.589,25.00,10677.32,777.40,1182.93,16.00,13.00,63.00,2050.82,107.01,2.00,4.00,4.00,3.00,43.00,0.00,2.00,5.00
173.474,28.00,10787.86,779.40,1237.02,14.00,16.00,86.00,2095.95,92.01,8.00,3.00,2.00,0.00,46.00,5.00,4.00,0.00
174.359,30.00,10764.53,780.40,1207.97,14.00,9.00,101.01,2011.71,107.01,4.00,5.00,6.00,1.00,35.00,2.00,2.00,4.00
175.244,32.00,10754.39,793.41,1256.05,16.00,13.00,88.01,2049.82,122.01,6.00,1.00,6.00,2.00,31.00,1.00,4.00,1.00
176.129,33.00,10927.83,774.40,1229.01,9.00,10.00,68.00,2105.97,103.01,3.00,4.00,2.00,7.00,34.00,2.00,2.00,0.00
177.014,31.00,10703.69,801.42,1204.97,13.00,16.00,87.01,2149.10,96.01,5.00,5.00,0.00,1.00,37.00,0.00,4.00,6.00
177.899,31.00,10762.51,762.38,1282.09,19.00,7.00,80.00,2124.03,112.01,9.00,8.00,2.00,2.00,22.00,2.00,1.00,0.00
178.784,30.00,10672.25,805.43,1170.91,14.00,15.00,72.00,2049.82,121.01,3.00,2.00,4.00,4.00,37.00,1.00,0.00,0.00
179.669,35.00,10899.43,778.40,1214.98,15.00,8.00,76.00,2007.70,95.01,7.00,2.00,2.00,2.00,35.00,2.00,4.00,4.00
180.555,26.00,10614.45,806.43,1279.09,13.00,14.00,83.00,2087.92,111.01,12.00,3.00,0.00,5.00,33.00,2.00,2.00,2.00
181.440,37.00,10715.85,784.41,1217.99,23.00,15.00,80.00,2027.76,114.01,3.00,6.00,3.00,6.00,31.00,3.00,2.00,2.00
182.325,21.00,10876.10,791.41,1276.08,16.00,13.00,79.00,2022.74,112.01,9.00,4.00,0.00,2.00,36.00,5.00,3.00,2.00
183.210,32.00,10726.00,804.43,1214.98,26.00,16.00,73.00,2104.97,109.01,4.00,2.00,0.00,4.00,31.00,2.00,3.00,2.00
184.095,32.00,10768.59,782.40,1279.09,15.00,8.00,74.00,2071.88,108.01,8.00,5.00,1.00,0.00,35.00,2.00,1.00,2.00
184.980,38.00,10800.03,798.42,1186.94,20.00,15.00,79.00,2112.99,103.01,4.00,5.00,6.00,0.00,33.00,3.00,4.00,1.00
185.865,34.00,10671.24,844.47,1176.92,20.00,9.00,95.01,2025.75,102.01,6.00,5.00,2.00,3.00,45.00,4.00,1.00,2.00
186.750,38.00,10873.06,771.39,1172.92,13.00,14.00,81.00,2069.87,100.01,7.00,7.00,2.00,3.00,27.00,0.00,1.00,2.00
187.635,35.00,10785.83,724.35,1187.94,27.00,10.00,75.00,2030.77,101.01,5.00,4.00,3.00,1.00,44.00,2.00,1.00,4.00
188.520,34.00,10924.79,852.48,1188.94,16.00,14.00,84.00,2060.85,108.01,3.00,5.00,2.00,1.00,32.00,6.00,4.00,0.00
189.405,35.00,10535.36,764.38,1213.98,19.00,9.00,79.00,2115.00,95.01,3.00,3.00,5.00,3.00,28.00,2.00,4.00,4.00
190.290,34.00,10812.20,764.38,1272.08,12.00,11.00,88.01,2059.85,104.01,7.00,5.00,3.00,0.00,39.00,3.00,4.00,1.00
191.175,36.00,10527.25,799.42,1237.02,16.00,8.00,69.00,2110.99,103.01,6.00,4.00,1.00,0.00,48.00,3.00,2.00,0.00
192.060,29.00,10668.19,760.38,1208.97,19.00,7.00,86.00,2107.98,106.01,5.00,4.00,1.00,3.00,35.00,4.00,2.00,0.00
192.945,23.00,10825.39,768.39,1110.82,15.00,14.00,76.00,2077.90,109.01,7.00,4.00,2.00,4.00,34.00,4.00,5.00,1.00
193.830,29.00,10806.12,785.41,1224.00,14.00,9.00,73.00,2017.73,93.01,4.00,4.00,2.00,3.00,25.00,5.00,4.00,2.00
194.715,29.00,10923.78,772.39,1202.96,21.00,17.00,101.01,2061.85,99.01,13.00,2.00,1.00,2.00,51.00,3.00,2.00,0.00
195.600,33.00,10915.66,803.43,1190.94,16.00,14.00,66.00,2031.77,112.01,8.00,5.00,2.00,1.00,41.00,4.00,0.00,1.00
196.485,33.00,10832.49,726.35,1230.01,16.00,11.00,85.00,2015.73,108.01,4.00,4.00,1.00,3.00,42.00,1.00,3.00,0.00
197.370,38.00,10953.19,772.39,1256.05,17.00,15.00,110.01,2011.71,118.01,4.00,9.00,2.00,4.00,36.00,1.00,1.00,6.00
198.255,32.00,10550.57,799.42,1137.86,20.00,11.00,75.00,2028.76,110.01,2.00,5.00,3.00,0.00,44.00,1.00,0.00,1.00
199.140,32.00,10804.09,796.42,1253.05,18.00,13.00,75.00,2004.70,107.01,2.00,3.00,4.00,1.00,35.00,4.00,0.00,5.00
200.020,34.00,10757.44,768.39,1239.02,13.00,14.00,82.00,2003.69,110.01,3.00,8.00,5.00,0.00,29.00,1.00,4.00,3.00