Parameters:
  Sample : 0_PLE_250_700_10_nm_PL_400_800_10nm_mapping
  Solvent : <unspecified>
  Comment : sample power diode spectrum 5

Data:
Wavelength [nm]	Intensity [Cnts.]
249.999999368811	70
260.000007301642	181
269.999986812763	255
279.999994745594	345
290.000002678426	470
300.000010611257	583
309.999990122378	673
319.999998055209	743
330.00000598804	800
339.999985499162	859
349.999993431993	899
360.000001364824	917
370.000009297655	950
379.999988808777	1052
389.999996741608	1163
400.000004674439	1031
409.999984185561	1120
419.999992118392	1204
430.000000051223	0
440.000007984054	0
449.999987495175	0
459.999995428007	1491
470.000003360838	1681
479.999982871959	1539
489.99999080479	1463
499.999998737621	1376
510.000006670452	1356
520.000014603284	1349
530.000022536115	1316
539.999973625527	1282
549.999981558358	1256
559.999989491189	1240
569.99999742402	1231
580.000005356851	1188
590.000013289682	1140
600.000021222513	1114
609.999972311925	1072
619.999980244756	1035
629.999988177587	1008
639.999996110419	939
650.00000404325	930
660.000011976081	862
670.000019908912	845
679.999970998324	822
689.999978931155	805
699.999986863986	691
