Parameters:
  Sample : 0_PLE_250_700_10_nm_PL_400_800_10nm_mapping
  Solvent : <unspecified>
  Comment : sample power diode spectrum 10

Data:
Wavelength [nm]	Intensity [Cnts.]
249.999999368811	70
260.000007301642	180
269.999986812763	254
279.999994745594	346
290.000002678426	470
300.000010611257	584
309.999990122378	674
319.999998055209	742
330.00000598804	801
339.999985499162	864
349.999993431993	898
360.000001364824	913
370.000009297655	951
379.999988808777	1050
389.999996741608	1161
400.000004674439	1028
409.999984185561	1117
419.999992118392	1203
430.000000051223	1212
440.000007984054	1286
449.999987495175	1493
459.999995428007	1490
470.000003360838	1672
479.999982871959	0
489.99999080479	0
499.999998737621	0
510.000006670452	1349
520.000014603284	1343
530.000022536115	1313
539.999973625527	1282
549.999981558358	1250
559.999989491189	1241
569.99999742402	1229
580.000005356851	1184
590.000013289682	1139
600.000021222513	1117
609.999972311925	1075
619.999980244756	1034
629.999988177587	1009
639.999996110419	936
650.00000404325	932
660.000011976081	859
670.000019908912	847
679.999970998324	821
689.999978931155	807
699.999986863986	691
