Data from Benzene_Absorbance_1.txt Node
Date: Mon Nov 13 14:14:36 CET 2023
User: student
Spectrometer: USB4F03453
Autoset integration time: false
Trigger mode: 4
Integration Time (sec): 4.000000E-3
Scans to average: 60
Electric dark correction enabled: true
Nonlinearity correction enabled: false
Boxcar width: 0
XAxis mode: Wavelengths
Stop averaging: false
Number of Pixels in Spectrum: 3648
>>>>>Begin Spectral Data<<<<<
179.221	-0.062
179.435	-0.062
179.649	-0.062
179.863	-0
180.076	-0
180.29	-0
180.504	-1.0116
180.718	-0
180.931	0.0999
181.145	0.3652
181.359	-0
181.572	0.1112
181.786	-0
182	-0.0316
182.213	-0.6003
182.427	-0
182.641	-0
182.854	-0.4627
183.068	0.1737
183.282	0.2227
183.495	0.4415
183.709	0.1358
183.922	0.2878
184.136	0.0998
184.35	0.4487
184.563	-0.0151
184.777	-0.0196
184.99	0.1451
185.204	0.399
185.417	0.6492
185.631	0.1398
185.845	0.0496
186.058	0.3613
186.272	0.3157
186.485	0.1765
186.699	0.3097
186.912	0.1341
187.126	0.1682
187.339	0.205
187.553	0.305
187.766	0.2936
187.98	0.2933
188.193	0.0322
188.407	0.2534
188.62	0.1158
188.834	1.0594
189.047	0.585
189.26	0.4239
189.474	0.2318
189.687	0.2337
189.901	0.5441
190.114	0.2507
190.327	0.4149
190.541	0.4296
190.754	0.4764
190.968	0.2873
191.181	0.3515
191.394	0.4858
191.608	0.4654
191.821	0.5643
192.034	0.2803
192.248	0.4326
192.461	0.5064
192.674	0.4651
192.888	0.4375
193.101	0.1784
193.314	0.2806
193.528	0.3625
193.741	0.562
193.954	0.4096
194.168	0.5362
194.381	0.5583
194.594	0.3606
194.807	0.5914
195.021	0.5671
195.234	0.7072
195.447	0.4064
195.66	0.7754
195.874	0.4941
196.087	0.5246
196.3	0.6772
196.513	0.5003
196.726	0.5101
196.94	0.6479
197.153	0.5764
197.366	0.5683
197.579	0.3347
197.792	0.7667
198.005	0.4564
198.219	0.5066
198.432	0.5658
198.645	0.6788
198.858	0.7563
199.071	0.7338
199.284	0.6263
199.497	0.7257
199.71	0.7193
199.924	0.6403
200.137	0.5424
200.35	0.6201
200.563	0.6649
200.776	0.6248
200.989	0.728
201.202	0.8615
201.415	0.6967
201.628	0.6946
201.841	0.7803
202.054	0.8177
202.267	0.9236
202.48	0.7363
202.693	0.9295
202.906	0.7772
203.119	0.8764
203.332	0.7388
203.545	0.8971
203.758	0.8432
203.971	0.7714
204.184	0.8109
204.397	0.7295
204.61	0.8253
204.823	0.7676
205.036	0.7412
205.249	0.7854
205.462	0.8563
205.674	0.8215
205.887	0.8457
206.1	0.9626
206.313	0.8128
206.526	0.8952
206.739	0.908
206.952	0.9243
207.165	0.9636
207.377	0.9011
207.59	0.7896
207.803	0.8934
208.016	0.9525
208.229	0.9397
208.442	0.8299
208.654	0.7458
208.867	0.7103
209.08	0.6365
209.293	0.5942
209.506	0.5339
209.718	0.5147
209.931	0.4543
210.144	0.4122
210.357	0.3737
210.569	0.3455
210.782	0.2795
210.995	0.2677
211.207	0.2375
211.42	0.2205
211.633	0.1878
211.846	0.1584
212.058	0.1577
212.271	0.1332
212.484	0.1303
212.696	0.112
212.909	0.1032
213.122	0.0855
213.334	0.0698
213.547	0.0749
213.76	0.056
213.972	0.0586
214.185	0.0463
214.397	0.0375
214.61	0.0372
214.823	0.0323
215.035	0.0341
215.248	0.0303
215.46	0.0237
215.673	0.0171
215.885	0.0248
216.098	0.0151
216.311	0.0216
216.523	0.0221
216.736	0.0161
216.948	0.018
217.161	0.0214
217.373	0.0145
217.586	0.0163
217.798	0.0184
218.011	0.0239
218.223	0.0175
218.436	0.0106
218.648	0.0169
218.861	0.0138
219.073	0.022
219.285	0.016
219.498	0.0134
219.71	0.0228
219.923	0.0103
220.135	0.0135
220.348	0.0142
220.56	0.0114
220.772	0.019
220.985	0.0142
221.197	0.0186
221.41	0.0188
221.622	0.0177
221.834	0.0184
222.047	0.0228
222.259	0.0168
222.471	0.0155
222.684	0.0245
222.896	0.0243
223.108	0.0213
223.321	0.0177
223.533	0.0246
223.745	0.0222
223.957	0.0203
224.17	0.023
224.382	0.0227
224.594	0.0246
224.806	0.0177
225.019	0.0227
225.231	0.0234
225.443	0.0258
225.655	0.0239
225.868	0.0259
226.08	0.0292
226.292	0.025
226.504	0.0327
226.716	0.0308
226.929	0.0284
227.141	0.0327
227.353	0.0411
227.565	0.0384
227.777	0.0354
227.989	0.0395
228.202	0.0366
228.414	0.0434
228.626	0.0401
228.838	0.0407
229.05	0.0414
229.262	0.0384
229.474	0.0424
229.686	0.04
229.898	0.0411
230.11	0.0476
230.322	0.0474
230.534	0.0457
230.747	0.0526
230.959	0.0537
231.171	0.0569
231.383	0.0582
231.595	0.0629
231.807	0.0716
232.019	0.0699
232.231	0.073
232.443	0.078
232.655	0.0784
232.867	0.078
233.079	0.083
233.29	0.0763
233.502	0.076
233.714	0.0746
233.926	0.0745
234.138	0.0717
234.35	0.0696
234.562	0.0721
234.774	0.0696
234.986	0.0707
235.198	0.0773
235.41	0.0837
235.622	0.0879
235.833	0.092
236.045	0.1012
236.257	0.1117
236.469	0.1192
236.681	0.1265
236.893	0.1362
237.104	0.1437
237.316	0.1452
237.528	0.1444
237.74	0.1437
237.952	0.1405
238.163	0.1358
238.375	0.1352
238.587	0.13
238.799	0.1234
239.01	0.1182
239.222	0.1169
239.434	0.112
239.646	0.1057
239.857	0.104
240.069	0.1025
240.281	0.1107
240.492	0.1131
240.704	0.1246
240.916	0.1361
241.128	0.1513
241.339	0.1678
241.551	0.186
241.762	0.2054
241.974	0.2248
242.186	0.2363
242.397	0.2458
242.609	0.2473
242.821	0.24
243.032	0.233
243.244	0.2187
243.455	0.2085
243.667	0.1967
243.879	0.186
244.09	0.1775
244.302	0.1629
244.513	0.1547
244.725	0.1475
244.936	0.1414
245.148	0.1322
245.359	0.1276
245.571	0.128
245.782	0.1325
245.994	0.1401
246.205	0.1544
246.417	0.1719
246.628	0.1934
246.84	0.2182
247.051	0.2486
247.263	0.2722
247.474	0.3007
247.686	0.3228
247.897	0.3406
248.108	0.337
248.32	0.3314
248.531	0.3139
248.743	0.2933
248.954	0.272
249.165	0.2496
249.377	0.2316
249.588	0.2127
249.8	0.1926
250.011	0.1764
250.222	0.1623
250.434	0.152
250.645	0.1421
250.856	0.1304
251.067	0.1254
251.279	0.1192
251.49	0.1188
251.701	0.123
251.913	0.1365
252.124	0.15
252.335	0.1739
252.546	0.201
252.758	0.2283
252.969	0.2581
253.18	0.2949
253.391	0.3254
253.603	0.3547
253.814	0.3662
254.025	0.3663
254.236	0.3544
254.447	0.3344
254.659	0.3061
254.87	0.2763
255.081	0.2509
255.292	0.2262
255.503	0.2031
255.714	0.1808
255.925	0.1588
256.137	0.1387
256.348	0.1226
256.559	0.1077
256.77	0.0986
256.981	0.0884
257.192	0.0771
257.403	0.0706
257.614	0.0673
257.825	0.0695
258.036	0.0758
258.247	0.0915
258.458	0.1073
258.669	0.1269
258.88	0.1518
259.091	0.1692
259.302	0.1919
259.513	0.2139
259.724	0.2323
259.935	0.2432
260.146	0.2409
260.357	0.232
260.568	0.2167
260.779	0.1991
260.99	0.1796
261.201	0.1551
261.412	0.1387
261.623	0.1205
261.834	0.1036
262.045	0.09
262.256	0.0764
262.467	0.0631
262.677	0.0537
262.888	0.0446
263.099	0.0398
263.31	0.0307
263.521	0.0262
263.732	0.0257
263.943	0.0223
264.153	0.0181
264.364	0.0184
264.575	0.0138
264.786	0.0145
264.997	0.0142
265.207	0.0128
265.418	0.0129
265.629	0.0139
265.84	0.0157
266.05	0.0151
266.261	0.021
266.472	0.0205
266.683	0.0235
266.893	0.0237
267.104	0.0232
267.315	0.0248
267.525	0.0236
267.736	0.0212
267.947	0.0215
268.157	0.0178
268.368	0.0148
268.579	0.0143
268.789	0.0109
269	0.0101
269.211	0.0078
269.421	0.0049
269.632	0.0049
269.842	0.0049
270.053	0.0041
270.264	0.0012
270.474	0.0001
270.685	0.0014
270.895	0.0009
271.106	0.0006
271.316	0.0005
271.527	0.0005
271.737	-0.0009
271.948	-0.0004
272.158	-0.002
272.369	-0.0011
272.579	-0.0022
272.79	-0.0031
273	-0.003
273.211	-0.0022
273.421	-0.002
273.632	-0.0011
273.842	-0.0018
274.053	-0.0002
274.263	-0.0017
274.474	-0.0025
274.684	-0.0009
274.894	-0.0009
275.105	-0.0017
275.315	-0.0012
275.526	-0.0037
275.736	-0.0025
275.946	-0.002
276.157	-0.0009
276.367	-0.0047
276.577	-0.0022
276.788	-0.0022
276.998	-0.0044
277.208	-0.0027
277.419	-0.0013
277.629	-0.0032
277.839	-0.0029
278.049	-0.0014
278.26	-0.0031
278.47	-0.0014
278.68	-0.001
278.89	-0.0026
279.101	-0.002
279.311	-0.0021
279.521	-0.0018
279.731	-0.0043
279.942	-0.0032
280.152	-0.0015
280.362	-0.002
280.572	-0.0035
280.782	-0.0007
280.992	-0.0026
281.203	-0.0018
281.413	-0.0022
281.623	-0.0036
281.833	-0.0026
282.043	-0.002
282.253	-0.0034
282.463	-0.0037
282.674	-0.0037
282.884	-0.0033
283.094	-0.0022
283.304	-0.0013
283.514	-0.0026
283.724	-0.0033
283.934	-0.0036
284.144	-0.0028
284.354	-0.0034
284.564	-0.0032
284.774	-0.0021
284.984	-0.0036
285.194	-0.0013
285.404	-0
285.614	0.0008
285.824	-0.0021
286.034	-0.004
286.244	-0.0042
286.454	-0.0011
286.664	-0.0016
286.874	-0.0017
287.084	-0.0038
287.294	-0.0044
287.503	-0.0006
287.713	-0.0017
287.923	-0.0006
288.133	-0.0016
288.343	-0.0011
288.553	-0.0048
288.763	-0.0039
288.973	-0.0033
289.182	-0.002
289.392	-0.0016
289.602	-0.0032
289.812	-0.0025
290.022	-0.0018
290.231	-0.002
290.441	-0.0025
290.651	-0.0019
290.861	-0.0034
291.071	-0.0023
291.28	-0.0035
291.49	-0.0051
291.7	-0.0041
291.91	-0.0044
292.119	-0.0021
292.329	-0.0017
292.539	-0.0038
292.748	-0.0009
292.958	-0.0032
293.168	-0.0031
293.377	-0.0044
293.587	-0.003
293.797	-0.0013
294.006	-0.0017
294.216	-0.0035
294.426	-0.0011
294.635	-0.0034
294.845	-0.0033
295.054	-0.0018
295.264	-0.0024
295.474	-0.0033
295.683	-0.0025
295.893	-0.003
296.102	-0.0034
296.312	-0.0036
296.521	-0.003
296.731	-0.0045
296.94	-0.0034
297.15	-0.0033
297.359	-0.0032
297.569	-0.0037
297.778	-0.0017
297.988	-0.0046
298.197	-0.0009
298.407	-0.0024
298.616	-0.0023
298.826	-0.0023
299.035	-0.0043
299.245	-0.0022
299.454	-0.0031
299.663	-0.0039
299.873	-0.0026
300.082	-0.0025
300.292	-0.0031
300.501	-0.0051
300.71	-0.0031
300.92	-0.0029
301.129	-0.0027
301.338	-0.003
301.548	-0.0041
301.757	-0.0046
301.966	-0.0012
302.176	-0.0037
302.385	-0.0008
302.594	-0.0016
302.804	-0.0049
303.013	-0.002
303.222	-0.0036
303.431	-0.0021
303.641	-0.0037
303.85	-0.0034
304.059	-0.0005
304.268	-0.0021
304.477	-0.0022
304.687	-0.0019
304.896	-0.004
305.105	-0.004
305.314	-0.0034
305.523	-0.0029
305.733	-0.0041
305.942	-0.0033
306.151	-0.0039
306.36	-0.0033
306.569	-0.0009
306.778	-0.0008
306.987	0.0004
307.196	-0.0029
307.406	-0.0042
307.615	-0.0039
307.824	-0.0035
308.033	-0.0018
308.242	-0.0025
308.451	-0.0021
308.66	-0.0031
308.869	-0.0026
309.078	-0.0036
309.287	-0.0026
309.496	-0.0018
309.705	-0.0019
309.914	-0.0043
310.123	-0.0022
310.332	-0.0031
310.541	-0.0031
310.75	-0.0033
310.959	-0.0018
311.168	-0.0022
311.377	-0.0036
311.585	-0.0023
311.794	-0.0036
312.003	-0.0015
312.212	-0.0007
312.421	-0.0031
312.63	-0.0003
312.839	-0.0029
313.048	-0.0038
313.256	-0.0007
313.465	-0.002
313.674	-0.0024
313.883	-0.0014
314.092	-0.0018
314.301	-0.0039
314.509	-0.0036
314.718	-0.0041
314.927	-0.0043
315.136	-0.0019
315.344	-0.0039
315.553	-0.0022
315.762	-0.0021
315.971	-0.0019
316.179	-0.0041
316.388	-0.0033
316.597	-0.0021
316.805	-0.0041
317.014	-0.0035
317.223	-0.0043
317.431	-0.0041
317.64	-0.0007
317.849	-0.002
318.057	-0.0022
318.266	-0.0017
318.475	-0.0012
318.683	-0.0022
318.892	-0.0022
319.1	-0.0013
319.309	-0.0009
319.518	-0.0027
319.726	-0.0023
319.935	-0.0009
320.143	-0.0019
320.352	-0.003
320.56	-0.0032
320.769	-0.0003
320.977	-0.0027
321.186	-0
321.394	-0.0017
321.603	-0.0014
321.811	-0.0032
322.02	-0.0032
322.228	-0.0024
322.437	-0.0032
322.645	-0.0025
322.854	-0.0028
323.062	-0.0019
323.27	-0.0031
323.479	-0.002
323.687	-0.0025
323.896	-0.0038
324.104	-0.0033
324.312	-0.0026
324.521	-0.0017
324.729	-0.0006
324.937	-0.0012
325.146	-0.0034
325.354	-0.0028
325.562	-0.0028
325.771	-0.002
325.979	-0.0032
326.187	-0.0013
326.396	-0.003
326.604	-0.0034
326.812	-0.004
327.02	-0.0017
327.229	-0.0034
327.437	-0.0048
327.645	-0.0032
327.853	-0.0033
328.061	-0.001
328.27	-0.0004
328.478	-0.0034
328.686	-0.0038
328.894	-0.0031
329.102	-0.003
329.311	-0.0024
329.519	-0.0032
329.727	-0.0032
329.935	-0.0018
330.143	-0.0027
330.351	-0.004
330.559	-0.0027
330.767	-0.0037
330.975	-0.002
331.183	-0.0017
331.392	-0.0022
331.6	-0.0011
331.808	-0.0028
332.016	-0.0019
332.224	-0.0028
332.432	-0.001
332.64	-0.0014
332.848	-0.0014
333.056	-0.0035
333.264	-0.0027
333.472	-0.0021
333.68	-0.0023
333.888	-0.0041
334.095	-0.0029
334.303	-0.0024
334.511	-0.0037
334.719	-0.003
334.927	-0.0005
335.135	-0.0022
335.343	-0.0022
335.551	0.0002
335.759	-0.0007
335.967	-0.0033
336.174	-0.003
336.382	-0.0037
336.59	-0.0019
336.798	-0.0046
337.006	-0.002
337.213	-0.0042
337.421	-0.0024
337.629	-0.0041
337.837	-0.0044
338.045	-0.0017
338.252	-0.0022
338.46	-0.0022
338.668	-0.0024
338.876	-0.0011
339.083	-0.0034
339.291	0.0002
339.499	-0.0028
339.706	-0.0019
339.914	-0.0026
340.122	-0.0016
340.329	-0.0009
340.537	-0.0034
340.745	-0.0023
340.952	-0.0015
341.16	-0.0042
341.368	-0.0011
341.575	-0.0031
341.783	-0.0017
341.99	-0.0042
342.198	-0.002
342.406	-0.0007
342.613	-0.0016
342.821	-0.0024
343.028	0.0007
343.236	-0.0024
343.443	-0.0029
343.651	-0.003
343.858	-0.001
344.066	-0.0002
344.273	-0.0037
344.481	-0.0041
344.688	-0.0025
344.896	-0.0026
345.103	-0.0015
345.311	-0.0038
345.518	-0.0011
345.725	-0.0013
345.933	-0.0016
346.14	-0.0015
346.348	-0.0018
346.555	-0.002
346.762	-0.0001
346.97	-0.0019
347.177	-0.0007
347.384	-0.0015
347.592	-0.001
347.799	-0.0024
348.006	-0.0019
348.214	-0.0027
348.421	-0.0016
348.628	-0.002
348.836	-0.0034
349.043	-0.0036
349.25	-0.0027
349.457	-0.0014
349.665	-0.001
349.872	-0.0011
350.079	-0.0003
350.286	0.0008
350.493	0.0005
350.701	0.0009
350.908	-0.0021
351.115	-0.0012
351.322	-0.0044
351.529	-0.0031
351.736	-0.0027
351.944	-0.0017
352.151	-0.001
352.358	-0.0011
352.565	-0.0014
352.772	-0.0031
352.979	-0.0029
353.186	-0.0034
353.393	-0.0027
353.6	-0.0007
353.807	0.0004
354.014	-0.0015
354.221	0.0002
354.428	-0.0004
354.635	-0.0007
354.842	-0.0017
355.049	-0.0019
355.256	-0.0001
355.463	0.0004
355.67	-0.0012
355.877	-0.0019
356.084	-0.0029
356.291	-0.0017
356.498	-0.0016
356.705	0.0003
356.912	-0.0023
357.119	-0.0019
357.326	-0.0025
357.533	-0.0035
357.74	-0.0019
357.946	-0.0023
358.153	-0.0002
358.36	-0.0015
358.567	-0.0022
358.774	-0.0018
358.981	-0.0024
359.187	-0.0014
359.394	-0.0009
359.601	-0.0033
359.808	-0.0015
360.014	-0.0014
360.221	-0.0035
360.428	-0.0023
360.635	-0.004
360.841	-0.0035
361.048	-0.0029
361.255	-0.0014
361.462	-0.0018
361.668	-0.001
361.875	-0.0023
362.082	-0.0003
362.288	0.0006
362.495	-0.0016
362.702	-0
362.908	-0.0007
363.115	-0.0033
363.321	-0.0013
363.528	-0.0015
363.735	-0.0005
363.941	-0.0034
364.148	-0.0027
364.354	-0.0011
364.561	-0.0012
364.767	-0.0027
364.974	-0.0005
365.18	-0.0039
365.387	-0.0024
365.593	-0.0027
365.8	-0.0001
366.006	-0.0033
366.213	0.0008
366.419	-0.0008
366.626	-0.0006
366.832	-0.0008
367.039	0.0002
367.245	0.0001
367.452	-0.0015
367.658	0.0012
367.864	-0.0014
368.071	-0.0029
368.277	-0.0031
368.483	-0.0042
368.69	-0.0024
368.896	-0.0025
369.102	-0.004
369.309	-0.0014
369.515	-0.004
369.721	-0.0016
369.928	0.001
370.134	-0.0013
370.34	-0.0023
370.547	-0.0018
370.753	-0.0006
370.959	-0.001
371.165	-0.0011
371.372	0.0017
371.578	0.0001
371.784	-0.0003
371.99	-0.0022
372.196	0.0007
372.403	-0.0004
372.609	0.0012
372.815	-0.0031
373.021	-0.0028
373.227	-0.0001
373.433	-0.0015
373.639	-0.0026
373.845	-0.0013
374.052	-0.0005
374.258	-0.0015
374.464	0.001
374.67	-0.0012
374.876	-0.0013
375.082	-0.0016
375.288	-0.0036
375.494	0.0001
375.7	0.001
375.906	-0.0004
376.112	-0.002
376.318	-0.0013
376.524	-0.0028
376.73	0.0016
376.936	-0.0037
377.142	-0.0024
377.348	0.0003
377.554	-0.0042
377.76	-0.0003
377.966	0.0006
378.172	0.0012
378.377	0.0007
378.583	-0.0004
378.789	-0.0016
378.995	-0.0026
379.201	-0.0032
379.407	0.0015
379.613	0.0023
379.818	-0.0013
380.024	-0.0015
380.23	-0.0016
380.436	-0.0013
380.642	0.0005
380.847	-0.0014
381.053	-0.0004
381.259	-0.0021
381.465	-0.0001
381.67	-0.0023
381.876	-0.0029
382.082	0.0008
382.287	-0.0014
382.493	-0.0028
382.699	-0.0028
382.905	-0.0041
383.11	-0.002
383.316	-0.0039
383.521	-0.002
383.727	-0.0018
383.933	-0.0026
384.138	-0.0022
384.344	-0.0006
384.55	-0.0015
384.755	-0.001
384.961	-0.0006
385.166	-0.0022
385.372	-0.0003
385.577	-0.0006
385.783	-0.0013
385.988	-0.0012
386.194	-0.0021
386.399	-0.0004
386.605	-0.0014
386.81	-0.0023
387.016	-0.0006
387.221	-0.0032
387.427	-0.0011
387.632	-0.0023
387.838	-0.0008
388.043	-0.0006
388.248	0.0004
388.454	-0.0002
388.659	-0.0011
388.865	-0.0003
389.07	-0.0002
389.275	0.0004
389.481	-0.0014
389.686	0.0003
389.891	-0.002
390.097	-0.0022
390.302	0.0009
390.507	-0.001
390.713	-0.0009
390.918	-0.0006
391.123	0.0035
391.328	-0.0002
391.534	0.0002
391.739	0.0005
391.944	-0.0029
392.149	-0.0018
392.355	-0.0024
392.56	-0.0035
392.765	-0.0009
392.97	-0.0008
393.175	-0.001
393.38	-0
393.586	0.001
393.791	0.0003
393.996	0.0019
394.201	-0.0009
394.406	0.0021
394.611	-0.0005
394.816	0.0014
395.021	0.002
395.226	0.0025
395.431	-0.0006
395.637	-0.0003
395.842	-0.0022
396.047	-0.0014
396.252	0.0003
396.457	0.0008
396.662	-0.0001
396.867	-0.002
397.072	-0.0011
397.277	-0.0031
397.481	-0.0006
397.686	-0.0021
397.891	-0.0012
398.096	-0.0017
398.301	0.0008
398.506	0.0002
398.711	0.0005
398.916	-0.0005
399.121	-0.0025
399.326	-0.001
399.53	-0.0007
399.735	-0.0015
399.94	-0.0013
400.145	-0.0031
400.35	0.0007
400.555	0.0005
400.759	0.0024
400.964	-0.0014
401.169	-0.0006
401.374	0.0004
401.578	-0.0014
401.783	0.0011
401.988	0.0014
402.193	-0.0041
402.397	-0.0003
402.602	-0.003
402.807	-0.0024
403.011	-0.0035
403.216	-0.0034
403.421	-0.0011
403.625	0.0008
403.83	0.001
404.035	0.0004
404.239	-0.0006
404.444	-0.0002
404.648	0.0005
404.853	0.0002
405.057	0.0005
405.262	0.0009
405.467	0.0018
405.671	-0.0029
405.876	0.0027
406.08	0.0024
406.285	0
406.489	-0.002
406.694	0.0015
406.898	0.0008
407.103	0.0019
407.307	-0.0021
407.511	-0.0021
407.716	-0.0011
407.92	-0.0001
408.125	0.0004
408.329	-0.0027
408.534	-0.0001
408.738	0.0016
408.942	-0.0009
409.147	-0.0011
409.351	-0.002
409.555	0.0008
409.76	0.0009
409.964	0.0032
410.168	-0.0011
410.373	-0.0012
410.577	-0.0004
410.781	0.0009
410.985	0.0016
411.19	-0.0006
411.394	-0.0014
411.598	-0.0013
411.802	0.0011
412.007	0.0016
412.211	-0.0018
412.415	0.0016
412.619	-0.0007
412.823	-0.0023
413.028	0.0002
413.232	-0.0032
413.436	-0.0042
413.64	0.0008
413.844	-0.0022
414.048	-0.0021
414.252	-0.003
414.456	0.002
414.66	-0.0006
414.865	-0.0019
415.069	0.0002
415.273	0.0017
415.477	-0.0005
415.681	0.0014
415.885	0.0038
416.089	0.0022
416.293	-0.0033
416.497	0
416.701	0.0011
416.905	-0.0025
417.109	0.0003
417.313	-0.002
417.516	-0.0025
417.72	-0.0002
417.924	-0.002
418.128	0.0012
418.332	-0.0012
418.536	-0.002
418.74	-0.0014
418.944	-0.0008
419.148	-0.0018
419.351	-0.0018
419.555	-0.001
419.759	0.0012
419.963	-0.0009
420.167	0.0016
420.37	0.0023
420.574	-0.0029
420.778	0.0018
420.982	0.0012
421.185	0.0017
421.389	0.0015
421.593	0.0011
421.797	0.0035
422	-0.0003
422.204	0.0004
422.408	-0.0001
422.611	-0.0013
422.815	0.0023
423.019	-0.0021
423.222	-0.0005
423.426	-0.0029
423.629	-0.0001
423.833	-0.0021
424.037	-0.0037
424.24	-0.0024
424.444	-0.0031
424.647	-0.0021
424.851	-0.0028
425.054	-0.0002
425.258	0.0009
425.461	-0.0022
425.665	-0.0015
425.868	0.001
426.072	0.0003
426.275	-0.0015
426.479	0
426.682	0.0026
426.886	-0
427.089	0.0017
427.293	0.0004
427.496	0.001
427.699	0.0027
427.903	-0.0016
428.106	0.0011
428.309	0.0013
428.513	0.0008
428.716	0.0005
428.919	-0.0029
429.123	0.0001
429.326	0.0006
429.529	-0.0007
429.733	0.0028
429.936	0.0002
430.139	-0.0011
430.342	-0.0021
430.546	0.0008
430.749	0.0017
430.952	0.0004
431.155	0.0014
431.359	-0.0018
431.562	0
431.765	0.0032
431.968	-0.0012
432.171	-0.0024
432.374	0.0041
432.578	-0.0017
432.781	0.0013
432.984	0.0008
433.187	0.0004
433.39	0.0022
433.593	0.0025
433.796	0.002
433.999	0.0035
434.202	-0.0002
434.405	0.0003
434.608	0.0012
434.811	-0.0009
435.014	0.0017
435.217	0.0021
435.42	0.0005
435.623	0.0014
435.826	-0.0025
436.029	-0.0007
436.232	0.0018
436.435	0.0002
436.638	0.001
436.841	-0.0004
437.044	-0.0003
437.247	0.0006
437.45	0.0005
437.652	0.0022
437.855	-0.0002
438.058	0
438.261	-0.0007
438.464	-0.001
438.667	0.0035
438.869	0.0008
439.072	-0.0005
439.275	0.0003
439.478	0.0009
439.68	-0.0001
439.883	0.0005
440.086	0.0009
440.289	0.0011
440.491	-0.0005
440.694	-0.0011
440.897	-0.0008
441.099	-0.0013
441.302	0.0007
441.505	0.0001
441.707	0.0007
441.91	-0.0019
442.113	-0.0028
442.315	0.0004
442.518	-0.0028
442.72	-0.0005
442.923	-0.0002
443.126	0.0012
443.328	-0.0009
443.531	0.0008
443.733	-0.0008
443.936	0.0011
444.138	0.0006
444.341	-0.003
444.543	-0.002
444.746	-0.0014
444.948	0.0007
445.151	0.001
445.353	0.0001
445.555	0
445.758	0.0004
445.96	0.0029
446.163	0.0018
446.365	0.0034
446.567	0.0031
446.77	0.0004
446.972	-0.0026
447.175	-0.0021
447.377	-0.0028
447.579	-0.001
447.781	-0.002
447.984	-0.0008
448.186	-0.0021
448.388	0.0002
448.591	0.0028
448.793	0.0007
448.995	-0.0002
449.197	-0.0034
449.4	-0.0011
449.602	0.0004
449.804	0.0016
450.006	-0.0005
450.208	0.0025
450.411	0.0022
450.613	-0.0001
450.815	-0.0013
451.017	0.0015
451.219	0.0014
451.421	0.0003
451.623	0.0025
451.825	0.0032
452.027	0.0028
452.229	0.0025
452.432	0.0003
452.634	0.0013
452.836	-0.0004
453.038	-0
453.24	-0.0017
453.442	0.0025
453.644	0.0011
453.846	0.0014
454.048	-0.0009
454.25	-0.0005
454.451	-0.0017
454.653	-0.0044
454.855	-0.0002
455.057	0
455.259	-0.0017
455.461	0.0013
455.663	-0.0009
455.865	-0.0047
456.067	-0.0056
456.268	-0.0066
456.47	0.0003
456.672	0.0016
456.874	0.0006
457.076	0.0006
457.277	-0.0029
457.479	-0.0035
457.681	-0.0016
457.883	0.0008
458.084	0.0021
458.286	-0.0013
458.488	0.0032
458.69	0.0023
458.891	0.0032
459.093	0.0008
459.295	0.0019
459.496	0.0023
459.698	0.0029
459.9	0.0021
460.101	0.0007
460.303	0.0016
460.504	-0.0015
460.706	-0.0006
460.908	-0.0005
461.109	0.0003
461.311	0.001
461.512	-0.003
461.714	0.0005
461.915	0.0012
462.117	-0.0028
462.318	-0.0002
462.52	-0.0012
462.721	-0.0009
462.923	-0.0024
463.124	-0.0017
463.326	0.0002
463.527	-0.002
463.729	0.0041
463.93	-0.0015
464.131	0.0029
464.333	0.0009
464.534	0.0023
464.735	0.0039
464.937	0.0048
465.138	0.0039
465.34	0.0021
465.541	0.0018
465.742	0.0048
465.943	0.0018
466.145	0.0041
466.346	0.0026
466.547	0.0026
466.748	0.0024
466.95	0.0009
467.151	0.0029
467.352	0.0017
467.553	0.0002
467.755	0.001
467.956	0.0001
468.157	0.0026
468.358	0.001
468.559	0.0009
468.76	-0.0015
468.961	-0.0013
469.163	-0.0021
469.364	0.0016
469.565	-0.0025
469.766	0.0016
469.967	-0.0039
470.168	0.0045
470.369	0.0008
470.57	0.0054
470.771	-0.0013
470.972	0.0009
471.173	-0.0019
471.374	0.0004
471.575	0.0013
471.776	0.0006
471.977	0.0027
472.178	0.004
472.379	-0.0002
472.58	0.0014
472.781	0.0029
472.982	0.0004
473.182	0.0013
473.383	0.0005
473.584	0.0051
473.785	0.001
473.986	0.0014
474.187	0.0012
474.387	0.0014
474.588	-0.001
474.789	0.003
474.99	-0.0016
475.191	-0.0007
475.391	-0.001
475.592	-0.0019
475.793	0
475.994	0.0033
476.194	-0.0007
476.395	-0.0022
476.596	-0.0014
476.796	-0.0006
476.997	0.0019
477.198	-0.0037
477.398	-0.0008
477.599	-0.0018
477.799	-0.0064
478	-0.0058
478.201	-0.0037
478.401	-0.0045
478.602	-0.0025
478.802	-0.0002
479.003	-0.0027
479.203	0.0026
479.404	0.001
479.604	0.001
479.805	0.0034
480.005	0.0031
480.206	0.0015
480.406	0.0037
480.607	0.0052
480.807	0.0033
481.008	0.0025
481.208	0.0027
481.409	0.0037
481.609	0.0004
481.809	0.0032
482.01	0.0037
482.21	0.0004
482.41	0.0022
482.611	0.0003
482.811	-0.0002
483.011	0.0034
483.212	0.0025
483.412	-0.0033
483.612	-0.0015
483.812	0.0005
484.013	-0.0002
484.213	0.0007
484.413	0.003
484.613	-0.0007
484.814	-0.0008
485.014	-0.0018
485.214	-0.002
485.414	-0.003
485.614	-0.0039
485.814	-0.0025
486.015	-0
486.215	-0.0014
486.415	-0.001
486.615	-0.0015
486.815	-0.0005
487.015	-0.0044
487.215	0.0032
487.415	0.0012
487.615	0.0019
487.815	0.0019
488.015	0.0029
488.215	0.0021
488.415	0.002
488.615	0.0001
488.815	0.0037
489.015	0.0038
489.215	0.0043
489.415	0.0028
489.615	0.0042
489.815	0.0051
490.015	0.0046
490.215	0.0027
490.415	0.0003
490.614	-0.0007
490.814	-0.0009
491.014	0.001
491.214	-0.0025
491.414	-0.002
491.613	-0.0033
491.813	0.0001
492.013	-0.0001
492.213	-0.0004
492.413	-0.0008
492.612	-0.0024
492.812	-0.0011
493.012	-0.0016
493.211	-0.0005
493.411	-0.0036
493.611	-0.0006
493.811	0.0012
494.01	0.0013
494.21	0.0001
494.409	-0.0006
494.609	-0.0021
494.809	0.0021
495.008	0.001
495.208	0.0039
495.407	0.0011
495.607	-0.0003
495.807	0.0026
496.006	0.0047
496.206	0.001
496.405	0.0017
496.605	-0.0027
496.804	0.0032
497.004	-0.0004
497.203	0.0009
497.403	0.0031
497.602	-0.0001
497.801	-0.0018
498.001	0.0027
498.2	0.0014
498.4	0.0025
498.599	0.0038
498.798	0
498.998	-0.0014
499.197	0.0008
499.396	0.0016
499.596	-0.0023
499.795	-0.0001
499.994	0.0007
500.194	0.0015
500.393	-0.004
500.592	0.0023
500.791	-0.001
500.991	0.002
501.19	-0.0016
501.389	-0.0001
501.588	0.0016
501.788	0.001
501.987	0.0018
502.186	0.0007
502.385	0.0047
502.584	0.0021
502.783	0.0016
502.982	-0.0002
503.182	0.0008
503.381	0.0007
503.58	-0.0003
503.779	0.006
503.978	0.0086
504.177	0.0068
504.376	0.0023
504.575	0.0016
504.774	0.0062
504.973	0.0031
505.172	0.0048
505.371	0.0055
505.57	0.0024
505.769	-0.0006
505.968	0.003
506.167	-0.0016
506.366	-0.0003
506.565	-0.0028
506.763	-0.0013
506.962	0.0003
507.161	0
507.36	0.0052
507.559	-0.0039
507.758	-0.0016
507.957	-0.0026
508.155	-0.0037
508.354	0.0009
508.553	-0.0013
508.752	-0.0034
508.95	-0.0034
509.149	-0.0036
509.348	-0.0024
509.547	-0.0033
509.745	-0.0021
509.944	-0.0025
510.143	0.0012
510.341	0.0014
510.54	-0.0011
510.739	0.0021
510.937	0.0011
511.136	0.0004
511.335	-0.0026
511.533	0.0028
511.732	0.002
511.93	0.0033
512.129	0.0034
512.327	-0.0003
512.526	-0.0001
512.724	0.0026
512.923	0.0011
513.121	0.0031
513.32	0.0039
513.518	0.0024
513.717	0.0054
513.915	0.0013
514.114	-0.0001
514.312	0.0016
514.511	0.0023
514.709	-0.0005
514.907	0.0012
515.106	-0.0007
515.304	0.0049
515.502	0.0007
515.701	-0.0011
515.899	0.0009
516.097	0.0018
516.296	0.0036
516.494	-0.0016
516.692	-0
516.891	-0.0007
517.089	-0.0021
517.287	-0.0019
517.485	0.0025
517.683	0.0004
517.882	-0.0001
518.08	0.0017
518.278	0.0008
518.476	0.008
518.674	0.0012
518.873	0.0008
519.071	0.0031
519.269	-0.0021
519.467	-0.0011
519.665	-0.0021
519.863	0.0025
520.061	0.0028
520.259	-0.0022
520.457	0.0029
520.655	-0.0008
520.853	0.0018
521.051	0.0007
521.249	0.0036
521.447	0.0006
521.645	-0.0013
521.843	-0.0011
522.041	0.0029
522.239	-0.0013
522.437	0.0006
522.635	0.0015
522.833	0.0003
523.031	0.0015
523.229	0.0027
523.426	0.003
523.624	0.0012
523.822	0.0003
524.02	0.0009
524.218	0.0031
524.415	0
524.613	0.0015
524.811	0.0024
525.009	0.0051
525.207	-0.0006
525.404	-0.0012
525.602	-0.0013
525.8	0.0008
525.997	-0.0007
526.195	-0.0009
526.393	0.0032
526.59	-0.0015
526.788	-0.0022
526.986	0.0032
527.183	-0.0014
527.381	-0.0002
527.578	0.0003
527.776	-0.001
527.974	0.0054
528.171	0.0021
528.369	0.0021
528.566	0.0015
528.764	0.001
528.961	0.0015
529.159	0.002
529.356	0.003
529.554	0.0026
529.751	0.0006
529.949	0.0021
530.146	0.0055
530.343	0.0033
530.541	-0.0017
530.738	0.0088
530.936	0.0001
531.133	0.0016
531.33	0.0042
531.528	0.0033
531.725	0.0018
531.922	0.0043
532.12	-0
532.317	0.0011
532.514	0.0039
532.711	0.0017
532.909	0.0061
533.106	-0.0011
533.303	0.0041
533.5	0.0044
533.698	0.0015
533.895	0.0048
534.092	0.0032
534.289	0.0021
534.486	0.0004
534.683	-0.0025
534.881	0.0011
535.078	0.0011
535.275	-0.0021
535.472	0.0058
535.669	0.005
535.866	-0.0003
536.063	0.0026
536.26	0.0064
536.457	0.0023
536.654	0.0041
536.851	-0.0012
537.048	0.0018
537.245	0.0038
537.442	0.0025
537.639	0.0029
537.836	0.002
538.033	0.0019
538.23	0.0016
538.427	0.0006
538.624	0.0009
538.821	0.001
539.017	-0.0014
539.214	0.0049
539.411	0.0065
539.608	-0.0016
539.805	-0.0005
540.001	0.005
540.198	0.0041
540.395	0.003
540.592	0.0014
540.789	0.0048
540.985	0.0067
541.182	0.0066
541.379	0.0063
541.575	0.0025
541.772	0.0009
541.969	0.0042
542.165	0.0041
542.362	0.0022
542.559	0.0015
542.755	0.0009
542.952	0.0032
543.149	0.0012
543.345	0.0035
543.542	0.0024
543.738	0.0033
543.935	0.004
544.131	0.0034
544.328	0.0009
544.524	0.0014
544.721	0.0025
544.917	0.0024
545.114	0.0045
545.31	-0.0007
545.507	0
545.703	0.0025
545.9	0.003
546.096	0.0038
546.292	0.0024
546.489	0.0011
546.685	0.0032
546.881	0.0026
547.078	0.0047
547.274	0.0015
547.47	-0.0024
547.667	0.0027
547.863	0.0021
548.059	0.0044
548.255	0.004
548.452	0.0056
548.648	0.0048
548.844	0.0042
549.04	0.0031
549.237	0.0025
549.433	0.002
549.629	0.0037
549.825	0.0054
550.021	0.004
550.217	0.0034
550.414	0.0069
550.61	0.002
550.806	0.0031
551.002	-0.0003
551.198	0.0028
551.394	0.0056
551.59	0.0068
551.786	0.0065
551.982	0.0078
552.178	0.007
552.374	0.0041
552.57	0.005
552.766	0.0061
552.962	0.0026
553.158	0.0022
553.354	0.0071
553.55	0.0054
553.746	0.0016
553.941	0.0004
554.137	0.0026
554.333	-0.0012
554.529	-0.0038
554.725	0.0003
554.921	0.0011
555.116	-0.0005
555.312	0.0015
555.508	0.0035
555.704	0.0044
555.9	0.0064
556.095	0.0053
556.291	0.0029
556.487	0.0015
556.682	0.0039
556.878	0.0044
557.074	0.0026
557.27	0.0029
557.465	0.005
557.661	-0.0009
557.856	0.0018
558.052	0.0016
558.248	-0.0032
558.443	0.003
558.639	0.0046
558.834	0.0065
559.03	0.003
559.225	0.0016
559.421	0.0005
559.616	0.0051
559.812	0.0029
560.007	0.0021
560.203	0.0054
560.398	-0.0001
560.594	-0.0006
560.789	0.0028
560.985	0.0023
561.18	0.0046
561.375	0.0016
561.571	-0.0012
561.766	0.0066
561.962	0.0046
562.157	0.0046
562.352	0.0041
562.548	0.0086
562.743	0.0054
562.938	0.0108
563.133	0.0136
563.329	0.0085
563.524	0.0107
563.719	0.0087
563.914	0.0059
564.11	0.005
564.305	0.0039
564.5	0.0079
564.695	0.0041
564.89	0.0029
565.085	0.0011
565.28	0.0051
565.476	0.007
565.671	0.0036
565.866	0.0069
566.061	0.006
566.256	0.0057
566.451	0.0084
566.646	0.0076
566.841	0.0074
567.036	0.0064
567.231	0.0101
567.426	0.01
567.621	0.0099
567.816	0.0082
568.011	0.0064
568.206	0.0074
568.401	0.0059
568.596	0.0068
568.791	0.0049
568.985	0.0056
569.18	0.0028
569.375	0.0022
569.57	0.0029
569.765	-0.0004
569.96	0.0011
570.154	0.0016
570.349	-0
570.544	0.0025
570.739	0.0034
570.933	0.0027
571.128	0.0027
571.323	0.0029
571.518	0.0045
571.712	0.0034
571.907	0.0036
572.102	0.0027
572.296	0.0044
572.491	0.0032
572.686	0.0029
572.88	0.003
573.075	0.0031
573.269	0.0029
573.464	0.0026
573.658	0.0017
573.853	0.0016
574.047	0.0033
574.242	0.0018
574.437	0.0011
574.631	0.0034
574.825	0.0012
575.02	0.0009
575.214	0.0023
575.409	0.0026
575.603	0.0008
575.798	-0.0012
575.992	-0.0033
576.186	-0.0015
576.381	0.0006
576.575	-0.001
576.77	-0.0006
576.964	0.0018
577.158	0.0021
577.352	0.0016
577.547	0.0003
577.741	0.0004
577.935	0.0018
578.13	0.002
578.324	0.0012
578.518	0.0019
578.712	0.0024
578.906	0.0027
579.101	0.0031
579.295	0.0034
579.489	0.0029
579.683	0.0036
579.877	0.0028
580.071	0.0039
580.265	0.0026
580.459	0.0008
580.654	0.0025
580.848	0.0043
581.042	0.0048
581.236	0.0044
581.43	0.0051
581.624	0.0054
581.818	0.0033
582.012	0.0041
582.206	0.0033
582.4	0.0034
582.594	0.0018
582.787	0.0028
582.981	0.0023
583.175	0.0038
583.369	0.0034
583.563	0.004
583.757	0.0021
583.951	0.0009
584.145	0.0037
584.338	0.0019
584.532	0.0048
584.726	0.0057
584.92	0.0053
585.114	0.0053
585.307	0.0051
585.501	0.0079
585.695	0.0067
585.888	0.0055
586.082	0.0057
586.276	0.0054
586.47	0.0053
586.663	0.0039
586.857	0.0045
587.05	0.0038
587.244	0.0033
587.438	0.0035
587.631	0.0029
587.825	0.0016
588.018	0.0025
588.212	0.0047
588.405	0.0053
588.599	0.0049
588.792	0.0049
588.986	0.0038
589.179	0.0042
589.373	0.0025
589.566	0.0036
589.76	0.0045
589.953	0.0019
590.147	-0.0016
590.34	0.0038
590.533	0.0026
590.727	0.0042
590.92	0.0027
591.114	0.0011
591.307	0.0015
591.5	0.004
591.693	0.0028
591.887	0.0049
592.08	0.0055
592.273	0.0055
592.467	0.0035
592.66	0.0034
592.853	0.0044
593.046	0.0019
593.239	0.0026
593.433	0.0024
593.626	0.0047
593.819	0.0029
594.012	0.0021
594.205	0.0039
594.398	0.003
594.591	0.0031
594.784	0.0025
594.977	0.0034
595.171	0.0012
595.364	0.0007
595.557	0.0033
595.75	0.0037
595.943	0.0019
596.136	0.0015
596.329	0.0008
596.522	-0.0016
596.715	-0.0012
596.907	-0.0072
597.1	-0.0059
597.293	-0.0065
597.486	-0.004
597.679	-0.0055
597.872	-0.0042
598.065	-0.0015
598.258	0.0001
598.45	-0.001
598.643	-0.001
598.836	-0.0006
599.029	-0.0024
599.222	-0.0024
599.414	-0.0037
599.607	-0.004
599.8	-0.0014
599.992	0.0002
600.185	0.0013
600.378	0.0026
600.571	0.0003
600.763	0.0011
600.956	0.003
601.148	0.0027
601.341	0.0029
601.534	0.0033
601.726	0.0044
601.919	0.0054
602.111	0.0065
602.304	0.0073
602.496	0.0068
602.689	0.0061
602.881	0.0072
603.074	0.004
603.266	0.0027
603.459	0.0031
603.651	0.0024
603.844	0.0019
604.036	0.0026
604.229	-0.0007
604.421	0.0017
604.613	0.0015
604.806	0.0015
604.998	0.0015
605.19	-0.0018
605.383	-0.0003
605.575	-0.001
605.767	-0.0008
605.96	-0.0015
606.152	0.0011
606.344	-0.0027
606.536	-0.0008
606.729	0.0019
606.921	0.0028
607.113	0.0032
607.305	0.0061
607.497	0.006
607.69	0.0041
607.882	0.0008
608.074	-0.0025
608.266	-0.0042
608.458	-0.0067
608.65	-0.0056
608.842	-0.005
609.034	-0.0017
609.226	0.0018
609.418	0.0023
609.61	0.0057
609.802	0.0045
609.994	0.0097
610.186	0.0059
610.378	0.0083
610.57	0.0042
610.762	0.0059
610.954	0.005
611.146	0.0068
611.338	0.0055
611.53	0.005
611.722	0.006
611.913	0.006
612.105	0.0059
612.297	0.0052
612.489	0.0074
612.681	0.0079
612.873	0.0105
613.064	0.0071
613.256	0.0041
613.448	0.0016
613.639	0.0055
613.831	0.0016
614.023	0.0043
614.215	0.0007
614.406	0.0021
614.598	0.003
614.79	0.0006
614.981	0.0001
615.173	-0.0041
615.364	0.0001
615.556	-0.003
615.748	-0.0008
615.939	-0.003
616.131	-0.0014
616.322	0.0015
616.514	0.0014
616.705	0.0019
616.897	0.0034
617.088	0.0019
617.28	0.0045
617.471	0.0056
617.662	0.0054
617.854	0.0056
618.045	0.0067
618.237	0.0071
618.428	0.0047
618.619	0.0057
618.811	0.003
619.002	0.0036
619.193	0.0084
619.385	0.0036
619.576	0.0084
619.767	0.0079
619.958	0.0106
620.15	0.0096
620.341	0.0084
620.532	0.005
620.723	0.0083
620.914	0.0094
621.106	0.009
621.297	0.0058
621.488	0.0037
621.679	0.0023
621.87	-0.0045
622.061	-0.0044
622.252	-0.0097
622.443	-0.0166
622.635	-0.0099
622.826	-0.0156
623.017	-0.0102
623.208	-0.0056
623.399	-0.0047
623.59	-0.0007
623.781	-0.0023
623.972	-0.002
624.162	-0.0006
624.353	-0.001
624.544	0.0012
624.735	-0.0004
624.926	0.0003
625.117	0.0014
625.308	0.0013
625.499	0.0024
625.69	0.0042
625.88	0.0012
626.071	0.0047
626.262	0.0025
626.453	0.0029
626.643	-0.0013
626.834	0.0037
627.025	0.0034
627.216	-0.0005
627.406	-0.0024
627.597	0.0004
627.788	0.0005
627.978	0.0003
628.169	0.0005
628.36	0.0008
628.55	0.0031
628.741	0.0009
628.931	0.0045
629.122	0.0039
629.313	0.0047
629.503	0.0023
629.694	0.0058
629.884	0.0111
630.075	0.008
630.265	0.0026
630.456	0.0097
630.646	0.0086
630.837	0.0081
631.027	0.0042
631.217	0.0094
631.408	0.0058
631.598	0.0054
631.789	0.0072
631.979	0.0048
632.169	0.0091
632.36	0.003
632.55	0.0018
632.74	0.0048
632.93	0.0034
633.121	-0.0001
633.311	0.0057
633.501	-0.0018
633.691	0.0024
633.882	0.0029
634.072	0.0017
634.262	0.0028
634.452	0.0003
634.642	-0.0071
634.833	0.0036
635.023	-0
635.213	0.005
635.403	-0.0009
635.593	0.001
635.783	0.0041
635.973	-0.0016
636.163	0.0006
636.353	0.009
636.543	0.0003
636.733	0.0044
636.923	0.0015
637.113	-0.0058
637.303	0.0007
637.493	0.0028
637.683	0.004
637.873	0.0057
638.063	-0.0006
638.253	0.0057
638.442	0.0034
638.632	-0.0006
638.822	0.0034
639.012	0.0034
639.202	0.0008
639.392	0.0019
639.581	0.0042
639.771	0.0011
639.961	-0.0005
640.151	0.0059
640.34	-0.0033
640.53	0.0049
640.72	0.005
640.909	0.0022
641.099	0.0025
641.289	0.0039
641.478	-0.0059
641.668	0.0062
641.858	0.007
642.047	0.0038
642.237	0.0133
642.426	0.0021
642.616	0.0077
642.805	0.0042
642.995	0.0074
643.184	0.0129
643.374	0.0118
643.563	0.0116
643.753	-0.0018
643.942	-0.0012
644.132	-0.0018
644.321	0.0054
644.51	0.0025
644.7	0.0099
644.889	0.0083
645.079	-0.0024
645.268	0.0121
645.457	-0.0013
645.647	0.0209
645.836	0.0071
646.025	0.0086
646.214	0.0111
646.404	0.0096
646.593	0.0037
646.782	0.006
646.971	0.0154
647.161	0.0051
647.35	0.0108
647.539	0.0115
647.728	0.0148
647.917	0.009
648.106	0.0164
648.295	0.0069
648.485	0.0058
648.674	-0.0028
648.863	-0.0025
649.052	0.0026
649.241	0.0012
649.43	-0.0016
649.619	0.0021
649.808	0.0043
649.997	-0.0018
650.186	0.0029
650.375	0.0104
650.564	0.0066
650.752	0.0122
650.941	0.0199
651.13	0.0097
651.319	0.0113
651.508	0.0064
651.697	0.0073
651.886	0.0099
652.074	0.0052
652.263	0.0133
652.452	0.0121
652.641	0.0175
652.83	0.0084
653.018	0.0135
653.207	0.0137
653.396	0.0141
653.584	0.0108
653.773	0.0075
653.962	0.0123
654.15	0.0139
654.339	0.0022
654.528	0.0186
654.716	0.0108
654.905	0.0202
655.093	0.0306
655.282	0.032
655.471	0.0297
655.659	0.0284
655.848	0.0266
656.036	0.0257
656.225	0.0237
656.413	0.0207
656.602	0.0208
656.79	0.0218
656.978	0.0229
657.167	0.024
657.355	0.0237
657.544	0.0232
657.732	0.0213
657.92	0.0215
658.109	0.0196
658.297	0.019
658.485	0.0179
658.674	0.0179
658.862	0.016
659.05	0.0123
659.238	0.0081
659.427	0.0076
659.615	0.0128
659.803	0.01
659.991	0.0062
660.179	0.0096
660.368	0.0139
660.556	0.0116
660.744	0.0098
660.932	0.0089
661.12	0.0116
661.308	0.0135
661.496	0.016
661.684	0.0156
661.872	0.0127
662.06	0.0088
662.248	0.0048
662.436	0.0124
662.624	0.0082
662.812	0.0044
663	0.0017
663.188	0.0051
663.376	-0.0013
663.564	0.0082
663.752	0.0056
663.94	0.0034
664.128	0.0029
664.315	0.003
664.503	0.007
664.691	0.0082
664.879	0.0029
665.067	0.0029
665.255	0.0133
665.442	-0.0013
665.63	0.0021
665.818	0.0028
666.005	0.0035
666.193	0.0043
666.381	0.0081
666.568	-0.0001
666.756	0.0009
666.944	0.0069
667.131	0.0023
667.319	0.0065
667.507	0.0096
667.694	0.0078
667.882	-0.0005
668.069	0.0064
668.257	-0.0034
668.444	0.0042
668.632	0.0173
668.819	0.0124
669.007	0.0014
669.194	0.0119
669.382	0.0117
669.569	0.0058
669.757	-0.0055
669.944	0.0038
670.131	0.0019
670.319	0.0028
670.506	-0.0012
670.693	-0.0006
670.881	0.0027
671.068	0.0087
671.255	0.0075
671.443	0.0044
671.63	0.0112
671.817	0.0059
672.004	0.007
672.191	-0.0013
672.379	0.0037
672.566	0.0056
672.753	0.0058
672.94	0.0058
673.127	0.0043
673.314	0.0004
673.502	0.0073
673.689	-0.0033
673.876	0.0054
674.063	0.0014
674.25	0.0041
674.437	0.0005
674.624	0.0117
674.811	0.0074
674.998	0.006
675.185	0.0157
675.372	0.003
675.559	0.0043
675.746	0.0089
675.933	0.0102
676.119	0.0044
676.306	0.009
676.493	0.0135
676.68	0.0057
676.867	-0
677.054	0.001
677.241	0.0085
677.427	0.0106
677.614	0.0124
677.801	0.0082
677.988	0.011
678.174	0.0026
678.361	0.0032
678.548	-0.0005
678.734	-0.0058
678.921	-0.0088
679.108	-0.0034
679.294	-0.0031
679.481	-0.0003
679.668	-0.0056
679.854	0.0026
680.041	0.0096
680.227	-0.0006
680.414	0.0122
680.6	0.0064
680.787	0.0097
680.973	0.0076
681.16	0.0101
681.346	0.0136
681.533	0.0155
681.719	0.0119
681.906	0.0131
682.092	0.0196
682.278	0.0137
682.465	0.012
682.651	0.007
682.838	0.0117
683.024	0.0074
683.21	0.0126
683.396	0.0052
683.583	0.0086
683.769	0.0078
683.955	0.0127
684.142	0.0084
684.328	-0.0041
684.514	0.0043
684.7	0.0084
684.886	0.0148
685.073	0.005
685.259	0.0121
685.445	0.0027
685.631	0.0123
685.817	0.0077
686.003	0.0081
686.189	0.0077
686.375	0.0074
686.561	0.0127
686.747	0.0075
686.933	0.0068
687.119	0.0017
687.305	0.0244
687.491	0.0142
687.677	0.0156
687.863	0.0129
688.049	0.0096
688.235	0.0094
688.421	0.0127
688.607	0.0052
688.793	0.0076
688.978	0.0151
689.164	0.0113
689.35	0.0034
689.536	0.0039
689.722	0.0112
689.907	0.0029
690.093	0.0016
690.279	0.0056
690.465	0.0046
690.65	0.0058
690.836	0.0162
691.022	0.0141
691.207	0.0145
691.393	0.0154
691.578	0.0114
691.764	0.0114
691.95	0.0078
692.135	0.0045
692.321	0.0058
692.506	0.0013
692.692	-0.0017
692.877	-0.0035
693.063	-0.0049
693.248	-0.0076
693.434	-0.0054
693.619	-0.0048
693.805	-0.0121
693.99	0.0024
694.176	-0.0033
694.361	-0.0062
694.546	0.0002
694.732	-0.0026
694.917	-0.0017
695.102	0.0023
695.288	-0.0123
695.473	-0.0029
695.658	-0.0089
695.843	0.0102
696.029	0.0112
696.214	0.0111
696.399	0.0042
696.584	-0.0064
696.77	-0.0026
696.955	-0.0051
697.14	-0.0086
697.325	-0.0133
697.51	-0.0122
697.695	-0.0085
697.88	-0.0066
698.065	0.0088
698.251	0.0008
698.436	0.0054
698.621	0.0148
698.806	0.0151
698.991	0.0096
699.176	0.0109
699.361	0.008
699.546	0.0068
699.73	0.0001
699.915	0.0021
700.1	0.0003
700.285	0.0087
700.47	0.0012
700.655	0.0071
700.84	-0.0001
701.025	-0.0037
701.209	0.0055
701.394	-0.0048
701.579	0.0068
701.764	-0.0003
701.948	-0.0027
702.133	-0.0013
702.318	0.0041
702.503	0.0067
702.687	0.0069
702.872	0.0104
703.057	0.0039
703.241	-0.0018
703.426	0.0001
703.61	0.0047
703.795	0.0024
703.98	0.0067
704.164	0.0068
704.349	-0.0014
704.533	0.0071
704.718	-0.0048
704.902	0.0018
705.087	0.0113
705.271	-0.0087
705.456	0.0075
705.64	0.0099
705.825	0.0032
706.009	0.0089
706.193	0.0094
706.378	0.0019
706.562	0.0041
706.746	0.0017
706.931	0.0017
707.115	0.0039
707.299	0.0013
707.484	-0.0039
707.668	-0.0074
707.852	0.0049
708.036	0.0055
708.221	0.0077
708.405	0.007
708.589	0.0066
708.773	0.0068
708.957	0.0149
709.141	0.0027
709.326	0.0007
709.51	0.0072
709.694	-0.0064
709.878	0.0068
710.062	0.0001
710.246	0.0059
710.43	0.0056
710.614	0.0025
710.798	0.0053
710.982	0.0057
711.166	0.0002
711.35	0.0016
711.534	-0.0009
711.718	-0.0003
711.902	-0.0056
712.085	0.0025
712.269	0.012
712.453	0.0189
712.637	0.013
712.821	0.0023
713.005	0.0018
713.188	-0.002
713.372	0.0149
713.556	0.0076
713.74	-0.0006
713.923	-0.0022
714.107	0.0015
714.291	0.004
714.474	0.0035
714.658	-0.0004
714.842	-0.0003
715.025	0.0051
715.209	0.0024
715.393	0.0017
715.576	-0.0031
715.76	0.003
715.943	0.0087
716.127	-0.0084
716.31	0.0094
716.494	-0.0014
716.677	0.0085
716.861	0.0165
717.044	0.0018
717.228	-0.0077
717.411	0.0156
717.594	0.0113
717.778	0.0042
717.961	0.01
718.145	0.0085
718.328	0.0107
718.511	0.0102
718.695	0.0059
718.878	0.005
719.061	0.0013
719.244	0.015
719.428	0.0033
719.611	0.0131
719.794	-0.0044
719.977	0.0154
720.16	0.0041
720.344	0.0119
720.527	0.0041
720.71	0.0057
720.893	0.0115
721.076	0.0088
721.259	-0.0028
721.442	0.0128
721.625	0.012
721.808	0.005
721.991	0.0071
722.174	-0.0077
722.357	-0.0016
722.54	-0.0093
722.723	0.0066
722.906	0.0104
723.089	-0.0094
723.272	-0.0041
723.455	0.003
723.638	-0.0019
723.821	-0.0127
724.003	0.0012
724.186	0.0072
724.369	-0.0039
724.552	-0.0044
724.735	0.0031
724.917	-0.0066
725.1	0.0061
725.283	0.0055
725.466	-0.0047
725.648	0.0017
725.831	-0.0029
726.014	0.0071
726.196	0.0113
726.379	0.0106
726.562	0.0057
726.744	0.0057
726.927	0.0148
727.109	0.0133
727.292	0.0021
727.474	0.0007
727.657	0.0069
727.839	0.0147
728.022	0.0034
728.204	0.0079
728.387	0.0072
728.569	0.0088
728.752	0.0095
728.934	0.0086
729.116	0.0138
729.299	0.005
729.481	-0.0021
729.664	0.0086
729.846	0.0108
730.028	0.005
730.21	0.006
730.393	0.0087
730.575	0.0062
730.757	0.0088
730.939	0.0205
731.122	0.0225
731.304	0.0115
731.486	0.0163
731.668	0.0133
731.85	0.0217
732.032	0.0189
732.215	0.0104
732.397	0.0065
732.579	0.0046
732.761	0.0042
732.943	-0.0004
733.125	-0.0044
733.307	0.004
733.489	-0.0069
733.671	-0.0057
733.853	-0.006
734.035	-0.0038
734.217	-0.0014
734.399	-0.0083
734.581	-0.0023
734.762	-0.0021
734.944	0.0023
735.126	0.0027
735.308	0.0095
735.49	0.0007
735.672	0.0042
735.853	0.0104
736.035	0.0061
736.217	0.0107
736.399	0.012
736.58	0.0119
736.762	0.0158
736.944	0.01
737.126	0.0056
737.307	0.0097
737.489	0.007
737.67	0.0021
737.852	0.0057
738.034	0.0063
738.215	0.0083
738.397	0.0079
738.578	0.0028
738.76	0.0039
738.941	0.0115
739.123	0.0104
739.304	0.0082
739.486	0.0089
739.667	0.0105
739.849	0.0085
740.03	0.0051
740.211	0.0076
740.393	0.0058
740.574	0.0097
740.756	0.0164
740.937	0.0009
741.118	0.0079
741.299	0.0048
741.481	0.0089
741.662	0.0064
741.843	0.0046
742.025	0.0133
742.206	0.0058
742.387	0.0187
742.568	0.0166
742.749	0.0091
742.93	0.011
743.112	0.0076
743.293	0.0032
743.474	0.0074
743.655	0.0082
743.836	0.0129
744.017	0.0032
744.198	0.0001
744.379	0.0038
744.56	0.0069
744.741	0.0072
744.922	0.0082
745.103	0.0035
745.284	0.0081
745.465	-0.0077
745.646	-0.007
745.827	-0.004
746.007	0.0006
746.188	-0.0001
746.369	0.0129
746.55	0.0186
746.731	0.0221
746.911	-0.0037
747.092	0.0111
747.273	0.0045
747.454	0.0042
747.634	-0.0026
747.815	0.0043
747.996	-0.0055
748.177	0.0125
748.357	-0.0043
748.538	-0.0078
748.718	0.0062
748.899	-0.0017
749.08	0.0047
749.26	-0.0008
749.441	0.0027
749.621	-0.0043
749.802	0.0002
749.982	-0.0015
750.163	0.0033
750.343	0.0101
750.524	0.0075
750.704	0.0138
750.885	0.0067
751.065	0.0082
751.245	0.0037
751.426	0.0057
751.606	0.0079
751.786	0.0091
751.967	0.0046
752.147	0.0119
752.327	0.0109
752.508	0.0088
752.688	0.0092
752.868	0.0096
753.048	0.0169
753.229	0.0008
753.409	0.0086
753.589	0.0089
753.769	0.012
753.949	0.0024
754.129	0.0069
754.309	0.0045
754.489	0.0087
754.67	0.0112
754.85	0.0018
755.03	0.0003
755.21	0.0006
755.39	0.005
755.57	0.0108
755.75	0.0104
755.93	0.0106
756.11	0.0063
756.289	0.0127
756.469	0.01
756.649	0.0148
756.829	0.008
757.009	0.0152
757.189	0.0101
757.369	0.0105
757.548	0.015
757.728	0.0124
757.908	0.0203
758.088	0.0163
758.267	0.0189
758.447	0.0089
758.627	0.0238
758.807	0.013
758.986	0.0092
759.166	0.0057
759.346	0.0026
759.525	-0.0038
759.705	-0.0021
759.884	-0.0066
760.064	-0.0079
760.243	0.004
760.423	-0.0024
760.603	0.0082
760.782	0.0039
760.962	0.006
761.141	0.0111
761.32	0.0098
761.5	0.0065
761.679	-0.001
761.859	0.0078
762.038	0.0087
762.217	0.0107
762.397	0.0144
762.576	0.0098
762.755	0.0112
762.935	0.0091
763.114	0.0142
763.293	0.006
763.473	0.0073
763.652	0.0121
763.831	0.0017
764.01	0.0078
764.189	0.0087
764.369	0.009
764.548	0.0018
764.727	0.0107
764.906	0.0045
765.085	0.008
765.264	0.0118
765.443	0.0048
765.622	0.0047
765.801	0.0068
765.98	0.0087
766.159	0.0098
766.338	0.0098
766.517	0.0033
766.696	0.0087
766.875	0.015
767.054	0.009
767.233	0.0154
767.412	0.0121
767.591	0.0025
767.769	-0.006
767.948	-0.0001
768.127	-0.0025
768.306	-0.0025
768.485	-0.0033
768.663	0.0024
768.842	-0.0049
769.021	0.0006
769.2	-0.0015
769.378	0.0014
769.557	0.0031
769.736	-0.0035
769.914	0.0008
770.093	0.0004
770.271	0.0026
770.45	0.0101
770.629	0.0072
770.807	0.0061
770.986	0.0036
771.164	0.0021
771.343	0.005
771.521	0.0089
771.7	0.007
771.878	0.0052
772.057	0.0101
772.235	0.0129
772.413	0.0035
772.592	0.0111
772.77	0.0036
772.948	0.003
773.127	0.0128
773.305	0.0076
773.483	0.0068
773.662	0.0137
773.84	0.0091
774.018	0.0247
774.196	-0.0006
774.375	0.0192
774.553	0.0081
774.731	0.0048
774.909	-0.0033
775.087	0.0127
775.265	0.0012
775.444	0.0081
775.622	0.0183
775.8	0.0052
775.978	0.0053
776.156	0.0219
776.334	0.0219
776.512	0.0093
776.69	0.0095
776.868	0.0196
777.046	0.0011
777.224	0.019
777.402	0.003
777.58	0.0112
777.757	-0.0008
777.935	0.0132
778.113	0.0209
778.291	-0.0048
778.469	0.0128
778.647	-0.002
778.824	-0.0096
779.002	0.0046
779.18	-0.0074
779.358	-0.0067
779.535	-0.0008
779.713	-0.0016
779.891	0.0089
780.068	0.0039
780.246	-0.001
780.424	0.0098
780.601	0.009
780.779	0.0104
780.957	0.0008
781.134	0.0069
781.312	0.0021
781.489	0.0037
781.667	-0.0003
781.844	-0.0043
782.022	0.0056
782.199	0.0059
782.377	-0.0021
782.554	0.0006
782.731	0.0126
782.909	-0.0017
783.086	0.0119
783.264	0.0063
783.441	0.0165
783.618	0.023
783.795	0.0211
783.973	0.0208
784.15	0.0178
784.327	0.0229
784.505	0.0195
784.682	0.0065
784.859	0.0076
785.036	0.0029
785.213	0.0177
785.39	-0.0056
785.568	0.0119
785.745	0.0137
785.922	0.0108
786.099	-0.0006
786.276	0.0129
786.453	0.014
786.63	0.0276
786.807	0.0246
786.984	0.0285
787.161	0.0126
787.338	0.0254
787.515	0.0299
787.692	0.0164
787.869	0.0135
788.046	0.0073
788.222	-0.0184
788.399	-0.0004
788.576	0.004
788.753	-0.0073
788.93	-0.0108
789.107	0.0012
789.283	-0.0055
789.46	0.0099
789.637	0.004
789.814	0.0019
789.99	-0.0054
790.167	0.011
790.344	0.0023
790.52	0.0069
790.697	-0.0119
790.873	0.0091
791.05	-0.0003
791.227	0.0165
791.403	0.0128
791.58	0.0268
791.756	0.0144
791.933	0.0205
792.109	0.0065
792.286	0.0076
792.462	0.0224
792.639	0.0197
792.815	0.0144
792.991	0.008
793.168	0.0221
793.344	0.0352
793.521	0.024
793.697	0.0302
793.873	0.0235
794.049	0.0284
794.226	0.0254
794.402	0.0239
794.578	0.0129
794.754	0.0199
794.931	0.0164
795.107	0.0072
795.283	0.0162
795.459	-0.0101
795.635	0.0139
795.811	0.0005
795.988	0.0223
796.164	0.0312
796.34	0.0014
796.516	0.0313
796.692	0.0097
796.868	0.0218
797.044	0.006
797.22	0.0113
797.396	0.0175
797.572	0.0048
797.748	0.0303
797.924	0.0006
798.099	0.0091
798.275	0.0185
798.451	0.018
798.627	0.0113
798.803	0.0179
798.979	0.0218
799.154	0.0219
799.33	0.0047
799.506	0.0004
799.682	0.0054
799.857	-0
800.033	0.0141
800.209	-0.0058
800.385	0.0099
800.56	0.0515
800.736	0.0069
800.911	-0.005
801.087	0.0047
801.263	0.017
801.438	0.0163
801.614	-0.0024
801.789	-0.0077
801.965	0.0066
802.14	0.0077
802.316	0.0091
802.491	-0.0005
802.667	0.0028
802.842	-0.0026
803.017	-0.0069
803.193	-0.0158
803.368	-0.0041
803.543	0.0231
803.719	-0.0099
803.894	0.0048
804.069	-0.0026
804.245	-0.032
804.42	-0.0116
804.595	-0.0183
804.77	-0.0148
804.946	-0.0168
805.121	-0.0243
805.296	0.0054
805.471	0.0051
805.646	0.0069
805.821	0.0058
805.997	0.0089
806.172	0.0083
806.347	0.0102
806.522	-0.0211
806.697	0.0135
806.872	-0.0027
807.047	0.0063
807.222	0.0219
807.397	0.0081
807.572	-0.0078
807.747	0.0167
807.921	0.0115
808.096	-0.0168
808.271	0.0027
808.446	0.0158
808.621	0.0106
808.796	0.0053
808.971	-0.0002
809.145	0.0022
809.32	-0.0013
809.495	0.0115
809.67	0.008
809.844	0.0106
810.019	-0.0052
810.194	0.0098
810.368	0.0238
810.543	0.0091
810.718	0.0111
810.892	-0.0166
811.067	0.0135
811.241	0.0025
811.416	-0.0035
811.59	-0.0071
811.765	0.0144
811.939	0.0411
812.114	0.0452
812.288	0.0094
812.463	-0.008
812.637	0.0166
812.812	0.0164
812.986	0.0061
813.16	0.0025
813.335	0.0189
813.509	0.0045
813.683	-0.0063
813.858	0.0031
814.032	0.0171
814.206	0.0002
814.381	0.035
814.555	0.0208
814.729	0.0249
814.903	0.0083
815.077	0.0021
815.252	0.014
815.426	0.0082
815.6	0.0288
815.774	-0.0108
815.948	-0.0029
816.122	0.0172
816.296	-0.0128
816.47	0.0264
816.644	0.0289
816.818	0.0278
816.992	0.0137
817.166	-0.0063
817.34	0.0172
817.514	0.0137
817.688	0.0043
817.862	0.0299
818.036	0.0089
818.209	0.0316
818.383	0.0047
818.557	0.0228
818.731	0.014
818.905	0.0473
819.078	0.0306
819.252	0.022
819.426	-0.0163
819.6	0.0417
819.773	0.0064
819.947	0.0328
820.121	0.0495
820.294	0.0192
820.468	0.0609
820.642	0.0308
820.815	0.0684
820.989	0.0431
821.162	0.0564
821.336	0.0147
821.509	0.0321
821.683	0.0743
821.856	0.0363
822.03	0.058
822.203	0.0089
822.377	0.0308
822.55	0.0103
822.723	0.0083
822.897	0.0333
823.07	0.0365
823.243	0.0459
823.417	0.0434
823.59	0.0509
823.763	0.0045
823.937	0.0533
824.11	0.0479
824.283	0.0795
824.456	0.0193
824.629	-0.0196
824.803	-0.0183
824.976	0.0122
825.149	-0.0046
825.322	0.0327
825.495	0.0211
825.668	0.0098
825.841	0.024
826.014	0.0479
826.187	0.0044
826.36	0.012
826.533	0.019
826.706	0.01
826.879	-0.0172
827.052	-0.0027
827.225	-0.0065
827.398	0.0185
827.571	0.0082
827.744	0.0086
827.917	-0.0182
828.089	-0.0217
828.262	-0.0091
828.435	-0.0103
828.608	-0.0084
828.781	0.018
828.953	0.0117
829.126	0.0373
829.299	0.0142
829.471	0.0352
829.644	0.0417
829.817	0.01
829.989	0.0197
830.162	0.0492
830.335	-0.0055
830.507	-0.0559
830.68	0.0266
830.852	0.0307
831.025	0.004
831.197	0.0409
831.37	0.0732
831.542	0.018
831.715	0.03
831.887	0.0292
832.059	0.0213
832.232	-0.0082
832.404	0.037
832.577	0.0692
832.749	0.0162
832.921	0.0713
833.093	0.0299
833.266	0.0214
833.438	0.0677
833.61	0.0607
833.782	-0.0224
833.955	-0.0011
834.127	0.027
834.299	0.0178
834.471	0.0275
834.643	-0.0146
834.815	0.0418
834.988	-0.0053
835.16	0.0364
835.332	0.0206
835.504	0.0114
835.676	-0.0024
835.848	0.088
836.02	-0.0162
836.192	0.0135
836.364	-0.0107
836.536	0.0325
836.708	0.0637
836.879	-0.0087
837.051	0.0257
837.223	0.0614
837.395	-0.0164
837.567	-0.0022
837.739	0.0182
837.91	0.0457
838.082	0.0874
838.254	-0.0411
838.426	-0.0025
838.597	0.0479
838.769	0.0585
838.941	0.0286
839.112	0.0068
839.284	0.0944
839.456	0.0272
839.627	0.0419
839.799	-0.0118
839.97	0.014
840.142	0.0425
840.314	0.0515
840.485	0.1018
840.657	0.026
840.828	0.0048
840.999	0.0976
841.171	0.1183
841.342	0.0979
841.514	-0.0305
841.685	0.0726
841.856	0.0149
842.028	0.1327
842.199	0.0402
842.37	0.1028
842.542	0.0686
842.713	0.1494
842.884	0.0408
843.056	-0.0269
843.227	0.0904
843.398	-0.0336
843.569	0.0816
843.74	0.1474
843.911	0.0405
844.083	-0.0075
844.254	-0.0449
844.425	0.0968
844.596	-0.0225
844.767	-0.0122
844.938	-0.1046
845.109	0.0662
845.28	0.0409
845.451	0.0443
845.622	0.0786
845.793	0.0054
845.964	-0.0019
846.135	0.0151
846.305	0.0108
846.476	0.06
846.647	-0.0519
846.818	0.147
846.989	0.0133
847.16	0.0268
847.33	0.101
847.501	0.0667
847.672	0.0236
847.843	0.0324
848.013	0.0199
848.184	0.006
848.355	0.0025
848.525	-0.0351
848.696	-0.0701
848.867	0.0594
849.037	-0.0658
849.208	0.0251
849.378	0.0379
849.549	0.1111
849.719	0.0664
849.89	0.0148
850.06	0.1145
850.231	0.2035
850.401	0.0625
850.572	0.2084
850.742	-0.0124
850.912	0.1338
851.083	0.2267
851.253	-0.1199
851.423	-0.0856
851.594	0.1412
851.764	-0.0211
851.934	0.0294
852.104	-0.0852
852.275	0.0417
852.445	0.1003
852.615	0.052
852.785	-0.0055
852.955	0.0206
853.126	0.0314
853.296	-0.0071
853.466	0.0102
853.636	0.041
853.806	0.0239
853.976	0.0324
854.146	0.0129
854.316	0.0267
854.486	0.0132
854.656	-0.003
854.826	0.0452
854.996	-0.0051
855.166	0.011
855.336	-0.01
855.506	0.0467
855.675	0.0279
855.845	0.0788
856.015	-0.0054
856.185	0.0262
856.355	-0.0186
856.525	0.0493
856.694	0.0528
856.864	0.0392
857.034	-0.0032
857.203	0.0419
857.373	0.0373
857.543	0.0024
857.712	0.0259
857.882	0.05
858.052	-0.0003
858.221	0.0192
858.391	0.0972
858.56	0.0184
858.73	0.0056
858.899	-0.0036
859.069	-0.0304
859.238	-0.0473
859.408	0.0632
859.577	0.0608
859.747	0.0601
859.916	0.0621
860.085	0.041
860.255	0.0525
860.424	0.0398
860.593	-0.1002
860.763	0.0595
860.932	0.0695
861.101	0.1193
861.27	0.007
861.44	-0.0765
861.609	0.2155
861.778	0.0111
861.947	-0.0044
862.116	0.1159
862.285	0.3525
862.455	0.2062
862.624	0.0188
862.793	-0.0147
862.962	-0.0425
863.131	0.1301
863.3	0.0137
863.469	0.0104
863.638	-0.1129
863.807	-0.0919
863.976	-0.0212
864.145	0.0927
864.314	0.0177
864.482	-0.1396
864.651	0.0248
864.82	0.0806
864.989	0.0598
865.158	0.1505
865.327	0.1569
865.495	0.0236
865.664	-0.0043
865.833	0.2164
866.002	0.0045
866.17	0.0774
866.339	-0.0493
866.508	0.0149
866.676	0.1001
866.845	0.088
867.013	0.1905
867.182	0.2235
867.351	0.2035
867.519	0.1313
867.688	0.0019
867.856	0.0021
868.025	0.0089
868.193	-0.0256
868.362	0.007
868.53	0.0598
868.698	0.0512
868.867	-0.0037
869.035	0.098
869.203	0.239
869.372	0.1184
869.54	-0.0141
869.708	0.1202
869.877	-0.0362
870.045	0.1084
870.213	0.0775
870.381	0.034
870.55	0.0582
870.718	0.1819
870.886	0.2265
871.054	0.0603
871.222	0.0634
871.39	-0.102
871.558	-0.0315
871.727	0.0262
871.895	0.0093
872.063	-0.0234
872.231	0.2131
872.399	-0.0613
872.567	0.0595
872.735	0.287
872.902	0.0667
873.07	0.0818
873.238	0.1633
873.406	0.0015
873.574	0.062
873.742	0.227
873.91	0.0334
874.077	-0.1493
874.245	-0.0145
874.413	0.1405
874.581	0.0172
874.749	0.0788
874.916	0.0952
875.084	0.2702
875.252	-0.0352
875.419	0.0642
875.587	0.0905
875.754	-0.0667
875.922	-0.0987
876.09	-0.0009
876.257	-0.0572
876.425	0.0097
876.592	0.0029
876.76	0.0552
876.927	-0.0631
877.095	0.1292
877.262	0.0585
877.43	0.0461
877.597	0.1454
877.764	-0.0198
877.932	-0.0604
878.099	0.1817
878.266	-0.0264
878.434	0.0071
878.601	0.0615
878.768	0.0201
878.935	0.0289
879.103	0.1025
879.27	0.0645
879.437	0.0119
879.604	-0.0045
879.771	0.1592
879.939	-0.0143
880.106	0.0966
880.273	0.1466
880.44	0.0636
880.607	0.094
880.774	0.0803
880.941	0.0679
881.108	-0.0065
881.275	0.0863
881.442	0.1451
881.609	0.0802
881.776	0.0735
881.943	0.1006
882.11	0.1013
882.276	0.0713
882.443	-0.0021
882.61	0.1175
882.777	-0.1605
882.944	0.1232
883.11	0.1713
883.277	-0.1184
883.444	0.0591
883.611	0.1578
883.777	0.1438
883.944	-0.1981
884.111	0.119
884.277	0.1676
884.444	0.0801
884.61	0.0709
884.777	0.0179
884.944	-0.0034
885.11	0.0121
885.277	-0.0906
885.443	-0.052
885.61	-0.0087
885.776	-0.0103
885.942	-0.1246
886.109	0.0591
886.275	0.0981
886.442	0.2064
