Data from stock_Absorbance_06.txt Node
Date: Mon Nov 13 15:24:11 CET 2023
User: student
Spectrometer: USB4F03453
Autoset integration time: false
Trigger mode: 4
Integration Time (sec): 1.800000E-2
Scans to average: 60
Electric dark correction enabled: true
Nonlinearity correction enabled: false
Boxcar width: 15
XAxis mode: Wavelengths
Stop averaging: false
Number of Pixels in Spectrum: 3648
>>>>>Begin Spectral Data<<<<<
179.221	1.3708
179.435	-0
179.649	0.2441
179.863	0.5795
180.076	0.6254
180.29	0.6841
180.504	0.7224
180.718	0.7279
180.931	0.7265
181.145	0.7112
181.359	0.7064
181.572	0.7037
181.786	0.7134
182	0.7209
182.213	0.7073
182.427	0.7143
182.641	0.7255
182.854	0.7292
183.068	0.7364
183.282	0.7198
183.495	0.7201
183.709	0.7356
183.922	0.7535
184.136	0.7514
184.35	0.7433
184.563	0.7512
184.777	0.7509
184.99	0.7399
185.204	0.7562
185.417	0.7572
185.631	0.7618
185.845	0.7658
186.058	0.7644
186.272	0.7757
186.485	0.7838
186.699	0.7892
186.912	0.7898
187.126	0.7905
187.339	0.7907
187.553	0.8034
187.766	0.8148
187.98	0.8247
188.193	0.834
188.407	0.8341
188.62	0.8457
188.834	0.8628
189.047	0.8742
189.26	0.8814
189.474	0.8985
189.687	0.9067
189.901	0.9201
190.114	0.9287
190.327	0.9342
190.541	0.9448
190.754	0.9571
190.968	0.9708
191.181	0.9849
191.394	0.9937
191.608	1.0122
191.821	1.0191
192.034	1.0354
192.248	1.0547
192.461	1.0691
192.674	1.0915
192.888	1.1008
193.101	1.1113
193.314	1.1259
193.528	1.1391
193.741	1.1543
193.954	1.1695
194.168	1.175
194.381	1.1802
194.594	1.2012
194.807	1.207
195.021	1.2264
195.234	1.2363
195.447	1.2568
195.66	1.2624
195.874	1.2726
196.087	1.2716
196.3	1.2821
196.513	1.2934
196.726	1.3053
196.94	1.315
197.153	1.3219
197.366	1.334
197.579	1.3515
197.792	1.3607
198.005	1.3859
198.219	1.3907
198.432	1.4072
198.645	1.4118
198.858	1.4187
199.071	1.4321
199.284	1.4361
199.497	1.4484
199.71	1.4646
199.924	1.4715
200.137	1.4892
200.35	1.5008
200.563	1.5206
200.776	1.5279
200.989	1.5442
201.202	1.5428
201.415	1.5648
201.628	1.5707
201.841	1.5698
202.054	1.5642
202.267	1.5798
202.48	1.5965
202.693	1.6169
202.906	1.6286
203.119	1.6363
203.332	1.6451
203.545	1.6572
203.758	1.6724
203.971	1.6842
204.184	1.6901
204.397	1.6989
204.61	1.6981
204.823	1.7077
205.036	1.7149
205.249	1.7316
205.462	1.729
205.674	1.735
205.887	1.7385
206.1	1.7472
206.313	1.7494
206.526	1.758
206.739	1.7664
206.952	1.7759
207.165	1.7852
207.377	1.7948
207.59	1.7995
207.803	1.8054
208.016	1.8062
208.229	1.8164
208.442	1.8284
208.654	1.8352
208.867	1.8409
209.08	1.8444
209.293	1.8498
209.506	1.864
209.718	1.8759
209.931	1.8843
210.144	1.8878
210.357	1.8898
210.569	1.89
210.782	1.8882
210.995	1.8893
211.207	1.8907
211.42	1.8975
211.633	1.9004
211.846	1.9003
212.058	1.9062
212.271	1.9055
212.484	1.9058
212.696	1.9096
212.909	1.9078
213.122	1.9079
213.334	1.9071
213.547	1.9014
213.76	1.8961
213.972	1.8914
214.185	1.8897
214.397	1.888
214.61	1.8867
214.823	1.8843
215.035	1.8787
215.248	1.8747
215.46	1.8684
215.673	1.86
215.885	1.8504
216.098	1.8373
216.311	1.8246
216.523	1.8148
216.736	1.8038
216.948	1.795
217.161	1.7866
217.373	1.7806
217.586	1.7714
217.798	1.7612
218.011	1.7497
218.223	1.7376
218.436	1.7272
218.648	1.7161
218.861	1.7048
219.073	1.6964
219.285	1.6853
219.498	1.6756
219.71	1.6672
219.923	1.6573
220.135	1.648
220.348	1.6379
220.56	1.6295
220.772	1.6199
220.985	1.61
221.197	1.5994
221.41	1.589
221.622	1.5797
221.834	1.5706
222.047	1.5621
222.259	1.5541
222.471	1.5464
222.684	1.5385
222.896	1.5313
223.108	1.5241
223.321	1.517
223.533	1.5094
223.745	1.5028
223.957	1.4961
224.17	1.4898
224.382	1.4841
224.594	1.478
224.806	1.4729
225.019	1.4675
225.231	1.4634
225.443	1.4593
225.655	1.4551
225.868	1.4515
226.08	1.448
226.292	1.4439
226.504	1.4407
226.716	1.4376
226.929	1.435
227.141	1.4324
227.353	1.4302
227.565	1.4292
227.777	1.4281
227.989	1.4273
228.202	1.4267
228.414	1.4261
228.626	1.426
228.838	1.426
229.05	1.4259
229.262	1.4269
229.474	1.428
229.686	1.4289
229.898	1.4306
230.11	1.4329
230.322	1.4353
230.534	1.4381
230.747	1.4414
230.959	1.445
231.171	1.4495
231.383	1.4533
231.595	1.4576
231.807	1.4623
232.019	1.4669
232.231	1.4718
232.443	1.4771
232.655	1.4826
232.867	1.4885
233.079	1.4945
233.29	1.5015
233.502	1.5084
233.714	1.516
233.926	1.5237
234.138	1.5314
234.35	1.5393
234.562	1.5472
234.774	1.5563
234.986	1.5651
235.198	1.574
235.41	1.5833
235.622	1.5929
235.833	1.6029
236.045	1.6137
236.257	1.6247
236.469	1.6352
236.681	1.6454
236.893	1.6566
237.104	1.668
237.316	1.68
237.528	1.6917
237.74	1.7029
237.952	1.7154
238.163	1.7273
238.375	1.7398
238.587	1.7518
238.799	1.7643
239.01	1.7772
239.222	1.7902
239.434	1.8037
239.646	1.8168
239.857	1.8296
240.069	1.8431
240.281	1.8559
240.492	1.8693
240.704	1.8824
240.916	1.8953
241.128	1.9089
241.339	1.9213
241.551	1.9347
241.762	1.9479
241.974	1.9609
242.186	1.9742
242.397	1.9865
242.609	1.9985
242.821	2.0107
243.032	2.0237
243.244	2.0365
243.455	2.0486
243.667	2.0602
243.879	2.0725
244.09	2.0836
244.302	2.0961
244.513	2.1068
244.725	2.1174
244.936	2.1284
245.148	2.1401
245.359	2.1507
245.571	2.1607
245.782	2.1701
245.994	2.1802
246.205	2.1891
246.417	2.1975
246.628	2.2058
246.84	2.2132
247.051	2.2212
247.263	2.2281
247.474	2.2353
247.686	2.2431
247.897	2.2485
248.108	2.2552
248.32	2.2605
248.531	2.2658
248.743	2.2703
248.954	2.2748
249.165	2.2781
249.377	2.2802
249.588	2.2822
249.8	2.284
250.011	2.2842
250.222	2.2833
250.434	2.2816
250.645	2.2806
250.856	2.2777
251.067	2.2732
251.279	2.2693
251.49	2.2637
251.701	2.2568
251.913	2.2506
252.124	2.2423
252.335	2.2341
252.546	2.223
252.758	2.2116
252.969	2.2003
253.18	2.1879
253.391	2.1758
253.603	2.1627
253.814	2.15
254.025	2.1367
254.236	2.1224
254.447	2.1084
254.659	2.0945
254.87	2.0794
255.081	2.0646
255.292	2.0498
255.503	2.0343
255.714	2.0187
255.925	2.0031
256.137	1.9878
256.348	1.9718
256.559	1.9558
256.77	1.9406
256.981	1.9244
257.192	1.9092
257.403	1.8947
257.614	1.8791
257.825	1.8641
258.036	1.8494
258.247	1.8346
258.458	1.8202
258.669	1.806
258.88	1.7918
259.091	1.7781
259.302	1.7656
259.513	1.7529
259.724	1.7406
259.935	1.7288
260.146	1.7173
260.357	1.7053
260.568	1.6941
260.779	1.6831
260.99	1.6727
261.201	1.6621
261.412	1.6526
261.623	1.6435
261.834	1.635
262.045	1.6269
262.256	1.6188
262.467	1.6116
262.677	1.6044
262.888	1.5974
263.099	1.5911
263.31	1.5851
263.521	1.5795
263.732	1.5745
263.943	1.5698
264.153	1.566
264.364	1.5625
264.575	1.5594
264.786	1.5567
264.997	1.5543
265.207	1.5523
265.418	1.5511
265.629	1.5505
265.84	1.5499
266.05	1.5498
266.261	1.5502
266.472	1.551
266.683	1.5521
266.893	1.5539
267.104	1.556
267.315	1.5586
267.525	1.5618
267.736	1.5655
267.947	1.5694
268.157	1.5739
268.368	1.5783
268.579	1.5832
268.789	1.5888
269	1.5945
269.211	1.6008
269.421	1.6077
269.632	1.6147
269.842	1.6219
270.053	1.6297
270.264	1.6375
270.474	1.6458
270.685	1.6544
270.895	1.663
271.106	1.6724
271.316	1.6822
271.527	1.6921
271.737	1.7022
271.948	1.7127
272.158	1.7231
272.369	1.7339
272.579	1.7451
272.79	1.7562
273	1.768
273.211	1.78
273.421	1.7923
273.632	1.8044
273.842	1.8172
274.053	1.83
274.263	1.8434
274.474	1.8565
274.684	1.8693
274.894	1.8832
275.105	1.8968
275.315	1.9107
275.526	1.9248
275.736	1.939
275.946	1.9532
276.157	1.9679
276.367	1.9826
276.577	1.9978
276.788	2.0134
276.998	2.0283
277.208	2.0436
277.419	2.0597
277.629	2.0749
277.839	2.0907
278.049	2.1064
278.26	2.1225
278.47	2.1383
278.68	2.1544
278.89	2.1717
279.101	2.1872
279.311	2.2044
279.521	2.2203
279.731	2.2379
279.942	2.2546
280.152	2.2726
280.362	2.2892
280.572	2.3057
280.782	2.3218
280.992	2.338
281.203	2.3562
281.413	2.373
281.623	2.389
281.833	2.4052
282.043	2.4204
282.253	2.4358
282.463	2.4495
282.674	2.4646
282.884	2.4771
283.094	2.4908
283.304	2.5043
283.514	2.5182
283.724	2.532
283.934	2.5405
284.144	2.5539
284.354	2.5635
284.564	2.5744
284.774	2.5851
284.984	2.593
285.194	2.6013
285.404	2.6066
285.614	2.6137
285.824	2.6201
286.034	2.63
286.244	2.633
286.454	2.6343
286.664	2.6348
286.874	2.6362
287.084	2.6388
287.294	2.6397
287.503	2.6422
287.713	2.641
287.923	2.6411
288.133	2.6414
288.343	2.6408
288.553	2.6416
288.763	2.639
288.973	2.638
289.182	2.6338
289.392	2.6333
289.602	2.63
289.812	2.6258
290.022	2.6209
290.231	2.6144
290.441	2.6119
290.651	2.6036
290.861	2.6014
291.071	2.5978
291.28	2.5935
291.49	2.59
291.7	2.5851
291.91	2.581
292.119	2.5765
292.329	2.5683
292.539	2.5604
292.748	2.5556
292.958	2.5523
293.168	2.5477
293.377	2.5412
293.587	2.5332
293.797	2.525
294.006	2.5164
294.216	2.5116
294.426	2.5055
294.635	2.5002
294.845	2.4946
295.054	2.4871
295.264	2.4817
295.474	2.4755
295.683	2.4706
295.893	2.4646
296.102	2.4596
296.312	2.4565
296.521	2.4521
296.731	2.4481
296.94	2.4441
297.15	2.4393
297.359	2.4337
297.569	2.428
297.778	2.4206
297.988	2.4144
298.197	2.4114
298.407	2.4063
298.616	2.4011
298.826	2.3964
299.035	2.3923
299.245	2.3875
299.454	2.3818
299.663	2.3768
299.873	2.3716
300.082	2.3668
300.292	2.3647
300.501	2.3612
300.71	2.3562
300.92	2.3511
301.129	2.3464
301.338	2.3426
301.548	2.3381
301.757	2.3341
301.966	2.3297
302.176	2.3245
302.385	2.3198
302.594	2.3145
302.804	2.3073
303.013	2.3024
303.222	2.2969
303.431	2.2907
303.641	2.286
303.85	2.2795
304.059	2.2741
304.268	2.2698
304.477	2.2644
304.687	2.2575
304.896	2.2508
305.105	2.2452
305.314	2.2387
305.523	2.2311
305.733	2.2245
305.942	2.2172
306.151	2.2106
306.36	2.2035
306.569	2.1979
306.778	2.1893
306.987	2.1817
307.196	2.1743
307.406	2.167
307.615	2.1583
307.824	2.1492
308.033	2.1409
308.242	2.132
308.451	2.1235
308.66	2.1148
308.869	2.1057
309.078	2.0958
309.287	2.0864
309.496	2.0763
309.705	2.0665
309.914	2.0561
310.123	2.0459
310.332	2.0358
310.541	2.0249
310.75	2.0133
310.959	2.0022
311.168	1.9909
311.377	1.9797
311.585	1.9678
311.794	1.956
312.003	1.9446
312.212	1.9325
312.421	1.9206
312.63	1.9077
312.839	1.8959
313.048	1.8828
313.256	1.87
313.465	1.8571
313.674	1.8447
313.883	1.8313
314.092	1.8187
314.301	1.8055
314.509	1.792
314.718	1.7782
314.927	1.7645
315.136	1.7509
315.344	1.7372
315.553	1.7241
315.762	1.7109
315.971	1.6973
316.179	1.6837
316.388	1.67
316.597	1.656
316.805	1.6419
317.014	1.6283
317.223	1.6143
317.431	1.6005
317.64	1.5868
317.849	1.5731
318.057	1.5599
318.266	1.5464
318.475	1.533
318.683	1.5195
318.892	1.5067
319.1	1.4939
319.309	1.4812
319.518	1.4688
319.726	1.4567
319.935	1.4446
320.143	1.4326
320.352	1.4209
320.56	1.4091
320.769	1.3981
320.977	1.3869
321.186	1.3758
321.394	1.3645
321.603	1.3536
321.811	1.3432
322.02	1.3329
322.228	1.3228
322.437	1.313
322.645	1.3034
322.854	1.294
323.062	1.285
323.27	1.276
323.479	1.2674
323.687	1.2586
323.896	1.2503
324.104	1.2422
324.312	1.2344
324.521	1.2267
324.729	1.2192
324.937	1.212
325.146	1.2052
325.354	1.1985
325.562	1.1921
325.771	1.1858
325.979	1.1797
326.187	1.1741
326.396	1.1685
326.604	1.163
326.812	1.1577
327.02	1.1525
327.229	1.1477
327.437	1.143
327.645	1.1385
327.853	1.134
328.061	1.1296
328.27	1.1253
328.478	1.1212
328.686	1.1174
328.894	1.1137
329.102	1.1102
329.311	1.1069
329.519	1.1038
329.727	1.101
329.935	1.0983
330.143	1.0957
330.351	1.0934
330.559	1.091
330.767	1.0886
330.975	1.0865
331.183	1.0844
331.392	1.0826
331.6	1.0805
331.808	1.0787
332.016	1.0769
332.224	1.0754
332.432	1.0736
332.64	1.0721
332.848	1.0705
333.056	1.069
333.264	1.0676
333.472	1.0662
333.68	1.0649
333.888	1.0635
334.095	1.0621
334.303	1.0609
334.511	1.0596
334.719	1.0584
334.927	1.057
335.135	1.0557
335.343	1.0545
335.551	1.0533
335.759	1.0522
335.967	1.051
336.174	1.0497
336.382	1.0483
336.59	1.0471
336.798	1.0456
337.006	1.0441
337.213	1.0429
337.421	1.0415
337.629	1.0399
337.837	1.0383
338.045	1.0369
338.252	1.0353
338.46	1.0338
338.668	1.032
338.876	1.0304
339.083	1.0287
339.291	1.0269
339.499	1.025
339.706	1.0231
339.914	1.021
340.122	1.0189
340.329	1.017
340.537	1.0148
340.745	1.0126
340.952	1.0104
341.16	1.0079
341.368	1.0056
341.575	1.0031
341.783	1.0007
341.99	0.9982
342.198	0.9955
342.406	0.9927
342.613	0.99
342.821	0.9872
343.028	0.9844
343.236	0.9814
343.443	0.9784
343.651	0.9752
343.858	0.9721
344.066	0.9689
344.273	0.9658
344.481	0.9626
344.688	0.9592
344.896	0.9558
345.103	0.9523
345.311	0.9488
345.518	0.9451
345.725	0.9415
345.933	0.9378
346.14	0.934
346.348	0.9302
346.555	0.9263
346.762	0.9223
346.97	0.9182
347.177	0.9141
347.384	0.91
347.592	0.9057
347.799	0.9015
348.006	0.8972
348.214	0.8929
348.421	0.8884
348.628	0.884
348.836	0.8795
349.043	0.8749
349.25	0.8702
349.457	0.8654
349.665	0.8606
349.872	0.8558
350.079	0.8511
350.286	0.8462
350.493	0.8411
350.701	0.8361
350.908	0.8309
351.115	0.8258
351.322	0.8207
351.529	0.8155
351.736	0.8103
351.944	0.805
352.151	0.7997
352.358	0.7943
352.565	0.7888
352.772	0.7836
352.979	0.7782
353.186	0.7727
353.393	0.7671
353.6	0.7616
353.807	0.756
354.014	0.7504
354.221	0.7449
354.428	0.7391
354.635	0.7335
354.842	0.7277
355.049	0.7219
355.256	0.7161
355.463	0.7104
355.67	0.7045
355.877	0.6986
356.084	0.6929
356.291	0.687
356.498	0.6811
356.705	0.6753
356.912	0.6695
357.119	0.6636
357.326	0.6576
357.533	0.6518
357.74	0.646
357.946	0.64
358.153	0.634
358.36	0.6283
358.567	0.6226
358.774	0.6166
358.981	0.6107
359.187	0.6048
359.394	0.5991
359.601	0.5932
359.808	0.5873
360.014	0.5816
360.221	0.5756
360.428	0.5698
360.635	0.5641
360.841	0.5585
361.048	0.5529
361.255	0.5473
361.462	0.5417
361.668	0.536
361.875	0.5303
362.082	0.5247
362.288	0.5191
362.495	0.5136
362.702	0.5081
362.908	0.5028
363.115	0.4973
363.321	0.492
363.528	0.4867
363.735	0.4813
363.941	0.476
364.148	0.4708
364.354	0.4656
364.561	0.4604
364.767	0.4554
364.974	0.4505
365.18	0.4453
365.387	0.4402
365.593	0.4354
365.8	0.4305
366.006	0.4257
366.213	0.4209
366.419	0.4163
366.626	0.4118
366.832	0.4073
367.039	0.4027
367.245	0.3983
367.452	0.3939
367.658	0.3895
367.864	0.3852
368.071	0.3808
368.277	0.3765
368.483	0.3724
368.69	0.3683
368.896	0.3642
369.102	0.3602
369.309	0.3563
369.515	0.3526
369.721	0.3488
369.928	0.3451
370.134	0.3412
370.34	0.3374
370.547	0.3338
370.753	0.3301
370.959	0.3266
371.165	0.3231
371.372	0.3195
371.578	0.316
371.784	0.3124
371.99	0.309
372.196	0.3058
372.403	0.3024
372.609	0.2991
372.815	0.2961
373.021	0.2931
373.227	0.29
373.433	0.2871
373.639	0.2842
373.845	0.2814
374.052	0.2785
374.258	0.2758
374.464	0.2732
374.67	0.2706
374.876	0.2679
375.082	0.2653
375.288	0.2628
375.494	0.2602
375.7	0.2577
375.906	0.2555
376.112	0.2533
376.318	0.251
376.524	0.2488
376.73	0.2466
376.936	0.2445
377.142	0.2424
377.348	0.2403
377.554	0.2382
377.76	0.2362
377.966	0.2342
378.172	0.2322
378.377	0.2303
378.583	0.2285
378.789	0.2266
378.995	0.2247
379.201	0.2229
379.407	0.2211
379.613	0.2193
379.818	0.2176
380.024	0.2159
380.23	0.2142
380.436	0.2126
380.642	0.211
380.847	0.2095
381.053	0.2079
381.259	0.2063
381.465	0.2048
381.67	0.2034
381.876	0.2018
382.082	0.2004
382.287	0.199
382.493	0.1976
382.699	0.1963
382.905	0.195
383.11	0.1937
383.316	0.1924
383.521	0.1912
383.727	0.1899
383.933	0.1886
384.138	0.1874
384.344	0.1862
384.55	0.1851
384.755	0.1839
384.961	0.1829
385.166	0.1818
385.372	0.1807
385.577	0.1796
385.783	0.1787
385.988	0.1777
386.194	0.1768
386.399	0.1758
386.605	0.175
386.81	0.1741
387.016	0.1732
387.221	0.1724
387.427	0.1716
387.632	0.1708
387.838	0.17
388.043	0.1692
388.248	0.1684
388.454	0.1677
388.659	0.1669
388.865	0.1662
389.07	0.1654
389.275	0.1647
389.481	0.164
389.686	0.1634
389.891	0.1628
390.097	0.1622
390.302	0.1616
390.507	0.161
390.713	0.1605
390.918	0.16
391.123	0.1594
391.328	0.159
391.534	0.1584
391.739	0.158
391.944	0.1575
392.149	0.157
392.355	0.1566
392.56	0.1562
392.765	0.1558
392.97	0.1554
393.175	0.155
393.38	0.1546
393.586	0.1542
393.791	0.1538
393.996	0.1535
394.201	0.1531
394.406	0.1527
394.611	0.1524
394.816	0.1521
395.021	0.1517
395.226	0.1514
395.431	0.1511
395.637	0.1508
395.842	0.1506
396.047	0.1503
396.252	0.15
396.457	0.1498
396.662	0.1496
396.867	0.1493
397.072	0.1491
397.277	0.1488
397.481	0.1486
397.686	0.1484
397.891	0.1482
398.096	0.148
398.301	0.1477
398.506	0.1476
398.711	0.1474
398.916	0.1472
399.121	0.147
399.326	0.1469
399.53	0.1468
399.735	0.1467
399.94	0.1465
400.145	0.1464
400.35	0.1463
400.555	0.1462
400.759	0.1461
400.964	0.146
401.169	0.1459
401.374	0.1458
401.578	0.1457
401.783	0.1457
401.988	0.1456
402.193	0.1455
402.397	0.1454
402.602	0.1454
402.807	0.1453
403.011	0.1453
403.216	0.1453
403.421	0.1453
403.625	0.1454
403.83	0.1454
404.035	0.1454
404.239	0.1454
404.444	0.1453
404.648	0.1453
404.853	0.1454
405.057	0.1454
405.262	0.1454
405.467	0.1454
405.671	0.1455
405.876	0.1455
406.08	0.1455
406.285	0.1456
406.489	0.1456
406.694	0.1457
406.898	0.1458
407.103	0.1458
407.307	0.1459
407.511	0.146
407.716	0.146
407.92	0.1461
408.125	0.1462
408.329	0.1463
408.534	0.1464
408.738	0.1465
408.942	0.1466
409.147	0.1467
409.351	0.1468
409.555	0.1469
409.76	0.1469
409.964	0.147
410.168	0.1471
410.373	0.1472
410.577	0.1473
410.781	0.1474
410.985	0.1475
411.19	0.1476
411.394	0.1478
411.598	0.1479
411.802	0.148
412.007	0.1481
412.211	0.1481
412.415	0.1483
412.619	0.1484
412.823	0.1485
413.028	0.1486
413.232	0.1487
413.436	0.1489
413.64	0.149
413.844	0.1492
414.048	0.1493
414.252	0.1494
414.456	0.1496
414.66	0.1497
414.865	0.1498
415.069	0.1499
415.273	0.1501
415.477	0.1502
415.681	0.1504
415.885	0.1505
416.089	0.1507
416.293	0.1508
416.497	0.151
416.701	0.1511
416.905	0.1513
417.109	0.1515
417.313	0.1517
417.516	0.1518
417.72	0.152
417.924	0.1522
418.128	0.1523
418.332	0.1525
418.536	0.1527
418.74	0.1529
418.944	0.153
419.148	0.1532
419.351	0.1534
419.555	0.1535
419.759	0.1537
419.963	0.1538
420.167	0.154
420.37	0.1542
420.574	0.1544
420.778	0.1545
420.982	0.1546
421.185	0.1548
421.389	0.1549
421.593	0.1551
421.797	0.1553
422	0.1554
422.204	0.1556
422.408	0.1558
422.611	0.1559
422.815	0.1562
423.019	0.1563
423.222	0.1565
423.426	0.1566
423.629	0.1568
423.833	0.1569
424.037	0.157
424.24	0.1572
424.444	0.1573
424.647	0.1576
424.851	0.1577
425.054	0.1579
425.258	0.1581
425.461	0.1583
425.665	0.1584
425.868	0.1586
426.072	0.1588
426.275	0.159
426.479	0.1592
426.682	0.1594
426.886	0.1596
427.089	0.1597
427.293	0.16
427.496	0.1602
427.699	0.1604
427.903	0.1605
428.106	0.1607
428.309	0.1608
428.513	0.1609
428.716	0.1611
428.919	0.1612
429.123	0.1613
429.326	0.1615
429.529	0.1616
429.733	0.1618
429.936	0.1619
430.139	0.1621
430.342	0.1623
430.546	0.1624
430.749	0.1626
430.952	0.1627
431.155	0.1629
431.359	0.163
431.562	0.1632
431.765	0.1633
431.968	0.1635
432.171	0.1636
432.374	0.1637
432.578	0.1639
432.781	0.164
432.984	0.1641
433.187	0.1643
433.39	0.1645
433.593	0.1646
433.796	0.1647
433.999	0.1648
434.202	0.1649
434.405	0.1651
434.608	0.1652
434.811	0.1653
435.014	0.1655
435.217	0.1656
435.42	0.1657
435.623	0.1658
435.826	0.1659
436.029	0.166
436.232	0.1661
436.435	0.1662
436.638	0.1663
436.841	0.1664
437.044	0.1665
437.247	0.1666
437.45	0.1666
437.652	0.1667
437.855	0.1668
438.058	0.1669
438.261	0.167
438.464	0.167
438.667	0.1671
438.869	0.1672
439.072	0.1673
439.275	0.1673
439.478	0.1674
439.68	0.1674
439.883	0.1675
440.086	0.1675
440.289	0.1676
440.491	0.1675
440.694	0.1676
440.897	0.1677
441.099	0.1677
441.302	0.1677
441.505	0.1677
441.707	0.1678
441.91	0.1678
442.113	0.1678
442.315	0.1678
442.518	0.1678
442.72	0.1678
442.923	0.1678
443.126	0.1678
443.328	0.1679
443.531	0.1679
443.733	0.168
443.936	0.168
444.138	0.168
444.341	0.168
444.543	0.168
444.746	0.168
444.948	0.168
445.151	0.1681
445.353	0.1681
445.555	0.1681
445.758	0.1681
445.96	0.1681
446.163	0.1681
446.365	0.1681
446.567	0.1681
446.77	0.1682
446.972	0.1681
447.175	0.1682
447.377	0.1682
447.579	0.1682
447.781	0.1682
447.984	0.1682
448.186	0.1682
448.388	0.1682
448.591	0.1683
448.793	0.1683
448.995	0.1683
449.197	0.1683
449.4	0.1683
449.602	0.1683
449.804	0.1682
450.006	0.1682
450.208	0.1681
450.411	0.1681
450.613	0.1681
450.815	0.1681
451.017	0.1681
451.219	0.1681
451.421	0.1681
451.623	0.168
451.825	0.168
452.027	0.168
452.229	0.168
452.432	0.1679
452.634	0.1679
452.836	0.1678
453.038	0.1678
453.24	0.1678
453.442	0.1678
453.644	0.1677
453.846	0.1676
454.048	0.1676
454.25	0.1675
454.451	0.1675
454.653	0.1674
454.855	0.1673
455.057	0.1673
455.259	0.1673
455.461	0.1672
455.663	0.1671
455.865	0.1671
456.067	0.1671
456.268	0.167
456.47	0.167
456.672	0.167
456.874	0.1669
457.076	0.1668
457.277	0.1667
457.479	0.1667
457.681	0.1666
457.883	0.1665
458.084	0.1664
458.286	0.1663
458.488	0.1662
458.69	0.1661
458.891	0.166
459.093	0.166
459.295	0.166
459.496	0.1659
459.698	0.1658
459.9	0.1658
460.101	0.1657
460.303	0.1656
460.504	0.1656
460.706	0.1655
460.908	0.1655
461.109	0.1654
461.311	0.1653
461.512	0.1651
461.714	0.165
461.915	0.165
462.117	0.1648
462.318	0.1648
462.52	0.1647
462.721	0.1646
462.923	0.1645
463.124	0.1645
463.326	0.1644
463.527	0.1643
463.729	0.1642
463.93	0.1642
464.131	0.1642
464.333	0.1641
464.534	0.1641
464.735	0.164
464.937	0.164
465.138	0.1639
465.34	0.1638
465.541	0.1636
465.742	0.1635
465.943	0.1634
466.145	0.1634
466.346	0.1633
466.547	0.1631
466.748	0.163
466.95	0.1629
467.151	0.1628
467.352	0.1628
467.553	0.1626
467.755	0.1626
467.956	0.1625
468.157	0.1624
468.358	0.1623
468.559	0.1622
468.76	0.1622
468.961	0.1621
469.163	0.162
469.364	0.1618
469.565	0.1618
469.766	0.1616
469.967	0.1615
470.168	0.1614
470.369	0.1613
470.57	0.1612
470.771	0.1611
470.972	0.161
471.173	0.161
471.374	0.1609
471.575	0.1608
471.776	0.1607
471.977	0.1606
472.178	0.1605
472.379	0.1604
472.58	0.1604
472.781	0.1604
472.982	0.1603
473.182	0.1602
473.383	0.1601
473.584	0.16
473.785	0.1599
473.986	0.1598
474.187	0.1598
474.387	0.1597
474.588	0.1596
474.789	0.1595
474.99	0.1594
475.191	0.1592
475.391	0.1592
475.592	0.1592
475.793	0.1591
475.994	0.1591
476.194	0.159
476.395	0.159
476.596	0.159
476.796	0.159
476.997	0.1589
477.198	0.1589
477.398	0.1589
477.599	0.1589
477.799	0.1589
478	0.1589
478.201	0.1589
478.401	0.1588
478.602	0.1588
478.802	0.1589
479.003	0.159
479.203	0.159
479.404	0.159
479.604	0.1591
479.805	0.1591
480.005	0.1592
480.206	0.1592
480.406	0.1593
480.607	0.1594
480.807	0.1595
481.008	0.1595
481.208	0.1597
481.409	0.1598
481.609	0.1598
481.809	0.1599
482.01	0.1601
482.21	0.1599
482.41	0.1597
482.611	0.1593
482.811	0.1589
483.011	0.1585
483.212	0.1585
483.412	0.1586
483.612	0.1586
483.812	0.1587
484.013	0.1588
484.213	0.1589
484.413	0.159
484.613	0.1592
484.814	0.1593
485.014	0.1594
485.214	0.1595
485.414	0.1596
485.614	0.1598
485.814	0.16
486.015	0.1601
486.215	0.1603
486.415	0.1605
486.615	0.1606
486.815	0.1608
487.015	0.161
487.215	0.1612
487.415	0.1614
487.615	0.1616
487.815	0.1618
488.015	0.162
488.215	0.1623
488.415	0.1627
488.615	0.1633
488.815	0.1641
489.015	0.1651
489.215	0.1661
489.415	0.1668
489.615	0.1674
489.815	0.168
490.015	0.1685
490.215	0.169
490.415	0.1695
490.614	0.17
490.814	0.1704
491.014	0.1709
491.214	0.1713
491.414	0.1717
491.613	0.1722
491.813	0.1726
492.013	0.173
492.213	0.1735
492.413	0.174
492.612	0.1744
492.812	0.1749
493.012	0.1754
493.211	0.1758
493.411	0.1763
493.611	0.1769
493.811	0.1774
494.01	0.1779
494.21	0.1784
494.409	0.1789
494.609	0.1795
494.809	0.18
495.008	0.1806
495.208	0.1812
495.407	0.1818
495.607	0.1824
495.807	0.183
496.006	0.1836
496.206	0.1843
496.405	0.185
496.605	0.1856
496.804	0.1863
497.004	0.187
497.203	0.1876
497.403	0.1883
497.602	0.189
497.801	0.1898
498.001	0.1905
498.2	0.1912
498.4	0.1919
498.599	0.1927
498.798	0.1934
498.998	0.1942
499.197	0.1949
499.396	0.1957
499.596	0.1964
499.795	0.1972
499.994	0.198
500.194	0.1989
500.393	0.1997
500.592	0.2005
500.791	0.2014
500.991	0.2022
501.19	0.203
501.389	0.2039
501.588	0.2047
501.788	0.2056
501.987	0.2065
502.186	0.2074
502.385	0.2083
502.584	0.2092
502.783	0.2101
502.982	0.211
503.182	0.2119
503.381	0.2129
503.58	0.2139
503.779	0.2148
503.978	0.2157
504.177	0.2167
504.376	0.2176
504.575	0.2186
504.774	0.2196
504.973	0.2206
505.172	0.2216
505.371	0.2227
505.57	0.2237
505.769	0.2248
505.968	0.2258
506.167	0.2269
506.366	0.228
506.565	0.229
506.763	0.2301
506.962	0.2312
507.161	0.2323
507.36	0.2334
507.559	0.2345
507.758	0.2356
507.957	0.2367
508.155	0.2378
508.354	0.2389
508.553	0.2401
508.752	0.2413
508.95	0.2425
509.149	0.2437
509.348	0.245
509.547	0.2463
509.745	0.2475
509.944	0.2488
510.143	0.25
510.341	0.2513
510.54	0.2526
510.739	0.2539
510.937	0.2552
511.136	0.2565
511.335	0.258
511.533	0.2593
511.732	0.2606
511.93	0.262
512.129	0.2633
512.327	0.2647
512.526	0.2661
512.724	0.2675
512.923	0.2689
513.121	0.2703
513.32	0.2717
513.518	0.2731
513.717	0.2746
513.915	0.276
514.114	0.2775
514.312	0.279
514.511	0.2805
514.709	0.2819
514.907	0.2834
515.106	0.2849
515.304	0.2864
515.502	0.2879
515.701	0.2894
515.899	0.291
516.097	0.2925
516.296	0.2941
516.494	0.2956
516.692	0.2972
516.891	0.2987
517.089	0.3002
517.287	0.3017
517.485	0.3033
517.683	0.3049
517.882	0.3065
518.08	0.3081
518.278	0.3097
518.476	0.3113
518.674	0.3129
518.873	0.3146
519.071	0.3162
519.269	0.318
519.467	0.3197
519.665	0.3214
519.863	0.3231
520.061	0.3248
520.259	0.3267
520.457	0.3284
520.655	0.3302
520.853	0.332
521.051	0.3338
521.249	0.3356
521.447	0.3374
521.645	0.3393
521.843	0.3412
522.041	0.343
522.239	0.3449
522.437	0.3467
522.635	0.3487
522.833	0.3506
523.031	0.3526
523.229	0.3546
523.426	0.3565
523.624	0.3584
523.822	0.3604
524.02	0.3623
524.218	0.3644
524.415	0.3665
524.613	0.3685
524.811	0.3705
525.009	0.3725
525.207	0.3746
525.404	0.3766
525.602	0.3788
525.8	0.3809
525.997	0.3831
526.195	0.3853
526.393	0.3874
526.59	0.3896
526.788	0.3918
526.986	0.394
527.183	0.3962
527.381	0.3985
527.578	0.4007
527.776	0.4029
527.974	0.405
528.171	0.4072
528.369	0.4094
528.566	0.4116
528.764	0.4138
528.961	0.4161
529.159	0.4184
529.356	0.4207
529.554	0.4231
529.751	0.4255
529.949	0.428
530.146	0.4304
530.343	0.4329
530.541	0.4353
530.738	0.4378
530.936	0.4403
531.133	0.4429
531.33	0.4454
531.528	0.4479
531.725	0.4504
531.922	0.453
532.12	0.4556
532.317	0.4581
532.514	0.4607
532.711	0.4632
532.909	0.4658
533.106	0.4683
533.303	0.4709
533.5	0.4734
533.698	0.476
533.895	0.4785
534.092	0.4811
534.289	0.4837
534.486	0.4865
534.683	0.4892
534.881	0.4919
535.078	0.4946
535.275	0.4973
535.472	0.5002
535.669	0.5029
535.866	0.5057
536.063	0.5086
536.26	0.5114
536.457	0.5142
536.654	0.5172
536.851	0.5201
537.048	0.5231
537.245	0.5261
537.442	0.5291
537.639	0.5321
537.836	0.5351
538.033	0.5381
538.23	0.5412
538.427	0.5443
538.624	0.5474
538.821	0.5505
539.017	0.5536
539.214	0.5568
539.411	0.5598
539.608	0.5629
539.805	0.5661
540.001	0.5692
540.198	0.5724
540.395	0.5755
540.592	0.5786
540.789	0.5818
540.985	0.585
541.182	0.5882
541.379	0.5915
541.575	0.5948
541.772	0.598
541.969	0.6013
542.165	0.6045
542.362	0.6078
542.559	0.6111
542.755	0.6143
542.952	0.6175
543.149	0.6208
543.345	0.624
543.542	0.6273
543.738	0.6306
543.935	0.6341
544.131	0.6376
544.328	0.641
544.524	0.6445
544.721	0.648
544.917	0.6515
545.114	0.6551
545.31	0.6587
545.507	0.6623
545.703	0.6658
545.9	0.6693
546.096	0.6728
546.292	0.6762
546.489	0.6797
546.685	0.6833
546.881	0.6868
547.078	0.6904
547.274	0.694
547.47	0.6976
547.667	0.7012
547.863	0.7047
548.059	0.7084
548.255	0.7121
548.452	0.7158
548.648	0.7195
548.844	0.7232
549.04	0.7268
549.237	0.7305
549.433	0.7342
549.629	0.7379
549.825	0.7417
550.021	0.7454
550.217	0.749
550.414	0.7529
550.61	0.7567
550.806	0.7605
551.002	0.7643
551.198	0.7681
551.394	0.772
551.59	0.7758
551.786	0.7797
551.982	0.7836
552.178	0.7874
552.374	0.7913
552.57	0.7952
552.766	0.7991
552.962	0.803
553.158	0.8069
553.354	0.8107
553.55	0.8145
553.746	0.8183
553.941	0.8221
554.137	0.8259
554.333	0.8296
554.529	0.8334
554.725	0.8372
554.921	0.8412
555.116	0.845
555.312	0.8489
555.508	0.8526
555.704	0.8564
555.9	0.8603
556.095	0.8642
556.291	0.8682
556.487	0.8721
556.682	0.8761
556.878	0.8802
557.074	0.8843
557.27	0.8884
557.465	0.8923
557.661	0.8964
557.856	0.9003
558.052	0.9043
558.248	0.9083
558.443	0.9125
558.639	0.9165
558.834	0.9203
559.03	0.9244
559.225	0.9285
559.421	0.9325
559.616	0.9365
559.812	0.9404
560.007	0.9444
560.203	0.9483
560.398	0.9524
560.594	0.9565
560.789	0.9605
560.985	0.9644
561.18	0.9685
561.375	0.9724
561.571	0.9766
561.766	0.9805
561.962	0.9844
562.157	0.9882
562.352	0.992
562.548	0.9959
562.743	0.9997
562.938	1.0036
563.133	1.0076
563.329	1.0116
563.524	1.0157
563.719	1.0199
563.914	1.0241
564.11	1.0284
564.305	1.0326
564.5	1.037
564.695	1.0413
564.89	1.0456
565.085	1.0499
565.28	1.0542
565.476	1.0586
565.671	1.063
565.866	1.0674
566.061	1.0719
566.256	1.0763
566.451	1.0809
566.646	1.0853
566.841	1.0898
567.036	1.0942
567.231	1.0984
567.426	1.1028
567.621	1.1071
567.816	1.1115
568.011	1.1158
568.206	1.1202
568.401	1.1245
568.596	1.1285
568.791	1.1325
568.985	1.1363
569.18	1.1399
569.375	1.1435
569.57	1.1472
569.765	1.1509
569.96	1.1547
570.154	1.1584
570.349	1.1622
570.544	1.166
570.739	1.1699
570.933	1.1735
571.128	1.1773
571.323	1.181
571.518	1.1846
571.712	1.1883
571.907	1.1918
572.102	1.1954
572.296	1.1991
572.491	1.2026
572.686	1.2063
572.88	1.2099
573.075	1.2135
573.269	1.2174
573.464	1.2212
573.658	1.2251
573.853	1.229
574.047	1.2331
574.242	1.2373
574.437	1.2414
574.631	1.2456
574.825	1.2496
575.02	1.2536
575.214	1.2574
575.409	1.2612
575.603	1.2647
575.798	1.2683
575.992	1.2719
576.186	1.2756
576.381	1.2793
576.575	1.2831
576.77	1.2869
576.964	1.2907
577.158	1.2946
577.352	1.2985
577.547	1.3025
577.741	1.3066
577.935	1.3108
578.13	1.3146
578.324	1.3172
578.518	1.3191
578.712	1.321
578.906	1.3236
579.101	1.3263
579.295	1.3295
579.489	1.3332
579.683	1.3367
579.877	1.3401
580.071	1.3436
580.265	1.3471
580.459	1.3506
580.654	1.3543
580.848	1.3582
581.042	1.3621
581.236	1.3661
581.43	1.3701
581.624	1.3741
581.818	1.378
582.012	1.3821
582.206	1.3861
582.4	1.39
582.594	1.3939
582.787	1.3977
582.981	1.4015
583.175	1.4049
583.369	1.4085
583.563	1.4122
583.757	1.4159
583.951	1.4199
584.145	1.4246
584.338	1.4306
584.532	1.4376
584.726	1.4447
584.92	1.4509
585.114	1.4571
585.307	1.4625
585.501	1.4673
585.695	1.4719
585.888	1.4762
586.082	1.4803
586.276	1.4841
586.47	1.4881
586.663	1.4918
586.857	1.4955
587.05	1.4989
587.244	1.5025
587.438	1.5061
587.631	1.5097
587.825	1.5134
588.018	1.517
588.212	1.5207
588.405	1.5245
588.599	1.5283
588.792	1.5321
588.986	1.5359
589.179	1.5401
589.373	1.5445
589.566	1.5488
589.76	1.5534
589.953	1.5581
590.147	1.5627
590.34	1.5674
590.533	1.5718
590.727	1.576
590.92	1.5806
591.114	1.5848
591.307	1.5889
591.5	1.5931
591.693	1.5974
591.887	1.6017
592.08	1.606
592.273	1.61
592.467	1.6138
592.66	1.6174
592.853	1.621
593.046	1.625
593.239	1.6284
593.433	1.6316
593.626	1.635
593.819	1.6382
594.012	1.6415
594.205	1.6449
594.398	1.648
594.591	1.6512
594.784	1.6543
594.977	1.6575
595.171	1.6609
595.364	1.6642
595.557	1.6678
595.75	1.6714
595.943	1.6752
596.136	1.6787
596.329	1.6822
596.522	1.6855
596.715	1.6894
596.907	1.6927
597.1	1.6963
597.293	1.6997
597.486	1.7031
597.679	1.7065
597.872	1.7098
598.065	1.7131
598.258	1.7162
598.45	1.7194
598.643	1.7223
598.836	1.7254
599.029	1.7281
599.222	1.7309
599.414	1.7337
599.607	1.7363
599.8	1.7394
599.992	1.7426
600.185	1.7455
600.378	1.7483
600.571	1.751
600.763	1.7535
600.956	1.7559
601.148	1.758
601.341	1.7602
601.534	1.7623
601.726	1.7647
601.919	1.7664
602.111	1.7686
602.304	1.7711
602.496	1.7734
602.689	1.7753
602.881	1.7773
603.074	1.7794
603.266	1.7814
603.459	1.7834
603.651	1.785
603.844	1.7867
604.036	1.7881
604.229	1.79
604.421	1.7915
604.613	1.7932
604.806	1.7944
604.998	1.7957
605.19	1.7971
605.383	1.7984
605.575	1.7995
605.767	1.8004
605.96	1.801
606.152	1.8016
606.344	1.8024
606.536	1.8032
606.729	1.8043
606.921	1.8051
607.113	1.806
607.305	1.8067
607.497	1.8068
607.69	1.8068
607.882	1.8072
608.074	1.8078
608.266	1.8077
608.458	1.8081
608.65	1.8086
608.842	1.8086
609.034	1.8081
609.226	1.8081
609.418	1.8081
609.61	1.8084
609.802	1.8081
609.994	1.8077
610.186	1.8073
610.378	1.8068
610.57	1.8063
610.762	1.8058
610.954	1.8055
611.146	1.8049
611.338	1.8039
611.53	1.803
611.722	1.8023
611.913	1.8016
612.105	1.8012
612.297	1.8001
612.489	1.7986
612.681	1.7974
612.873	1.7959
613.064	1.7944
613.256	1.7928
613.448	1.7918
613.639	1.7904
613.831	1.7892
614.023	1.7873
614.215	1.7852
614.406	1.7833
614.598	1.7812
614.79	1.7792
614.981	1.7777
615.173	1.7757
615.364	1.7732
615.556	1.7705
615.748	1.7682
615.939	1.7658
616.131	1.763
616.322	1.7605
616.514	1.7581
616.705	1.7553
616.897	1.7525
617.088	1.7497
617.28	1.747
617.471	1.7442
617.662	1.741
617.854	1.7377
618.045	1.7343
618.237	1.731
618.428	1.7281
618.619	1.7243
618.811	1.7208
619.002	1.7172
619.193	1.7136
619.385	1.71
619.576	1.7064
619.767	1.702
619.958	1.6975
620.15	1.6936
620.341	1.6887
620.532	1.6839
620.723	1.6801
620.914	1.6758
621.106	1.6711
621.297	1.6668
621.488	1.6625
621.679	1.6582
621.87	1.6541
622.061	1.6497
622.252	1.6454
622.443	1.6405
622.635	1.6357
622.826	1.6306
623.017	1.6258
623.208	1.6211
623.399	1.6163
623.59	1.6117
623.781	1.6066
623.972	1.6016
624.162	1.5967
624.353	1.5914
624.544	1.5862
624.735	1.5813
624.926	1.5757
625.117	1.5707
625.308	1.565
625.499	1.5594
625.69	1.554
625.88	1.5485
626.071	1.5427
626.262	1.5368
626.453	1.5309
626.643	1.5244
626.834	1.5181
627.025	1.5118
627.216	1.5054
627.406	1.499
627.597	1.4926
627.788	1.4861
627.978	1.4798
628.169	1.4733
628.36	1.4665
628.55	1.4601
628.741	1.4535
628.931	1.4468
629.122	1.4402
629.313	1.4335
629.503	1.4266
629.694	1.4198
629.884	1.413
630.075	1.406
630.265	1.399
630.456	1.3921
630.646	1.385
630.837	1.3781
631.027	1.3706
631.217	1.3638
631.408	1.3569
631.598	1.3498
631.789	1.3426
631.979	1.3354
632.169	1.3283
632.36	1.3211
632.55	1.3136
632.74	1.3062
632.93	1.2986
633.121	1.2909
633.311	1.2834
633.501	1.2758
633.691	1.2682
633.882	1.2606
634.072	1.2531
634.262	1.2457
634.452	1.2383
634.642	1.2308
634.833	1.2233
635.023	1.2157
635.213	1.2083
635.403	1.2008
635.593	1.1934
635.783	1.1861
635.973	1.1787
636.163	1.1713
636.353	1.1638
636.543	1.1563
636.733	1.1492
636.923	1.142
637.113	1.1347
637.303	1.1274
637.493	1.1201
637.683	1.1128
637.873	1.1054
638.063	1.0981
638.253	1.0907
638.442	1.0833
638.632	1.076
638.822	1.0687
639.012	1.0614
639.202	1.0539
639.392	1.0465
639.581	1.0392
639.771	1.0317
639.961	1.0242
640.151	1.0168
640.34	1.0094
640.53	1.0022
640.72	0.9949
640.909	0.9875
641.099	0.9801
641.289	0.9727
641.478	0.9654
641.668	0.958
641.858	0.9505
642.047	0.9432
642.237	0.9358
642.426	0.9285
642.616	0.9211
642.805	0.9138
642.995	0.9066
643.184	0.8993
643.374	0.8921
643.563	0.8849
643.753	0.8778
643.942	0.8707
644.132	0.8637
644.321	0.8568
644.51	0.8499
644.7	0.8427
644.889	0.8356
645.079	0.8285
645.268	0.8214
645.457	0.8142
645.647	0.8072
645.836	0.8002
646.025	0.7932
646.214	0.7862
646.404	0.7791
646.593	0.7722
646.782	0.7654
646.971	0.7587
647.161	0.7521
647.35	0.7457
647.539	0.7392
647.728	0.7329
647.917	0.7266
648.106	0.7201
648.295	0.7139
648.485	0.7075
648.674	0.7012
648.863	0.6948
649.052	0.6886
649.241	0.6824
649.43	0.6762
649.619	0.67
649.808	0.6639
649.997	0.6579
650.186	0.6519
650.375	0.6461
650.564	0.6402
650.752	0.6344
650.941	0.6286
651.13	0.6227
651.319	0.6169
651.508	0.6111
651.697	0.6053
651.886	0.5994
652.074	0.5931
652.263	0.5839
652.452	0.5405
652.641	0.4658
652.83	0.4024
653.018	0.3521
653.207	0.311
653.396	0.2768
653.584	0.2476
653.773	0.2226
653.962	0.2053
654.15	0.1957
654.339	0.1893
654.528	0.1858
654.716	0.1847
654.905	0.1863
655.093	0.1903
655.282	0.1965
655.471	0.2043
655.659	0.2131
655.848	0.2225
656.036	0.2321
656.225	0.2419
656.413	0.2515
656.602	0.2611
656.79	0.2706
656.978	0.2798
657.167	0.2889
657.355	0.2978
657.544	0.3066
657.732	0.3151
657.92	0.3232
658.109	0.33
658.297	0.3428
658.485	0.368
658.674	0.3969
658.862	0.4235
659.05	0.4473
659.238	0.4734
659.427	0.5026
659.615	0.5353
659.803	0.5658
659.991	0.5908
660.179	0.6141
660.368	0.635
660.556	0.6531
660.744	0.6664
660.932	0.6739
661.12	0.6749
661.308	0.6704
661.496	0.6615
661.684	0.6496
661.872	0.6354
662.06	0.6193
662.248	0.602
662.436	0.5836
662.624	0.5642
662.812	0.544
663	0.5229
663.188	0.5009
663.376	0.4779
663.564	0.454
663.752	0.4289
663.94	0.4027
664.128	0.375
664.315	0.3456
664.503	0.3148
664.691	0.2959
664.879	0.2924
665.067	0.2891
665.255	0.2858
665.442	0.2825
665.63	0.2793
665.818	0.2762
666.005	0.273
666.193	0.2699
666.381	0.2669
666.568	0.2638
666.756	0.2608
666.944	0.2577
667.131	0.2548
667.319	0.2518
667.507	0.2489
667.694	0.246
667.882	0.2431
668.069	0.2404
668.257	0.2376
668.444	0.2347
668.632	0.232
668.819	0.2292
669.007	0.2263
669.194	0.2235
669.382	0.2208
669.569	0.2181
669.757	0.2154
669.944	0.2128
670.131	0.2103
670.319	0.2079
670.506	0.2055
670.693	0.2031
670.881	0.2008
671.068	0.1986
671.255	0.1963
671.443	0.1941
671.63	0.192
671.817	0.19
672.004	0.1879
672.191	0.1859
672.379	0.1839
672.566	0.1819
672.753	0.1799
672.94	0.1779
673.127	0.176
673.314	0.1741
673.502	0.1722
673.689	0.1702
673.876	0.1683
674.063	0.1664
674.25	0.1646
674.437	0.1627
674.624	0.1608
674.811	0.1589
674.998	0.157
675.185	0.1552
675.372	0.1534
675.559	0.1516
675.746	0.1498
675.933	0.1481
676.119	0.1463
676.306	0.1445
676.493	0.1428
676.68	0.141
676.867	0.1392
677.054	0.1375
677.241	0.1358
677.427	0.1341
677.614	0.1325
677.801	0.131
677.988	0.1294
678.174	0.128
678.361	0.1265
678.548	0.1251
678.734	0.1237
678.921	0.1223
679.108	0.1209
679.294	0.1196
679.481	0.1183
679.668	0.1171
679.854	0.1158
680.041	0.1146
680.227	0.1133
680.414	0.1121
680.6	0.1108
680.787	0.1096
680.973	0.1083
681.16	0.107
681.346	0.1058
681.533	0.1046
681.719	0.1034
681.906	0.1022
682.092	0.1011
682.278	0.0999
682.465	0.0987
682.651	0.0976
682.838	0.0965
683.024	0.0954
683.21	0.0942
683.396	0.0931
683.583	0.092
683.769	0.091
683.955	0.0899
684.142	0.0889
684.328	0.0879
684.514	0.087
684.7	0.0861
684.886	0.0851
685.073	0.0841
685.259	0.0833
685.445	0.0824
685.631	0.0815
685.817	0.0807
686.003	0.0798
686.189	0.0789
686.375	0.0781
686.561	0.0774
686.747	0.0767
686.933	0.0759
687.119	0.0751
687.305	0.0744
687.491	0.0736
687.677	0.0729
687.863	0.0722
688.049	0.0714
688.235	0.0707
688.421	0.07
688.607	0.0692
688.793	0.0685
688.978	0.0678
689.164	0.0671
689.35	0.0665
689.536	0.0659
689.722	0.0652
689.907	0.0645
690.093	0.0638
690.279	0.0631
690.465	0.0623
690.65	0.0617
690.836	0.061
691.022	0.0603
691.207	0.0596
691.393	0.059
691.578	0.0583
691.764	0.0578
691.95	0.0572
692.135	0.0567
692.321	0.0561
692.506	0.0556
692.692	0.0551
692.877	0.0545
693.063	0.054
693.248	0.0535
693.434	0.053
693.619	0.0524
693.805	0.0519
693.99	0.0514
694.176	0.0509
694.361	0.0504
694.546	0.0499
694.732	0.0494
694.917	0.0489
695.102	0.0483
695.288	0.0479
695.473	0.0474
695.658	0.047
695.843	0.0465
696.029	0.0461
696.214	0.0457
696.399	0.0453
696.584	0.045
696.77	0.0446
696.955	0.0442
697.14	0.0439
697.325	0.0436
697.51	0.0433
697.695	0.0429
697.88	0.0426
698.065	0.0422
698.251	0.0419
698.436	0.0416
698.621	0.0412
698.806	0.0408
698.991	0.0405
699.176	0.0401
699.361	0.0398
699.546	0.0394
699.73	0.0391
699.915	0.0388
700.1	0.0385
700.285	0.0383
700.47	0.038
700.655	0.0377
700.84	0.0374
701.025	0.037
701.209	0.0366
701.394	0.0363
701.579	0.0359
701.764	0.0357
701.948	0.0354
702.133	0.0351
702.318	0.0348
702.503	0.0345
702.687	0.0342
702.872	0.034
703.057	0.0337
703.241	0.0334
703.426	0.0331
703.61	0.0328
703.795	0.0325
703.98	0.0322
704.164	0.0319
704.349	0.0316
704.533	0.0314
704.718	0.0312
704.902	0.0309
705.087	0.0306
705.271	0.0304
705.456	0.03
705.64	0.0297
705.825	0.0294
706.009	0.0291
706.193	0.0288
706.378	0.0286
706.562	0.0284
706.746	0.0282
706.931	0.0281
707.115	0.0279
707.299	0.0277
707.484	0.0275
707.668	0.0273
707.852	0.0272
708.036	0.0271
708.221	0.027
708.405	0.0268
708.589	0.0267
708.773	0.0265
708.957	0.0264
709.141	0.0262
709.326	0.0261
709.51	0.0258
709.694	0.0257
709.878	0.0255
710.062	0.0253
710.246	0.0252
710.43	0.0251
710.614	0.025
710.798	0.0249
710.982	0.0247
711.166	0.0247
711.35	0.0245
711.534	0.0244
711.718	0.0243
711.902	0.0242
712.085	0.0241
712.269	0.0239
712.453	0.0237
712.637	0.0234
712.821	0.0233
713.005	0.0231
713.188	0.0229
713.372	0.0227
713.556	0.0225
713.74	0.0224
713.923	0.0222
714.107	0.022
714.291	0.0219
714.474	0.0217
714.658	0.0215
714.842	0.0214
715.025	0.0212
715.209	0.0212
715.393	0.0211
715.576	0.021
715.76	0.0209
715.943	0.0207
716.127	0.0206
716.31	0.0206
716.494	0.0205
716.677	0.0204
716.861	0.0202
717.044	0.0201
717.228	0.0199
717.411	0.0198
717.594	0.0197
717.778	0.0195
717.961	0.0194
718.145	0.0194
718.328	0.0193
718.511	0.0193
718.695	0.0193
718.878	0.0193
719.061	0.0193
719.244	0.0192
719.428	0.0191
719.611	0.019
719.794	0.0189
719.977	0.0188
720.16	0.0188
720.344	0.0188
720.527	0.0188
720.71	0.0187
720.893	0.0187
721.076	0.0186
721.259	0.0185
721.442	0.0183
721.625	0.0182
721.808	0.018
721.991	0.0179
722.174	0.0178
722.357	0.0177
722.54	0.0177
722.723	0.0177
722.906	0.0177
723.089	0.0177
723.272	0.0177
723.455	0.0177
723.638	0.0177
723.821	0.0176
724.003	0.0175
724.186	0.0175
724.369	0.0174
724.552	0.0173
724.735	0.0172
724.917	0.0171
725.1	0.0171
725.283	0.017
725.466	0.0169
725.648	0.0169
725.831	0.0168
726.014	0.0168
726.196	0.0166
726.379	0.0166
726.562	0.0165
726.744	0.0164
726.927	0.0164
727.109	0.0165
727.292	0.0164
727.474	0.0164
727.657	0.0163
727.839	0.0162
728.022	0.0162
728.204	0.0162
728.387	0.0161
728.569	0.0159
728.752	0.0158
728.934	0.0157
729.116	0.0157
729.299	0.0157
729.481	0.0157
729.664	0.0157
729.846	0.0157
730.028	0.0157
730.21	0.0157
730.393	0.0157
730.575	0.0156
730.757	0.0156
730.939	0.0155
731.122	0.0154
731.304	0.0154
731.486	0.0153
731.668	0.0152
731.85	0.0152
732.032	0.0151
732.215	0.0151
732.397	0.0151
732.579	0.0151
732.761	0.015
732.943	0.015
733.125	0.015
733.307	0.015
733.489	0.015
733.671	0.0149
733.853	0.0148
734.035	0.0148
734.217	0.0148
734.399	0.0148
734.581	0.0148
734.762	0.0147
734.944	0.0146
735.126	0.0147
735.308	0.0146
735.49	0.0146
735.672	0.0146
735.853	0.0146
736.035	0.0145
736.217	0.0145
736.399	0.0145
736.58	0.0145
736.762	0.0146
736.944	0.0146
737.126	0.0146
737.307	0.0146
737.489	0.0146
737.67	0.0146
737.852	0.0145
738.034	0.0145
738.215	0.0144
738.397	0.0143
738.578	0.0143
738.76	0.0143
738.941	0.0143
739.123	0.0142
739.304	0.0142
739.486	0.0141
739.667	0.0141
739.849	0.0141
740.03	0.014
740.211	0.0139
740.393	0.0139
740.574	0.0138
740.756	0.0137
740.937	0.0137
741.118	0.0136
741.299	0.0136
741.481	0.0135
741.662	0.0134
741.843	0.0134
742.025	0.0134
742.206	0.0133
742.387	0.0132
742.568	0.0132
742.749	0.0131
742.93	0.0131
743.112	0.0131
743.293	0.0132
743.474	0.0132
743.655	0.0132
743.836	0.0132
744.017	0.0131
744.198	0.0132
744.379	0.0131
744.56	0.0131
744.741	0.013
744.922	0.013
745.103	0.013
745.284	0.0129
745.465	0.0129
745.646	0.0129
745.827	0.0128
746.007	0.0128
746.188	0.0129
746.369	0.0129
746.55	0.0128
746.731	0.0127
746.911	0.0125
747.092	0.0125
747.273	0.0125
747.454	0.0124
747.634	0.0124
747.815	0.0123
747.996	0.0123
748.177	0.0123
748.357	0.0123
748.538	0.0122
748.718	0.0122
748.899	0.0121
749.08	0.0121
749.26	0.012
749.441	0.012
749.621	0.012
749.802	0.012
749.982	0.0119
750.163	0.0119
750.343	0.0119
750.524	0.012
750.704	0.012
750.885	0.012
751.065	0.012
751.245	0.012
751.426	0.012
751.606	0.012
751.786	0.0119
751.967	0.0118
752.147	0.0118
752.327	0.0118
752.508	0.0119
752.688	0.0119
752.868	0.0119
753.048	0.0119
753.229	0.012
753.409	0.012
753.589	0.0121
753.769	0.0121
753.949	0.0121
754.129	0.0121
754.309	0.012
754.489	0.0121
754.67	0.0121
754.85	0.012
755.03	0.012
755.21	0.0119
755.39	0.0119
755.57	0.0119
755.75	0.0119
755.93	0.0118
756.11	0.0118
756.289	0.0118
756.469	0.0118
756.649	0.0117
756.829	0.0117
757.009	0.0116
757.189	0.0116
757.369	0.0116
757.548	0.0116
757.728	0.0116
757.908	0.0115
758.088	0.0115
758.267	0.0114
758.447	0.0114
758.627	0.0114
758.807	0.0114
758.986	0.0113
759.166	0.0112
759.346	0.0112
759.525	0.0112
759.705	0.0111
759.884	0.011
760.064	0.011
760.243	0.0109
760.423	0.011
760.603	0.011
760.782	0.011
760.962	0.0111
761.141	0.011
761.32	0.0111
761.5	0.0112
761.679	0.0112
761.859	0.0112
762.038	0.0113
762.217	0.0113
762.397	0.0113
762.576	0.0113
762.755	0.0113
762.935	0.0113
763.114	0.0113
763.293	0.0114
763.473	0.0114
763.652	0.0113
763.831	0.0113
764.01	0.0112
764.189	0.0112
764.369	0.0112
764.548	0.0112
764.727	0.0113
764.906	0.0114
765.085	0.0114
765.264	0.0115
765.443	0.0116
765.622	0.0116
765.801	0.0115
765.98	0.0115
766.159	0.0115
766.338	0.0114
766.517	0.0114
766.696	0.0114
766.875	0.0113
767.054	0.0113
767.233	0.0112
767.412	0.0111
767.591	0.0111
767.769	0.0111
767.948	0.011
768.127	0.011
768.306	0.011
768.485	0.011
768.663	0.011
768.842	0.0109
769.021	0.0109
769.2	0.0109
769.378	0.011
769.557	0.011
769.736	0.011
769.914	0.011
770.093	0.0109
770.271	0.0109
770.45	0.0108
770.629	0.0108
770.807	0.0107
770.986	0.0106
771.164	0.0106
771.343	0.0106
771.521	0.0105
771.7	0.0106
771.878	0.0106
772.057	0.0106
772.235	0.0105
772.413	0.0105
772.592	0.0105
772.77	0.0106
772.948	0.0107
773.127	0.0106
773.305	0.0106
773.483	0.0106
773.662	0.0106
773.84	0.0106
774.018	0.0106
774.196	0.0106
774.375	0.0107
774.553	0.0107
774.731	0.0107
774.909	0.0106
775.087	0.0105
775.265	0.0104
775.444	0.0103
775.622	0.0103
775.8	0.0103
775.978	0.0102
776.156	0.0101
776.334	0.0101
776.512	0.0101
776.69	0.0101
776.868	0.01
777.046	0.01
777.224	0.01
777.402	0.01
777.58	0.01
777.757	0.01
777.935	0.0101
778.113	0.0101
778.291	0.0101
778.469	0.01
778.647	0.01
778.824	0.01
779.002	0.01
779.18	0.01
779.358	0.01
779.535	0.01
779.713	0.01
779.891	0.01
780.068	0.01
780.246	0.0102
780.424	0.0103
780.601	0.0104
780.779	0.0105
780.957	0.0107
781.134	0.0107
781.312	0.0107
781.489	0.0107
781.667	0.0108
781.844	0.0109
782.022	0.0109
782.199	0.0109
782.377	0.011
782.554	0.0111
782.731	0.0112
782.909	0.0111
783.086	0.0111
783.264	0.011
783.441	0.0109
783.618	0.0108
783.795	0.0107
783.973	0.0107
784.15	0.0107
784.327	0.0107
784.505	0.0106
784.682	0.0105
784.859	0.0106
785.036	0.0105
785.213	0.0105
785.39	0.0104
785.568	0.0103
785.745	0.0101
785.922	0.01
786.099	0.01
786.276	0.0098
786.453	0.0096
786.63	0.0095
786.807	0.0094
786.984	0.0094
787.161	0.0093
787.338	0.0092
787.515	0.0091
787.692	0.009
787.869	0.0089
788.046	0.0088
788.222	0.0087
788.399	0.0087
788.576	0.0085
788.753	0.0084
788.93	0.0083
789.107	0.0083
789.283	0.0082
789.46	0.0082
789.637	0.0082
789.814	0.0081
789.99	0.0082
790.167	0.0081
790.344	0.0081
790.52	0.0081
790.697	0.0081
790.873	0.0082
791.05	0.0083
791.227	0.0084
791.403	0.0084
791.58	0.0084
791.756	0.0085
791.933	0.0085
792.109	0.0086
792.286	0.0087
792.462	0.0088
792.639	0.0089
792.815	0.0089
792.991	0.0089
793.168	0.009
793.344	0.009
793.521	0.0089
793.697	0.0089
793.873	0.0088
794.049	0.0089
794.226	0.009
794.402	0.0091
794.578	0.0091
794.754	0.009
794.931	0.009
795.107	0.0089
795.283	0.0089
795.459	0.009
795.635	0.0091
795.811	0.0092
795.988	0.0093
796.164	0.0093
796.34	0.0093
796.516	0.0093
796.692	0.0093
796.868	0.0093
797.044	0.0092
797.22	0.0092
797.396	0.0091
797.572	0.0089
797.748	0.0088
797.924	0.0087
798.099	0.0087
798.275	0.0087
798.451	0.0086
798.627	0.0086
798.803	0.0087
798.979	0.0088
799.154	0.0089
799.33	0.009
799.506	0.0092
799.682	0.0092
799.857	0.0094
800.033	0.0095
800.209	0.0097
800.385	0.0098
800.56	0.0099
800.736	0.0099
800.911	0.0099
801.087	0.0098
801.263	0.0098
801.438	0.0098
801.614	0.0098
801.789	0.0097
801.965	0.0095
802.14	0.0094
802.316	0.0093
802.491	0.0093
802.667	0.0092
802.842	0.0093
803.017	0.0094
803.193	0.0095
803.368	0.0095
803.543	0.0095
803.719	0.0095
803.894	0.0095
804.069	0.0095
804.245	0.0095
804.42	0.0095
804.595	0.0095
804.77	0.0095
804.946	0.0097
805.121	0.0097
805.296	0.0097
805.471	0.0097
805.646	0.0097
805.821	0.0097
805.997	0.0096
806.172	0.0095
806.347	0.0095
806.522	0.0095
806.697	0.0095
806.872	0.0094
807.047	0.0094
807.222	0.0094
807.397	0.0095
807.572	0.0096
807.747	0.0097
807.921	0.0098
808.096	0.0098
808.271	0.0098
808.446	0.0097
808.621	0.0098
808.796	0.0098
808.971	0.0099
809.145	0.01
809.32	0.0101
809.495	0.01
809.67	0.0101
809.844	0.0101
810.019	0.01
810.194	0.0099
810.368	0.0097
810.543	0.0096
810.718	0.0096
810.892	0.0096
811.067	0.0096
811.241	0.0097
811.416	0.0097
811.59	0.0097
811.765	0.0097
811.939	0.0097
812.114	0.0098
812.288	0.0098
812.463	0.0098
812.637	0.0097
812.812	0.0097
812.986	0.0096
813.16	0.0096
813.335	0.0096
813.509	0.0097
813.683	0.0098
813.858	0.01
814.032	0.0101
814.206	0.0103
814.381	0.0103
814.555	0.0104
814.729	0.0103
814.903	0.0103
815.077	0.0103
815.252	0.0104
815.426	0.0105
815.6	0.0105
815.774	0.0105
815.948	0.0104
816.122	0.0103
816.296	0.0101
816.47	0.0099
816.644	0.0098
816.818	0.0097
816.992	0.0096
817.166	0.0096
817.34	0.0095
817.514	0.0096
817.688	0.0097
817.862	0.0098
818.036	0.0099
818.209	0.0101
818.383	0.0103
818.557	0.0104
818.731	0.0104
818.905	0.0103
819.078	0.0103
819.252	0.0102
819.426	0.0101
819.6	0.0099
819.773	0.0099
819.947	0.0098
820.121	0.0097
820.294	0.0096
820.468	0.0096
820.642	0.0096
820.815	0.0096
820.989	0.0096
821.162	0.0096
821.336	0.0097
821.509	0.0098
821.683	0.0099
821.856	0.01
822.03	0.0101
822.203	0.0103
822.377	0.0105
822.55	0.0106
822.723	0.0106
822.897	0.0106
823.07	0.0106
823.243	0.0106
823.417	0.0105
823.59	0.0104
823.763	0.0102
823.937	0.0101
824.11	0.0099
824.283	0.0098
824.456	0.0097
824.629	0.0097
824.803	0.0096
824.976	0.0096
825.149	0.0095
825.322	0.0095
825.495	0.0094
825.668	0.0093
825.841	0.0092
826.014	0.0091
826.187	0.009
826.36	0.0089
826.533	0.0088
826.706	0.0086
826.879	0.0085
827.052	0.0085
827.225	0.0086
827.398	0.0084
827.571	0.0083
827.744	0.0081
827.917	0.008
828.089	0.0078
828.262	0.0079
828.435	0.0078
828.608	0.0077
828.781	0.0077
828.953	0.0077
829.126	0.0078
829.299	0.0079
829.471	0.008
829.644	0.0081
829.817	0.0082
829.989	0.0081
830.162	0.0082
830.335	0.0082
830.507	0.0082
830.68	0.0082
830.852	0.0084
831.025	0.0085
831.197	0.0085
831.37	0.0087
831.542	0.0088
831.715	0.0088
831.887	0.0089
832.059	0.009
832.232	0.009
832.404	0.009
832.577	0.0091
832.749	0.0092
832.921	0.0093
833.093	0.0094
833.266	0.0096
833.438	0.0098
833.61	0.0097
833.782	0.0098
833.955	0.0096
834.127	0.0096
834.299	0.0095
834.471	0.0095
834.643	0.0094
834.815	0.0095
834.988	0.0094
835.16	0.0093
835.332	0.0092
835.504	0.0091
835.676	0.0092
835.848	0.0092
836.02	0.0094
836.192	0.0094
836.364	0.0095
836.536	0.0095
836.708	0.0095
836.879	0.0093
837.051	0.0093
837.223	0.0092
837.395	0.0091
837.567	0.009
837.739	0.0089
837.91	0.0087
838.082	0.0087
838.254	0.0086
838.426	0.0084
838.597	0.0082
838.769	0.008
838.941	0.008
839.112	0.0081
839.284	0.0082
839.456	0.0083
839.627	0.0084
839.799	0.0085
839.97	0.0086
840.142	0.0085
840.314	0.0087
840.485	0.0088
840.657	0.0089
840.828	0.0089
840.999	0.0089
841.171	0.0089
841.342	0.009
841.514	0.0089
841.685	0.0089
841.856	0.0089
842.028	0.0089
842.199	0.009
842.37	0.009
842.542	0.0091
842.713	0.0091
842.884	0.0091
843.056	0.0092
843.227	0.0093
843.398	0.0094
843.569	0.0094
843.74	0.0094
843.911	0.0096
844.083	0.0096
844.254	0.0094
844.425	0.0094
844.596	0.0092
844.767	0.0091
844.938	0.009
845.109	0.0089
845.28	0.0087
845.451	0.0087
845.622	0.0085
845.793	0.0083
845.964	0.0084
846.135	0.0085
846.305	0.0085
846.476	0.0085
846.647	0.0084
846.818	0.0084
846.989	0.0084
847.16	0.0084
847.33	0.0083
847.501	0.0084
847.672	0.0084
847.843	0.0085
848.013	0.0086
848.184	0.0087
848.355	0.0088
848.525	0.0089
848.696	0.009
848.867	0.0092
849.037	0.0093
849.208	0.0094
849.378	0.0094
849.549	0.0095
849.719	0.0096
849.89	0.0096
850.06	0.0098
850.231	0.0097
850.401	0.0098
850.572	0.0098
850.742	0.0098
850.912	0.01
851.083	0.01
851.253	0.01
851.423	0.0099
851.594	0.0098
851.764	0.0097
851.934	0.0097
852.104	0.0097
852.275	0.0098
852.445	0.0099
852.615	0.0098
852.785	0.0097
852.955	0.0096
853.126	0.0094
853.296	0.0094
853.466	0.0094
853.636	0.0094
853.806	0.0094
853.976	0.0093
854.146	0.0092
854.316	0.0091
854.486	0.0091
854.656	0.009
854.826	0.009
854.996	0.0088
855.166	0.0088
855.336	0.0087
855.506	0.0086
855.675	0.0086
855.845	0.0086
856.015	0.0086
856.185	0.0084
856.355	0.0084
856.525	0.0084
856.694	0.0084
856.864	0.0084
857.034	0.0084
857.203	0.0084
857.373	0.0084
857.543	0.0082
857.712	0.0082
857.882	0.0082
858.052	0.0082
858.221	0.0083
858.391	0.0083
858.56	0.0081
858.73	0.0082
858.899	0.0081
859.069	0.0081
859.238	0.0081
859.408	0.0082
859.577	0.0082
859.747	0.0083
859.916	0.0085
860.085	0.0085
860.255	0.0086
860.424	0.0088
860.593	0.0089
860.763	0.0089
860.932	0.0089
861.101	0.0091
861.27	0.0092
861.44	0.0092
861.609	0.0093
861.778	0.0094
861.947	0.0094
862.116	0.0094
862.285	0.0093
862.455	0.0093
862.624	0.0093
862.793	0.0094
862.962	0.0094
863.131	0.0094
863.3	0.0095
863.469	0.0095
863.638	0.0094
863.807	0.0094
863.976	0.0094
864.145	0.0093
864.314	0.0093
864.482	0.0092
864.651	0.009
864.82	0.0088
864.989	0.0087
865.158	0.0083
865.327	0.0083
865.495	0.0082
865.664	0.0082
865.833	0.0082
866.002	0.0083
866.17	0.0083
866.339	0.008
866.508	0.0082
866.676	0.0081
866.845	0.0079
867.013	0.0078
867.182	0.008
867.351	0.008
867.519	0.008
867.688	0.0079
867.856	0.0079
868.025	0.0078
868.193	0.0078
868.362	0.0079
868.53	0.0078
868.698	0.0078
868.867	0.0081
869.035	0.0081
869.203	0.0081
869.372	0.0082
869.54	0.0082
869.708	0.0081
869.877	0.0082
870.045	0.0083
870.213	0.0083
870.381	0.0086
870.55	0.0087
870.718	0.0085
870.886	0.0084
871.054	0.0084
871.222	0.0082
871.39	0.0083
871.558	0.0083
871.727	0.0081
871.895	0.0083
872.063	0.0085
872.231	0.0087
872.399	0.0086
872.567	0.0088
872.735	0.0088
872.902	0.009
873.07	0.009
873.238	0.009
873.406	0.0089
873.574	0.0086
873.742	0.0087
873.91	0.0087
874.077	0.0084
874.245	0.0085
874.413	0.0085
874.581	0.0086
874.749	0.0085
874.916	0.0085
875.084	0.0083
875.252	0.0084
875.419	0.0082
875.587	0.0082
875.754	0.0082
875.922	0.0084
876.09	0.0084
876.257	0.0085
876.425	0.0085
876.592	0.0084
876.76	0.0085
876.927	0.0085
877.095	0.0084
877.262	0.0084
877.43	0.0082
877.597	0.0081
877.764	0.0078
877.932	0.0077
878.099	0.0076
878.266	0.0078
878.434	0.008
878.601	0.0082
878.768	0.0085
878.935	0.0085
879.103	0.0085
879.27	0.0087
879.437	0.0088
879.604	0.0087
879.771	0.0088
879.939	0.009
880.106	0.0092
880.273	0.0095
880.44	0.0095
880.607	0.0097
880.774	0.0098
880.941	0.0098
881.108	0.0097
881.275	0.0097
881.442	0.0098
881.609	0.0098
881.776	0.0101
881.943	0.01
882.11	0.0099
882.276	0.0099
882.443	0.0099
882.61	0.0097
882.777	0.0097
882.944	0.0097
883.11	0.0098
883.277	0.0099
883.444	0.0097
883.611	0.0095
883.777	0.0095
883.944	0.0094
884.111	0.0093
884.277	0.0095
884.444	0.0095
884.61	0.0094
884.777	0.0095
884.944	0.0093
885.11	0.0091
885.277	0.0091
885.443	0.0089
885.61	0.0088
885.776	0.0087
885.942	0.0087
886.109	0.0086
886.275	0.0087
886.442	0.0086
