Data from stock_Absorbance_10.txt Node
Date: Mon Nov 13 15:38:30 CET 2023
User: student
Spectrometer: USB4F03453
Autoset integration time: false
Trigger mode: 4
Integration Time (sec): 1.800000E-2
Scans to average: 60
Electric dark correction enabled: true
Nonlinearity correction enabled: false
Boxcar width: 15
XAxis mode: Wavelengths
Stop averaging: false
Number of Pixels in Spectrum: 3648
>>>>>Begin Spectral Data<<<<<
179.221	-0
179.435	-0
179.649	-0.6547
179.863	0.9523
180.076	0.763
180.29	0.7025
180.504	0.6488
180.718	0.6073
180.931	0.6111
181.145	0.5817
181.359	0.5823
181.572	0.5779
181.786	0.5816
182	0.5823
182.213	0.5891
182.427	0.5902
182.641	0.5874
182.854	0.5901
183.068	0.5932
183.282	0.5856
183.495	0.5813
183.709	0.5771
183.922	0.5828
184.136	0.5834
184.35	0.5882
184.563	0.5879
184.777	0.5931
184.99	0.5944
185.204	0.5929
185.417	0.5952
185.631	0.5959
185.845	0.5991
186.058	0.6009
186.272	0.6037
186.485	0.6083
186.699	0.6111
186.912	0.6169
187.126	0.6205
187.339	0.6274
187.553	0.6296
187.766	0.641
187.98	0.6528
188.193	0.6673
188.407	0.6703
188.62	0.6781
188.834	0.6803
189.047	0.6872
189.26	0.6994
189.474	0.7038
189.687	0.7124
189.901	0.7198
190.114	0.7355
190.327	0.7469
190.541	0.7518
190.754	0.758
190.968	0.7693
191.181	0.7825
191.394	0.7932
191.608	0.8011
191.821	0.8106
192.034	0.8167
192.248	0.8242
192.461	0.8296
192.674	0.8413
192.888	0.8464
193.101	0.8579
193.314	0.8623
193.528	0.8685
193.741	0.8827
193.954	0.8907
194.168	0.8995
194.381	0.9028
194.594	0.906
194.807	0.9083
195.021	0.9209
195.234	0.9229
195.447	0.9331
195.66	0.9373
195.874	0.9455
196.087	0.9547
196.3	0.9605
196.513	0.9695
196.726	0.9737
196.94	0.9768
197.153	0.986
197.366	0.9971
197.579	0.9988
197.792	1.0016
198.005	1.0078
198.219	1.0156
198.432	1.0217
198.645	1.0264
198.858	1.0359
199.071	1.0407
199.284	1.0471
199.497	1.0552
199.71	1.0566
199.924	1.0638
200.137	1.0695
200.35	1.0738
200.563	1.0812
200.776	1.0845
200.989	1.0906
201.202	1.098
201.415	1.1027
201.628	1.106
201.841	1.1139
202.054	1.1195
202.267	1.1278
202.48	1.131
202.693	1.1371
202.906	1.1429
203.119	1.149
203.332	1.1532
203.545	1.1588
203.758	1.1636
203.971	1.1678
204.184	1.1733
204.397	1.1768
204.61	1.1784
204.823	1.1816
205.036	1.1847
205.249	1.1908
205.462	1.1932
205.674	1.1968
205.887	1.1986
206.1	1.2004
206.313	1.2036
206.526	1.2061
206.739	1.2082
206.952	1.2102
207.165	1.2115
207.377	1.2141
207.59	1.2141
207.803	1.2128
208.016	1.2126
208.229	1.2129
208.442	1.2109
208.654	1.2089
208.867	1.2067
209.08	1.2046
209.293	1.2022
209.506	1.1997
209.718	1.1972
209.931	1.1956
210.144	1.1921
210.357	1.1871
210.569	1.1816
210.782	1.1781
210.995	1.174
211.207	1.1703
211.42	1.1647
211.633	1.1601
211.846	1.1542
212.058	1.1476
212.271	1.1408
212.484	1.1338
212.696	1.1273
212.909	1.1211
213.122	1.1146
213.334	1.1074
213.547	1.0993
213.76	1.0922
213.972	1.0845
214.185	1.0774
214.397	1.0697
214.61	1.062
214.823	1.0538
215.035	1.0467
215.248	1.0388
215.46	1.0309
215.673	1.0228
215.885	1.0141
216.098	1.0053
216.311	0.9962
216.523	0.9871
216.736	0.9788
216.948	0.9708
217.161	0.9629
217.373	0.9548
217.586	0.9471
217.798	0.939
218.011	0.9312
218.223	0.9232
218.436	0.9155
218.648	0.9082
218.861	0.901
219.073	0.8939
219.285	0.8867
219.498	0.8797
219.71	0.8725
219.923	0.8655
220.135	0.8592
220.348	0.8527
220.56	0.8465
220.772	0.8402
220.985	0.8342
221.197	0.8283
221.41	0.8222
221.622	0.8166
221.834	0.8111
222.047	0.8057
222.259	0.8008
222.471	0.796
222.684	0.7913
222.896	0.7867
223.108	0.7823
223.321	0.7781
223.533	0.774
223.745	0.7702
223.957	0.7664
224.17	0.7629
224.382	0.7596
224.594	0.7565
224.806	0.7535
225.019	0.7507
225.231	0.7481
225.443	0.7456
225.655	0.7432
225.868	0.741
226.08	0.7386
226.292	0.7366
226.504	0.735
226.716	0.7333
226.929	0.7318
227.141	0.7305
227.353	0.7293
227.565	0.7282
227.777	0.7275
227.989	0.7269
228.202	0.7264
228.414	0.7261
228.626	0.726
228.838	0.726
229.05	0.726
229.262	0.7264
229.474	0.7269
229.686	0.7275
229.898	0.7282
230.11	0.7293
230.322	0.7305
230.534	0.7319
230.747	0.7335
230.959	0.7354
231.171	0.7372
231.383	0.7393
231.595	0.7415
231.807	0.7439
232.019	0.7464
232.231	0.7491
232.443	0.7518
232.655	0.7549
232.867	0.7583
233.079	0.7615
233.29	0.765
233.502	0.7687
233.714	0.7727
233.926	0.7769
234.138	0.7811
234.35	0.7855
234.562	0.79
234.774	0.7946
234.986	0.7993
235.198	0.8042
235.41	0.8092
235.622	0.8144
235.833	0.8198
236.045	0.8253
236.257	0.8308
236.469	0.8366
236.681	0.8424
236.893	0.8485
237.104	0.8547
237.316	0.8608
237.528	0.8672
237.74	0.8737
237.952	0.8802
238.163	0.8866
238.375	0.8935
238.587	0.9001
238.799	0.9071
239.01	0.9141
239.222	0.9211
239.434	0.928
239.646	0.935
239.857	0.942
240.069	0.9488
240.281	0.9558
240.492	0.9627
240.704	0.9697
240.916	0.9768
241.128	0.984
241.339	0.9911
241.551	0.9984
241.762	1.0055
241.974	1.0128
242.186	1.02
242.397	1.0271
242.609	1.0343
242.821	1.0416
243.032	1.0484
243.244	1.0554
243.455	1.0623
243.667	1.069
243.879	1.0757
244.09	1.082
244.302	1.0886
244.513	1.0946
244.725	1.1008
244.936	1.1067
245.148	1.1127
245.359	1.1184
245.571	1.1242
245.782	1.1301
245.994	1.1358
246.205	1.1411
246.417	1.1463
246.628	1.1513
246.84	1.1562
247.051	1.1609
247.263	1.1653
247.474	1.1695
247.686	1.1736
247.897	1.1773
248.108	1.1807
248.32	1.184
248.531	1.1869
248.743	1.1894
248.954	1.1917
249.165	1.1936
249.377	1.195
249.588	1.196
249.8	1.1965
250.011	1.1965
250.222	1.1963
250.434	1.1955
250.645	1.1943
250.856	1.1926
251.067	1.1904
251.279	1.1878
251.49	1.1844
251.701	1.1805
251.913	1.1764
252.124	1.1718
252.335	1.1666
252.546	1.161
252.758	1.1553
252.969	1.1492
253.18	1.1427
253.391	1.136
253.603	1.1289
253.814	1.1213
254.025	1.1135
254.236	1.1056
254.447	1.0976
254.659	1.0893
254.87	1.0807
255.081	1.0725
255.292	1.064
255.503	1.0554
255.714	1.0466
255.925	1.0377
256.137	1.029
256.348	1.02
256.559	1.0109
256.77	1.0022
256.981	0.9934
257.192	0.9849
257.403	0.9767
257.614	0.9683
257.825	0.9599
258.036	0.9519
258.247	0.9439
258.458	0.9359
258.669	0.9279
258.88	0.9203
259.091	0.913
259.302	0.9058
259.513	0.8986
259.724	0.8916
259.935	0.8849
260.146	0.8784
260.357	0.872
260.568	0.8658
260.779	0.8599
260.99	0.8541
261.201	0.8485
261.412	0.8432
261.623	0.8382
261.834	0.8334
262.045	0.8288
262.256	0.8244
262.467	0.8204
262.677	0.8165
262.888	0.8128
263.099	0.8093
263.31	0.8061
263.521	0.803
263.732	0.8004
263.943	0.798
264.153	0.7956
264.364	0.7937
264.575	0.792
264.786	0.7906
264.997	0.7895
265.207	0.7886
265.418	0.7878
265.629	0.7873
265.84	0.7871
266.05	0.7871
266.261	0.7873
266.472	0.7878
266.683	0.7886
266.893	0.7896
267.104	0.7908
267.315	0.7923
267.525	0.7941
267.736	0.7961
267.947	0.7983
268.157	0.8008
268.368	0.8035
268.579	0.8064
268.789	0.8094
269	0.8127
269.211	0.8162
269.421	0.8198
269.632	0.8237
269.842	0.8277
270.053	0.8319
270.264	0.8364
270.474	0.841
270.685	0.8458
270.895	0.8507
271.106	0.8559
271.316	0.8611
271.527	0.8666
271.737	0.8722
271.948	0.878
272.158	0.8839
272.369	0.8898
272.579	0.896
272.79	0.9024
273	0.9089
273.211	0.9156
273.421	0.9223
273.632	0.9291
273.842	0.9361
274.053	0.9432
274.263	0.9505
274.474	0.9579
274.684	0.9651
274.894	0.9728
275.105	0.9804
275.315	0.9882
275.526	0.9961
275.736	1.0042
275.946	1.0125
276.157	1.0209
276.367	1.0291
276.577	1.0376
276.788	1.0463
276.998	1.055
277.208	1.0639
277.419	1.0727
277.629	1.0819
277.839	1.091
278.049	1.1004
278.26	1.1098
278.47	1.1193
278.68	1.1292
278.89	1.1391
279.101	1.149
279.311	1.1591
279.521	1.1694
279.731	1.1799
279.942	1.1903
280.152	1.2008
280.362	1.2112
280.572	1.2219
280.782	1.2328
280.992	1.2437
281.203	1.2549
281.413	1.2659
281.623	1.2765
281.833	1.2873
282.043	1.298
282.253	1.3089
282.463	1.3195
282.674	1.3301
282.884	1.3404
283.094	1.3509
283.304	1.361
283.514	1.3709
283.724	1.3805
283.934	1.3899
284.144	1.3988
284.354	1.4077
284.564	1.4162
284.774	1.424
284.984	1.4319
285.194	1.4391
285.404	1.4456
285.614	1.4516
285.824	1.4575
286.034	1.4631
286.244	1.468
286.454	1.4723
286.664	1.476
286.874	1.479
287.084	1.4816
287.294	1.4836
287.503	1.4853
287.713	1.4861
287.923	1.4867
288.133	1.487
288.343	1.4866
288.553	1.4859
288.763	1.4846
288.973	1.4828
289.182	1.4807
289.392	1.4785
289.602	1.4757
289.812	1.4726
290.022	1.4694
290.231	1.4656
290.441	1.462
290.651	1.458
290.861	1.4537
291.071	1.4494
291.28	1.4452
291.49	1.4405
291.7	1.4359
291.91	1.4314
292.119	1.4266
292.329	1.4216
292.539	1.4166
292.748	1.4118
292.958	1.4071
293.168	1.4023
293.377	1.3974
293.587	1.3926
293.797	1.3878
294.006	1.3833
294.216	1.3787
294.426	1.3743
294.635	1.3698
294.845	1.3651
295.054	1.3607
295.264	1.3563
295.474	1.3521
295.683	1.3479
295.893	1.3437
296.102	1.3397
296.312	1.3358
296.521	1.3318
296.731	1.328
296.94	1.3243
297.15	1.3209
297.359	1.3171
297.569	1.3136
297.778	1.3099
297.988	1.3065
298.197	1.3034
298.407	1.3001
298.616	1.297
298.826	1.2938
299.035	1.2908
299.245	1.2876
299.454	1.2845
299.663	1.2815
299.873	1.2786
300.082	1.2757
300.292	1.2727
300.501	1.2698
300.71	1.2669
300.92	1.2638
301.129	1.261
301.338	1.2582
301.548	1.2552
301.757	1.2523
301.966	1.2494
302.176	1.2463
302.385	1.2433
302.594	1.2403
302.804	1.2372
303.013	1.2343
303.222	1.2313
303.431	1.2281
303.641	1.2248
303.85	1.2215
304.059	1.2182
304.268	1.215
304.477	1.2115
304.687	1.2079
304.896	1.2046
305.105	1.201
305.314	1.1973
305.523	1.1934
305.733	1.1895
305.942	1.1855
306.151	1.1814
306.36	1.1773
306.569	1.1728
306.778	1.1685
306.987	1.1639
307.196	1.1593
307.406	1.1547
307.615	1.1498
307.824	1.1448
308.033	1.1397
308.242	1.1345
308.451	1.1295
308.66	1.1244
308.869	1.1189
309.078	1.1135
309.287	1.108
309.496	1.1022
309.705	1.0965
309.914	1.0905
310.123	1.0845
310.332	1.0784
310.541	1.0722
310.75	1.0658
310.959	1.0593
311.168	1.0528
311.377	1.0463
311.585	1.0399
311.794	1.0331
312.003	1.0263
312.212	1.0194
312.421	1.0124
312.63	1.0054
312.839	0.9984
313.048	0.9913
313.256	0.9842
313.465	0.9771
313.674	0.9701
313.883	0.9629
314.092	0.9558
314.301	0.9487
314.509	0.9413
314.718	0.9338
314.927	0.9262
315.136	0.9186
315.344	0.9113
315.553	0.9039
315.762	0.8966
315.971	0.8892
316.179	0.8818
316.388	0.8743
316.597	0.8668
316.805	0.8593
317.014	0.8518
317.223	0.8442
317.431	0.8367
317.64	0.8293
317.849	0.8218
318.057	0.8145
318.266	0.8072
318.475	0.8
318.683	0.7929
318.892	0.7859
319.1	0.779
319.309	0.7721
319.518	0.7654
319.726	0.7588
319.935	0.7522
320.143	0.7457
320.352	0.7393
320.56	0.733
320.769	0.727
320.977	0.7209
321.186	0.7149
321.394	0.7088
321.603	0.703
321.811	0.6973
322.02	0.6918
322.228	0.6863
322.437	0.6809
322.645	0.6758
322.854	0.6707
323.062	0.6657
323.27	0.6609
323.479	0.6562
323.687	0.6516
323.896	0.6472
324.104	0.6428
324.312	0.6386
324.521	0.6344
324.729	0.6304
324.937	0.6266
325.146	0.6229
325.354	0.6192
325.562	0.6158
325.771	0.6125
325.979	0.6093
326.187	0.6062
326.396	0.6032
326.604	0.6002
326.812	0.5974
327.02	0.5946
327.229	0.5921
327.437	0.5896
327.645	0.5872
327.853	0.5848
328.061	0.5824
328.27	0.5801
328.478	0.5779
328.686	0.5759
328.894	0.574
329.102	0.5722
329.311	0.5705
329.519	0.5689
329.727	0.5674
329.935	0.566
330.143	0.5647
330.351	0.5633
330.559	0.5621
330.767	0.5609
330.975	0.5598
331.183	0.5587
331.392	0.5577
331.6	0.5567
331.808	0.5557
332.016	0.5548
332.224	0.5539
332.432	0.5531
332.64	0.5523
332.848	0.5515
333.056	0.5508
333.264	0.55
333.472	0.5492
333.68	0.5485
333.888	0.5478
334.095	0.5472
334.303	0.5465
334.511	0.5459
334.719	0.5453
334.927	0.5446
335.135	0.5439
335.343	0.5433
335.551	0.5427
335.759	0.542
335.967	0.5414
336.174	0.5407
336.382	0.54
336.59	0.5393
336.798	0.5387
337.006	0.5379
337.213	0.5373
337.421	0.5365
337.629	0.5357
337.837	0.535
338.045	0.5343
338.252	0.5335
338.46	0.5327
338.668	0.5318
338.876	0.5309
339.083	0.53
339.291	0.5292
339.499	0.5282
339.706	0.5273
339.914	0.5263
340.122	0.5252
340.329	0.5242
340.537	0.5231
340.745	0.522
340.952	0.5208
341.16	0.5196
341.368	0.5184
341.575	0.5171
341.783	0.5158
341.99	0.5144
342.198	0.5131
342.406	0.5117
342.613	0.5104
342.821	0.509
343.028	0.5075
343.236	0.506
343.443	0.5044
343.651	0.5029
343.858	0.5012
344.066	0.4996
344.273	0.4979
344.481	0.4962
344.688	0.4945
344.896	0.4928
345.103	0.491
345.311	0.4892
345.518	0.4874
345.725	0.4856
345.933	0.4837
346.14	0.4817
346.348	0.4797
346.555	0.4777
346.762	0.4757
346.97	0.4736
347.177	0.4715
347.384	0.4693
347.592	0.4671
347.799	0.4649
348.006	0.4628
348.214	0.4606
348.421	0.4584
348.628	0.456
348.836	0.4537
349.043	0.4513
349.25	0.4489
349.457	0.4465
349.665	0.444
349.872	0.4416
350.079	0.4391
350.286	0.4366
350.493	0.434
350.701	0.4315
350.908	0.4288
351.115	0.4263
351.322	0.4236
351.529	0.421
351.736	0.4183
351.944	0.4156
352.151	0.413
352.358	0.4102
352.565	0.4075
352.772	0.4047
352.979	0.4019
353.186	0.3991
353.393	0.3962
353.6	0.3934
353.807	0.3905
354.014	0.3877
354.221	0.3849
354.428	0.3819
354.635	0.379
354.842	0.376
355.049	0.3731
355.256	0.3701
355.463	0.3671
355.67	0.3641
355.877	0.361
356.084	0.3581
356.291	0.3551
356.498	0.3521
356.705	0.3491
356.912	0.346
357.119	0.343
357.326	0.34
357.533	0.3369
357.74	0.3339
357.946	0.3308
358.153	0.3277
358.36	0.3247
358.567	0.3218
358.774	0.3187
358.981	0.3156
359.187	0.3126
359.394	0.3096
359.601	0.3066
359.808	0.3035
360.014	0.3006
360.221	0.2975
360.428	0.2945
360.635	0.2915
360.841	0.2887
361.048	0.2858
361.255	0.2829
361.462	0.28
361.668	0.277
361.875	0.274
362.082	0.2711
362.288	0.2683
362.495	0.2654
362.702	0.2626
362.908	0.2598
363.115	0.2571
363.321	0.2543
363.528	0.2516
363.735	0.2488
363.941	0.246
364.148	0.2433
364.354	0.2407
364.561	0.238
364.767	0.2355
364.974	0.2329
365.18	0.2302
365.387	0.2276
365.593	0.2251
365.8	0.2226
366.006	0.2202
366.213	0.2177
366.419	0.2153
366.626	0.2129
366.832	0.2106
367.039	0.2083
367.245	0.206
367.452	0.2037
367.658	0.2014
367.864	0.1993
368.071	0.1971
368.277	0.1949
368.483	0.1928
368.69	0.1907
368.896	0.1886
369.102	0.1865
369.309	0.1845
369.515	0.1826
369.721	0.1807
369.928	0.1788
370.134	0.1768
370.34	0.1749
370.547	0.1731
370.753	0.1712
370.959	0.1694
371.165	0.1675
371.372	0.1657
371.578	0.1639
371.784	0.1621
371.99	0.1603
372.196	0.1587
372.403	0.1569
372.609	0.1553
372.815	0.1538
373.021	0.1523
373.227	0.1507
373.433	0.1492
373.639	0.1477
373.845	0.1463
374.052	0.1448
374.258	0.1434
374.464	0.1421
374.67	0.1407
374.876	0.1394
375.082	0.138
375.288	0.1368
375.494	0.1355
375.7	0.1342
375.906	0.1331
376.112	0.1319
376.318	0.1308
376.524	0.1297
376.73	0.1286
376.936	0.1274
377.142	0.1264
377.348	0.1254
377.554	0.1243
377.76	0.1233
377.966	0.1223
378.172	0.1212
378.377	0.1202
378.583	0.1193
378.789	0.1184
378.995	0.1175
379.201	0.1165
379.407	0.1156
379.613	0.1147
379.818	0.1139
380.024	0.1131
380.23	0.1122
380.436	0.1114
380.642	0.1106
380.847	0.1098
381.053	0.1091
381.259	0.1083
381.465	0.1075
381.67	0.1068
381.876	0.106
382.082	0.1052
382.287	0.1045
382.493	0.1038
382.699	0.1031
382.905	0.1025
383.11	0.1018
383.316	0.1012
383.521	0.1006
383.727	0.1
383.933	0.0994
384.138	0.0988
384.344	0.0982
384.55	0.0977
384.755	0.0971
384.961	0.0966
385.166	0.096
385.372	0.0954
385.577	0.0949
385.783	0.0944
385.988	0.0939
386.194	0.0934
386.399	0.093
386.605	0.0925
386.81	0.0921
387.016	0.0917
387.221	0.0913
387.427	0.0908
387.632	0.0904
387.838	0.09
388.043	0.0896
388.248	0.0892
388.454	0.0889
388.659	0.0885
388.865	0.0881
389.07	0.0878
389.275	0.0874
389.481	0.0871
389.686	0.0867
389.891	0.0864
390.097	0.0861
390.302	0.0858
390.507	0.0855
390.713	0.0852
390.918	0.0849
391.123	0.0847
391.328	0.0845
391.534	0.0842
391.739	0.084
391.944	0.0839
392.149	0.0836
392.355	0.0834
392.56	0.0832
392.765	0.083
392.97	0.0828
393.175	0.0826
393.38	0.0824
393.586	0.0822
393.791	0.0821
393.996	0.0819
394.201	0.0817
394.406	0.0816
394.611	0.0814
394.816	0.0813
395.021	0.0811
395.226	0.081
395.431	0.0809
395.637	0.0807
395.842	0.0806
396.047	0.0805
396.252	0.0804
396.457	0.0803
396.662	0.0801
396.867	0.08
397.072	0.0799
397.277	0.0798
397.481	0.0796
397.686	0.0795
397.891	0.0794
398.096	0.0794
398.301	0.0792
398.506	0.0792
398.711	0.0791
398.916	0.079
399.121	0.079
399.326	0.0789
399.53	0.0788
399.735	0.0787
399.94	0.0787
400.145	0.0786
400.35	0.0786
400.555	0.0785
400.759	0.0785
400.964	0.0784
401.169	0.0783
401.374	0.0783
401.578	0.0782
401.783	0.0782
401.988	0.0782
402.193	0.0781
402.397	0.0781
402.602	0.0781
402.807	0.0781
403.011	0.0781
403.216	0.0781
403.421	0.0782
403.625	0.0781
403.83	0.0782
404.035	0.0782
404.239	0.0782
404.444	0.0781
404.648	0.0781
404.853	0.0782
405.057	0.0781
405.262	0.0781
405.467	0.0781
405.671	0.0782
405.876	0.0783
406.08	0.0783
406.285	0.0783
406.489	0.0783
406.694	0.0783
406.898	0.0784
407.103	0.0784
407.307	0.0784
407.511	0.0785
407.716	0.0786
407.92	0.0786
408.125	0.0786
408.329	0.0787
408.534	0.0788
408.738	0.0788
408.942	0.0789
409.147	0.0789
409.351	0.0789
409.555	0.0789
409.76	0.0789
409.964	0.079
410.168	0.0791
410.373	0.0792
410.577	0.0792
410.781	0.0793
410.985	0.0793
411.19	0.0794
411.394	0.0794
411.598	0.0795
411.802	0.0795
412.007	0.0796
412.211	0.0796
412.415	0.0797
412.619	0.0798
412.823	0.0798
413.028	0.0799
413.232	0.08
413.436	0.0801
413.64	0.0803
413.844	0.0803
414.048	0.0804
414.252	0.0804
414.456	0.0805
414.66	0.0806
414.865	0.0806
415.069	0.0807
415.273	0.0808
415.477	0.0808
415.681	0.0809
415.885	0.081
416.089	0.0811
416.293	0.0812
416.497	0.0813
416.701	0.0813
416.905	0.0814
417.109	0.0815
417.313	0.0816
417.516	0.0816
417.72	0.0817
417.924	0.0818
418.128	0.0819
418.332	0.0819
418.536	0.0821
418.74	0.0821
418.944	0.0821
419.148	0.0822
419.351	0.0822
419.555	0.0823
419.759	0.0824
419.963	0.0825
420.167	0.0826
420.37	0.0827
420.574	0.0828
420.778	0.0828
420.982	0.0829
421.185	0.0829
421.389	0.083
421.593	0.0831
421.797	0.0832
422	0.0833
422.204	0.0834
422.408	0.0834
422.611	0.0835
422.815	0.0836
423.019	0.0837
423.222	0.0838
423.426	0.0839
423.629	0.084
423.833	0.0841
424.037	0.0843
424.24	0.0843
424.444	0.0844
424.647	0.0845
424.851	0.0846
425.054	0.0847
425.258	0.0848
425.461	0.0849
425.665	0.0851
425.868	0.0852
426.072	0.0852
426.275	0.0852
426.479	0.0853
426.682	0.0854
426.886	0.0855
427.089	0.0856
427.293	0.0857
427.496	0.0858
427.699	0.0859
427.903	0.0859
428.106	0.086
428.309	0.0861
428.513	0.0862
428.716	0.0863
428.919	0.0864
429.123	0.0864
429.326	0.0865
429.529	0.0866
429.733	0.0867
429.936	0.0867
430.139	0.0868
430.342	0.0868
430.546	0.0869
430.749	0.087
430.952	0.087
431.155	0.0871
431.359	0.0872
431.562	0.0873
431.765	0.0873
431.968	0.0873
432.171	0.0875
432.374	0.0876
432.578	0.0877
432.781	0.0878
432.984	0.0879
433.187	0.0879
433.39	0.088
433.593	0.0881
433.796	0.0881
433.999	0.0883
434.202	0.0883
434.405	0.0883
434.608	0.0884
434.811	0.0885
435.014	0.0885
435.217	0.0885
435.42	0.0885
435.623	0.0886
435.826	0.0887
436.029	0.0887
436.232	0.0887
436.435	0.0888
436.638	0.0888
436.841	0.0889
437.044	0.089
437.247	0.0891
437.45	0.0891
437.652	0.0891
437.855	0.0892
438.058	0.0892
438.261	0.0893
438.464	0.0893
438.667	0.0893
438.869	0.0894
439.072	0.0894
439.275	0.0894
439.478	0.0894
439.68	0.0895
439.883	0.0895
440.086	0.0896
440.289	0.0895
440.491	0.0896
440.694	0.0896
440.897	0.0896
441.099	0.0896
441.302	0.0896
441.505	0.0896
441.707	0.0896
441.91	0.0896
442.113	0.0896
442.315	0.0896
442.518	0.0896
442.72	0.0896
442.923	0.0896
443.126	0.0896
443.328	0.0896
443.531	0.0896
443.733	0.0896
443.936	0.0896
444.138	0.0897
444.341	0.0896
444.543	0.0896
444.746	0.0896
444.948	0.0895
445.151	0.0895
445.353	0.0895
445.555	0.0895
445.758	0.0895
445.96	0.0895
446.163	0.0894
446.365	0.0894
446.567	0.0894
446.77	0.0894
446.972	0.0893
447.175	0.0893
447.377	0.0894
447.579	0.0894
447.781	0.0894
447.984	0.0894
448.186	0.0894
448.388	0.0894
448.591	0.0894
448.793	0.0894
448.995	0.0894
449.197	0.0894
449.4	0.0893
449.602	0.0894
449.804	0.0894
450.006	0.0894
450.208	0.0893
450.411	0.0894
450.613	0.0893
450.815	0.0894
451.017	0.0894
451.219	0.0894
451.421	0.0894
451.623	0.0894
451.825	0.0894
452.027	0.0894
452.229	0.0894
452.432	0.0894
452.634	0.0895
452.836	0.0895
453.038	0.0895
453.24	0.0895
453.442	0.0895
453.644	0.0894
453.846	0.0894
454.048	0.0893
454.25	0.0893
454.451	0.0892
454.653	0.0892
454.855	0.0892
455.057	0.0891
455.259	0.089
455.461	0.089
455.663	0.0891
455.865	0.0891
456.067	0.089
456.268	0.089
456.47	0.089
456.672	0.089
456.874	0.089
457.076	0.0889
457.277	0.0888
457.479	0.0888
457.681	0.0887
457.883	0.0886
458.084	0.0885
458.286	0.0885
458.488	0.0884
458.69	0.0883
458.891	0.0883
459.093	0.0882
459.295	0.0881
459.496	0.0881
459.698	0.088
459.9	0.088
460.101	0.088
460.303	0.088
460.504	0.0879
460.706	0.0879
460.908	0.0878
461.109	0.0878
461.311	0.0878
461.512	0.0878
461.714	0.0877
461.915	0.0876
462.117	0.0875
462.318	0.0875
462.52	0.0874
462.721	0.0874
462.923	0.0873
463.124	0.0873
463.326	0.0872
463.527	0.0872
463.729	0.0872
463.93	0.0872
464.131	0.0871
464.333	0.0871
464.534	0.087
464.735	0.087
464.937	0.0869
465.138	0.0869
465.34	0.0868
465.541	0.0868
465.742	0.0867
465.943	0.0867
466.145	0.0866
466.346	0.0865
466.547	0.0864
466.748	0.0864
466.95	0.0864
467.151	0.0863
467.352	0.0862
467.553	0.0861
467.755	0.0861
467.956	0.086
468.157	0.0859
468.358	0.0859
468.559	0.0858
468.76	0.0857
468.961	0.0856
469.163	0.0855
469.364	0.0854
469.565	0.0854
469.766	0.0853
469.967	0.0852
470.168	0.0852
470.369	0.0851
470.57	0.0851
470.771	0.085
470.972	0.085
471.173	0.085
471.374	0.0849
471.575	0.0849
471.776	0.0848
471.977	0.0847
472.178	0.0847
472.379	0.0846
472.58	0.0846
472.781	0.0845
472.982	0.0845
473.182	0.0844
473.383	0.0843
473.584	0.0843
473.785	0.0842
473.986	0.0842
474.187	0.0842
474.387	0.0841
474.588	0.0841
474.789	0.084
474.99	0.0839
475.191	0.0839
475.391	0.0839
475.592	0.0838
475.793	0.0838
475.994	0.0837
476.194	0.0837
476.395	0.0837
476.596	0.0837
476.796	0.0836
476.997	0.0836
477.198	0.0836
477.398	0.0836
477.599	0.0836
477.799	0.0836
478	0.0836
478.201	0.0836
478.401	0.0836
478.602	0.0837
478.802	0.0837
479.003	0.0837
479.203	0.0837
479.404	0.0837
479.604	0.0837
479.805	0.0837
480.005	0.0837
480.206	0.0838
480.406	0.0838
480.607	0.0839
480.807	0.0839
481.008	0.0839
481.208	0.084
481.409	0.084
481.609	0.0841
481.809	0.0842
482.01	0.0842
482.21	0.0841
482.41	0.0839
482.611	0.0837
482.811	0.0835
483.011	0.0833
483.212	0.0833
483.412	0.0834
483.612	0.0835
483.812	0.0836
484.013	0.0837
484.213	0.0838
484.413	0.0839
484.613	0.0839
484.814	0.084
485.014	0.084
485.214	0.0841
485.414	0.0842
485.614	0.0842
485.814	0.0843
486.015	0.0844
486.215	0.0845
486.415	0.0846
486.615	0.0847
486.815	0.0848
487.015	0.0849
487.215	0.085
487.415	0.0851
487.615	0.0851
487.815	0.0852
488.015	0.0853
488.215	0.0855
488.415	0.0857
488.615	0.0861
488.815	0.0865
489.015	0.087
489.215	0.0876
489.415	0.0878
489.615	0.088
489.815	0.0882
490.015	0.0884
490.215	0.0886
490.415	0.0888
490.614	0.089
490.814	0.0892
491.014	0.0894
491.214	0.0896
491.414	0.0898
491.613	0.09
491.813	0.0902
492.013	0.0904
492.213	0.0906
492.413	0.0908
492.612	0.091
492.812	0.0913
493.012	0.0915
493.211	0.0917
493.411	0.0919
493.611	0.0921
493.811	0.0924
494.01	0.0927
494.21	0.093
494.409	0.0932
494.609	0.0935
494.809	0.0938
495.008	0.094
495.208	0.0943
495.407	0.0946
495.607	0.0949
495.807	0.0952
496.006	0.0955
496.206	0.0958
496.405	0.0961
496.605	0.0965
496.804	0.0968
497.004	0.0971
497.203	0.0974
497.403	0.0978
497.602	0.0981
497.801	0.0984
498.001	0.0988
498.2	0.0991
498.4	0.0996
498.599	0.1
498.798	0.1004
498.998	0.1007
499.197	0.1012
499.396	0.1016
499.596	0.1019
499.795	0.1024
499.994	0.1028
500.194	0.1032
500.393	0.1036
500.592	0.104
500.791	0.1044
500.991	0.1048
501.19	0.1053
501.389	0.1057
501.588	0.1061
501.788	0.1066
501.987	0.107
502.186	0.1075
502.385	0.108
502.584	0.1084
502.783	0.1089
502.982	0.1094
503.182	0.1099
503.381	0.1104
503.58	0.1109
503.779	0.1114
503.978	0.1119
504.177	0.1124
504.376	0.1129
504.575	0.1133
504.774	0.1138
504.973	0.1143
505.172	0.1148
505.371	0.1153
505.57	0.1158
505.769	0.1163
505.968	0.1168
506.167	0.1173
506.366	0.1179
506.565	0.1184
506.763	0.1189
506.962	0.1195
507.161	0.12
507.36	0.1206
507.559	0.1212
507.758	0.1218
507.957	0.1224
508.155	0.1229
508.354	0.1235
508.553	0.124
508.752	0.1246
508.95	0.1253
509.149	0.1258
509.348	0.1265
509.547	0.127
509.745	0.1276
509.944	0.1283
510.143	0.1289
510.341	0.1295
510.54	0.1301
510.739	0.1308
510.937	0.1314
511.136	0.1321
511.335	0.1328
511.533	0.1335
511.732	0.1342
511.93	0.1348
512.129	0.1355
512.327	0.1362
512.526	0.1368
512.724	0.1375
512.923	0.1382
513.121	0.139
513.32	0.1397
513.518	0.1403
513.717	0.1411
513.915	0.1418
514.114	0.1425
514.312	0.1432
514.511	0.144
514.709	0.1447
514.907	0.1454
515.106	0.1462
515.304	0.147
515.502	0.1477
515.701	0.1485
515.899	0.1493
516.097	0.15
516.296	0.1508
516.494	0.1516
516.692	0.1524
516.891	0.1531
517.089	0.154
517.287	0.1547
517.485	0.1555
517.683	0.1564
517.882	0.1572
518.08	0.1581
518.278	0.1589
518.476	0.1598
518.674	0.1606
518.873	0.1614
519.071	0.1623
519.269	0.1631
519.467	0.164
519.665	0.1649
519.863	0.1658
520.061	0.1667
520.259	0.1676
520.457	0.1685
520.655	0.1694
520.853	0.1703
521.051	0.1712
521.249	0.1721
521.447	0.173
521.645	0.1739
521.843	0.1749
522.041	0.1757
522.239	0.1767
522.437	0.1777
522.635	0.1786
522.833	0.1796
523.031	0.1806
523.229	0.1815
523.426	0.1825
523.624	0.1835
523.822	0.1845
524.02	0.1855
524.218	0.1865
524.415	0.1875
524.613	0.1885
524.811	0.1895
525.009	0.1905
525.207	0.1916
525.404	0.1926
525.602	0.1937
525.8	0.1947
525.997	0.1959
526.195	0.197
526.393	0.1981
526.59	0.1992
526.788	0.2003
526.986	0.2015
527.183	0.2026
527.381	0.2037
527.578	0.2048
527.776	0.2059
527.974	0.207
528.171	0.2082
528.369	0.2093
528.566	0.2105
528.764	0.2117
528.961	0.2128
529.159	0.214
529.356	0.2152
529.554	0.2164
529.751	0.2176
529.949	0.2188
530.146	0.2201
530.343	0.2214
530.541	0.2227
530.738	0.2239
530.936	0.2253
531.133	0.2265
531.33	0.2278
531.528	0.2291
531.725	0.2304
531.922	0.2317
532.12	0.233
532.317	0.2344
532.514	0.2356
532.711	0.237
532.909	0.2383
533.106	0.2396
533.303	0.2409
533.5	0.2422
533.698	0.2435
533.895	0.2448
534.092	0.2462
534.289	0.2475
534.486	0.2489
534.683	0.2503
534.881	0.2517
535.078	0.2531
535.275	0.2545
535.472	0.2559
535.669	0.2573
535.866	0.2588
536.063	0.2603
536.26	0.2618
536.457	0.2633
536.654	0.2648
536.851	0.2663
537.048	0.2678
537.245	0.2694
537.442	0.271
537.639	0.2725
537.836	0.2741
538.033	0.2756
538.23	0.2772
538.427	0.2787
538.624	0.2803
538.821	0.2819
539.017	0.2835
539.214	0.2851
539.411	0.2867
539.608	0.2883
539.805	0.2899
540.001	0.2914
540.198	0.2931
540.395	0.2947
540.592	0.2963
540.789	0.2979
540.985	0.2995
541.182	0.3012
541.379	0.3029
541.575	0.3046
541.772	0.3062
541.969	0.3078
542.165	0.3094
542.362	0.311
542.559	0.3127
542.755	0.3143
542.952	0.3159
543.149	0.3176
543.345	0.3193
543.542	0.321
543.738	0.3227
543.935	0.3244
544.131	0.3262
544.328	0.3279
544.524	0.3298
544.721	0.3316
544.917	0.3334
545.114	0.3352
545.31	0.3371
545.507	0.3388
545.703	0.3406
545.9	0.3425
546.096	0.3443
546.292	0.346
546.489	0.3479
546.685	0.3497
546.881	0.3515
547.078	0.3534
547.274	0.3552
547.47	0.357
547.667	0.3588
547.863	0.3607
548.059	0.3625
548.255	0.3645
548.452	0.3663
548.648	0.3682
548.844	0.3701
549.04	0.372
549.237	0.3739
549.433	0.3758
549.629	0.3776
549.825	0.3795
550.021	0.3814
550.217	0.3834
550.414	0.3854
550.61	0.3873
550.806	0.3892
551.002	0.3912
551.198	0.3931
551.394	0.395
551.59	0.397
551.786	0.399
551.982	0.4009
552.178	0.4029
552.374	0.4049
552.57	0.4069
552.766	0.4089
552.962	0.4109
553.158	0.4129
553.354	0.4149
553.55	0.4168
553.746	0.4188
553.941	0.4208
554.137	0.4227
554.333	0.4246
554.529	0.4266
554.725	0.4285
554.921	0.4305
555.116	0.4325
555.312	0.4345
555.508	0.4364
555.704	0.4383
555.9	0.4404
556.095	0.4423
556.291	0.4444
556.487	0.4464
556.682	0.4484
556.878	0.4505
557.074	0.4526
557.27	0.4547
557.465	0.4568
557.661	0.4588
557.856	0.461
558.052	0.4631
558.248	0.4651
558.443	0.4672
558.639	0.4692
558.834	0.4712
559.03	0.4733
559.225	0.4753
559.421	0.4773
559.616	0.4794
559.812	0.4814
560.007	0.4834
560.203	0.4855
560.398	0.4876
560.594	0.4896
560.789	0.4917
560.985	0.4938
561.18	0.4959
561.375	0.498
561.571	0.5001
561.766	0.5021
561.962	0.5042
562.157	0.5061
562.352	0.5081
562.548	0.5101
562.743	0.5121
562.938	0.5141
563.133	0.5162
563.329	0.5182
563.524	0.5203
563.719	0.5225
563.914	0.5246
564.11	0.5268
564.305	0.5291
564.5	0.5313
564.695	0.5336
564.89	0.5358
565.085	0.538
565.28	0.5401
565.476	0.5423
565.671	0.5446
565.866	0.5469
566.061	0.5492
566.256	0.5514
566.451	0.5537
566.646	0.556
566.841	0.5582
567.036	0.5604
567.231	0.5626
567.426	0.5648
567.621	0.5669
567.816	0.569
568.011	0.5711
568.206	0.5732
568.401	0.5753
568.596	0.5773
568.791	0.5793
568.985	0.5812
569.18	0.5831
569.375	0.5849
569.57	0.5867
569.765	0.5885
569.96	0.5904
570.154	0.5922
570.349	0.594
570.544	0.5958
570.739	0.5976
570.933	0.5995
571.128	0.6013
571.323	0.6031
571.518	0.6049
571.712	0.6067
571.907	0.6085
572.102	0.6102
572.296	0.612
572.491	0.6138
572.686	0.6157
572.88	0.6175
573.075	0.6194
573.269	0.6213
573.464	0.6232
573.658	0.6252
573.853	0.6271
574.047	0.6291
574.242	0.6311
574.437	0.6331
574.631	0.635
574.825	0.6369
575.02	0.6388
575.214	0.6406
575.409	0.6424
575.603	0.6442
575.798	0.646
575.992	0.6478
576.186	0.6497
576.381	0.6516
576.575	0.6535
576.77	0.6555
576.964	0.6574
577.158	0.6594
577.352	0.6615
577.547	0.6635
577.741	0.6656
577.935	0.6676
578.13	0.6692
578.324	0.6695
578.518	0.6691
578.712	0.6688
578.906	0.6692
579.101	0.6697
579.295	0.6709
579.489	0.6727
579.683	0.6745
579.877	0.6763
580.071	0.6782
580.265	0.6801
580.459	0.6821
580.654	0.6841
580.848	0.6862
581.042	0.6883
581.236	0.6905
581.43	0.6926
581.624	0.6946
581.818	0.6967
582.012	0.6988
582.206	0.7009
582.4	0.7029
582.594	0.7049
582.787	0.7068
582.981	0.7088
583.175	0.7106
583.369	0.7126
583.563	0.7146
583.757	0.7167
583.951	0.7189
584.145	0.7217
584.338	0.7259
584.532	0.7309
584.726	0.736
584.92	0.7402
585.114	0.7444
585.307	0.7478
585.501	0.7505
585.695	0.7529
585.888	0.7553
586.082	0.7575
586.276	0.7597
586.47	0.7617
586.663	0.7637
586.857	0.7656
587.05	0.7676
587.244	0.7695
587.438	0.7715
587.631	0.7734
587.825	0.7755
588.018	0.7776
588.212	0.7798
588.405	0.782
588.599	0.7843
588.792	0.7866
588.986	0.7889
589.179	0.7913
589.373	0.7936
589.566	0.796
589.76	0.7984
589.953	0.8009
590.147	0.8035
590.34	0.806
590.533	0.8085
590.727	0.811
590.92	0.8135
591.114	0.8159
591.307	0.8183
591.5	0.8206
591.693	0.823
591.887	0.8252
592.08	0.8274
592.273	0.8295
592.467	0.8316
592.66	0.8336
592.853	0.8356
593.046	0.8376
593.239	0.8394
593.433	0.8413
593.626	0.8431
593.819	0.8448
594.012	0.8465
594.205	0.8483
594.398	0.85
594.591	0.8516
594.784	0.8532
594.977	0.8549
595.171	0.8566
595.364	0.8584
595.557	0.8603
595.75	0.8623
595.943	0.8642
596.136	0.8662
596.329	0.8681
596.522	0.8701
596.715	0.8719
596.907	0.8737
597.1	0.8756
597.293	0.8774
597.486	0.8793
597.679	0.8811
597.872	0.883
598.065	0.8848
598.258	0.8866
598.45	0.8883
598.643	0.89
598.836	0.8917
599.029	0.8933
599.222	0.8949
599.414	0.8965
599.607	0.898
599.8	0.8996
599.992	0.9011
600.185	0.9026
600.378	0.904
600.571	0.9054
600.763	0.9067
600.956	0.908
601.148	0.9092
601.341	0.9105
601.534	0.9117
601.726	0.9129
601.919	0.9142
602.111	0.9153
602.304	0.9166
602.496	0.9179
602.689	0.9191
602.881	0.9203
603.074	0.9215
603.266	0.9227
603.459	0.9237
603.651	0.9247
603.844	0.9257
604.036	0.9267
604.229	0.9276
604.421	0.9287
604.613	0.9296
604.806	0.9304
604.998	0.9313
605.19	0.9321
605.383	0.9328
605.575	0.9334
605.767	0.9341
605.96	0.9347
606.152	0.9353
606.344	0.9359
606.536	0.9367
606.729	0.9373
606.921	0.9379
607.113	0.9385
607.305	0.939
607.497	0.9394
607.69	0.9399
607.882	0.9403
608.074	0.9407
608.266	0.941
608.458	0.9412
608.65	0.9415
608.842	0.9418
609.034	0.9419
609.226	0.942
609.418	0.9421
609.61	0.9421
609.802	0.9422
609.994	0.9422
610.186	0.9421
610.378	0.9419
610.57	0.9417
610.762	0.9414
610.954	0.9411
611.146	0.9408
611.338	0.9405
611.53	0.9403
611.722	0.94
611.913	0.9397
612.105	0.9392
612.297	0.9387
612.489	0.9381
612.681	0.9374
612.873	0.9367
613.064	0.9359
613.256	0.9352
613.448	0.9344
613.639	0.9336
613.831	0.9328
614.023	0.9318
614.215	0.9308
614.406	0.9299
614.598	0.9289
614.79	0.9278
614.981	0.9267
615.173	0.9256
615.364	0.9245
615.556	0.9232
615.748	0.922
615.939	0.9208
616.131	0.9195
616.322	0.9182
616.514	0.9169
616.705	0.9156
616.897	0.9141
617.088	0.9126
617.28	0.9111
617.471	0.9096
617.662	0.9079
617.854	0.9062
618.045	0.9045
618.237	0.9028
618.428	0.901
618.619	0.8992
618.811	0.8973
619.002	0.8954
619.193	0.8934
619.385	0.8914
619.576	0.8893
619.767	0.8871
619.958	0.885
620.15	0.8827
620.341	0.8804
620.532	0.8781
620.723	0.8757
620.914	0.8734
621.106	0.871
621.297	0.8685
621.488	0.8661
621.679	0.8636
621.87	0.8612
622.061	0.8587
622.252	0.8561
622.443	0.8534
622.635	0.8508
622.826	0.8481
623.017	0.8454
623.208	0.8427
623.399	0.84
623.59	0.8374
623.781	0.8348
623.972	0.8322
624.162	0.8294
624.353	0.8266
624.544	0.8238
624.735	0.821
624.926	0.8181
625.117	0.8153
625.308	0.8124
625.499	0.8093
625.69	0.8063
625.88	0.8032
626.071	0.8
626.262	0.7968
626.453	0.7935
626.643	0.7902
626.834	0.7869
627.025	0.7835
627.216	0.7801
627.406	0.7767
627.597	0.7733
627.788	0.7699
627.978	0.7665
628.169	0.763
628.36	0.7596
628.55	0.7561
628.741	0.7526
628.931	0.749
629.122	0.7454
629.313	0.7419
629.503	0.7384
629.694	0.7347
629.884	0.731
630.075	0.7273
630.265	0.7237
630.456	0.72
630.646	0.7163
630.837	0.7125
631.027	0.7089
631.217	0.7052
631.408	0.7015
631.598	0.6979
631.789	0.6942
631.979	0.6904
632.169	0.6865
632.36	0.6826
632.55	0.6787
632.74	0.6747
632.93	0.6707
633.121	0.6667
633.311	0.6626
633.501	0.6586
633.691	0.6546
633.882	0.6505
634.072	0.6464
634.262	0.6423
634.452	0.6382
634.642	0.6343
634.833	0.6303
635.023	0.6263
635.213	0.6224
635.403	0.6184
635.593	0.6144
635.783	0.6105
635.973	0.6066
636.163	0.6026
636.353	0.5986
636.543	0.5947
636.733	0.5908
636.923	0.5869
637.113	0.583
637.303	0.5792
637.493	0.5752
637.683	0.5713
637.873	0.5674
638.063	0.5634
638.253	0.5595
638.442	0.5556
638.632	0.5517
638.822	0.5478
639.012	0.5439
639.202	0.54
639.392	0.536
639.581	0.5321
639.771	0.5281
639.961	0.5243
640.151	0.5204
640.34	0.5166
640.53	0.5127
640.72	0.5089
640.909	0.505
641.099	0.5011
641.289	0.4972
641.478	0.4934
641.668	0.4895
641.858	0.4856
642.047	0.4817
642.237	0.4779
642.426	0.474
642.616	0.4702
642.805	0.4664
642.995	0.4626
643.184	0.4587
643.374	0.4549
643.563	0.4511
643.753	0.4472
643.942	0.4435
644.132	0.4399
644.321	0.4362
644.51	0.4326
644.7	0.4289
644.889	0.4253
645.079	0.4216
645.268	0.4179
645.457	0.4142
645.647	0.4106
645.836	0.4069
646.025	0.4033
646.214	0.3996
646.404	0.396
646.593	0.3924
646.782	0.3889
646.971	0.3855
647.161	0.3821
647.35	0.3786
647.539	0.3753
647.728	0.372
647.917	0.3687
648.106	0.3655
648.295	0.3622
648.485	0.359
648.674	0.3556
648.863	0.3523
649.052	0.3491
649.241	0.3459
649.43	0.3428
649.619	0.3397
649.808	0.3367
649.997	0.3336
650.186	0.3306
650.375	0.3275
650.564	0.3244
650.752	0.3213
650.941	0.3183
651.13	0.3153
651.319	0.3122
651.508	0.3092
651.697	0.3061
651.886	0.3031
652.074	0.2998
652.263	0.2952
652.452	0.2623
652.641	0.2323
652.83	0.207
653.018	0.1854
653.207	0.1667
653.396	0.1504
653.584	0.136
653.773	0.1233
653.962	0.1119
654.15	0.1016
654.339	0.0924
654.528	0.0839
654.716	0.0762
654.905	0.0691
655.093	0.0626
655.282	0.0566
655.471	0.051
655.659	0.0459
655.848	0.0481
656.036	0.0581
656.225	0.0682
656.413	0.0783
656.602	0.0884
656.79	0.0983
656.978	0.108
657.167	0.1176
657.355	0.127
657.544	0.1362
657.732	0.1452
657.92	0.1539
658.109	0.1618
658.297	0.1772
658.485	0.1941
658.674	0.2116
658.862	0.2256
659.05	0.235
659.238	0.245
659.427	0.2557
659.615	0.2671
659.803	0.2795
659.991	0.2927
660.179	0.3072
660.368	0.3229
660.556	0.3401
660.744	0.359
660.932	0.38
661.12	0.4033
661.308	0.4295
661.496	0.459
661.684	0.4707
661.872	0.4588
662.06	0.4449
662.248	0.4298
662.436	0.4134
662.624	0.396
662.812	0.3778
663	0.3586
663.188	0.3384
663.376	0.3173
663.564	0.2952
663.752	0.2719
663.94	0.2474
664.128	0.2214
664.315	0.1938
664.503	0.1647
664.691	0.147
664.879	0.1451
665.067	0.1435
665.255	0.1418
665.442	0.1401
665.63	0.1385
665.818	0.1369
666.005	0.1353
666.193	0.1338
666.381	0.1322
666.568	0.1307
666.756	0.1291
666.944	0.1276
667.131	0.1261
667.319	0.1246
667.507	0.1231
667.694	0.1217
667.882	0.1202
668.069	0.1187
668.257	0.1172
668.444	0.1158
668.632	0.1143
668.819	0.1128
669.007	0.1115
669.194	0.11
669.382	0.1087
669.569	0.1073
669.757	0.1059
669.944	0.1045
670.131	0.1033
670.319	0.102
670.506	0.1008
670.693	0.0996
670.881	0.0984
671.068	0.0974
671.255	0.0963
671.443	0.0952
671.63	0.0942
671.817	0.0931
672.004	0.0921
672.191	0.091
672.379	0.09
672.566	0.089
672.753	0.088
672.94	0.0871
673.127	0.0861
673.314	0.0851
673.502	0.0841
673.689	0.0831
673.876	0.0822
674.063	0.0813
674.25	0.0803
674.437	0.0794
674.624	0.0785
674.811	0.0776
674.998	0.0767
675.185	0.0757
675.372	0.0748
675.559	0.0739
675.746	0.0731
675.933	0.0723
676.119	0.0714
676.306	0.0706
676.493	0.0698
676.68	0.0689
676.867	0.068
677.054	0.0671
677.241	0.0662
677.427	0.0654
677.614	0.0647
677.801	0.0639
677.988	0.0631
678.174	0.0625
678.361	0.0618
678.548	0.0611
678.734	0.0604
678.921	0.0597
679.108	0.0592
679.294	0.0586
679.481	0.058
679.668	0.0574
679.854	0.0568
680.041	0.0562
680.227	0.0556
680.414	0.0549
680.6	0.0543
680.787	0.0537
680.973	0.0531
681.16	0.0524
681.346	0.0518
681.533	0.0512
681.719	0.0506
681.906	0.05
682.092	0.0494
682.278	0.0488
682.465	0.0483
682.651	0.0478
682.838	0.0473
683.024	0.0468
683.21	0.0462
683.396	0.0457
683.583	0.0451
683.769	0.0446
683.955	0.0441
684.142	0.0435
684.328	0.043
684.514	0.0426
684.7	0.0421
684.886	0.0416
685.073	0.0412
685.259	0.0407
685.445	0.0403
685.631	0.0399
685.817	0.0394
686.003	0.0391
686.189	0.0387
686.375	0.0384
686.561	0.038
686.747	0.0377
686.933	0.0374
687.119	0.0371
687.305	0.0367
687.491	0.0363
687.677	0.036
687.863	0.0357
688.049	0.0352
688.235	0.0348
688.421	0.0345
688.607	0.0342
688.793	0.0338
688.978	0.0335
689.164	0.0331
689.35	0.0328
689.536	0.0326
689.722	0.0324
689.907	0.0321
690.093	0.0318
690.279	0.0314
690.465	0.0311
690.65	0.0307
690.836	0.0303
691.022	0.0299
691.207	0.0296
691.393	0.0292
691.578	0.0289
691.764	0.0285
691.95	0.0282
692.135	0.0278
692.321	0.0275
692.506	0.0273
692.692	0.027
692.877	0.0267
693.063	0.0264
693.248	0.0261
693.434	0.0259
693.619	0.0256
693.805	0.0253
693.99	0.0251
694.176	0.0249
694.361	0.0247
694.546	0.0244
694.732	0.0242
694.917	0.0239
695.102	0.0237
695.288	0.0234
695.473	0.0231
695.658	0.0229
695.843	0.0227
696.029	0.0226
696.214	0.0223
696.399	0.0222
696.584	0.022
696.77	0.0219
696.955	0.0218
697.14	0.0217
697.325	0.0217
697.51	0.0215
697.695	0.0214
697.88	0.0213
698.065	0.0211
698.251	0.0209
698.436	0.0207
698.621	0.0206
698.806	0.0204
698.991	0.0203
699.176	0.0201
699.361	0.0199
699.546	0.0197
699.73	0.0195
699.915	0.0193
700.1	0.0192
700.285	0.019
700.47	0.0189
700.655	0.0189
700.84	0.0187
701.025	0.0184
701.209	0.0182
701.394	0.0179
701.579	0.0177
701.764	0.0175
701.948	0.0174
702.133	0.0173
702.318	0.0171
702.503	0.0169
702.687	0.0168
702.872	0.0166
703.057	0.0165
703.241	0.0164
703.426	0.0163
703.61	0.0161
703.795	0.016
703.98	0.0159
704.164	0.0158
704.349	0.0157
704.533	0.0156
704.718	0.0155
704.902	0.0154
705.087	0.0154
705.271	0.0154
705.456	0.0152
705.64	0.0151
705.825	0.015
706.009	0.015
706.193	0.0149
706.378	0.0147
706.562	0.0147
706.746	0.0147
706.931	0.0146
707.115	0.0146
707.299	0.0146
707.484	0.0146
707.668	0.0145
707.852	0.0145
708.036	0.0145
708.221	0.0145
708.405	0.0145
708.589	0.0145
708.773	0.0144
708.957	0.0144
709.141	0.0143
709.326	0.0142
709.51	0.0141
709.694	0.014
709.878	0.0139
710.062	0.0139
710.246	0.0139
710.43	0.0138
710.614	0.0137
710.798	0.0136
710.982	0.0135
711.166	0.0134
711.35	0.0132
711.534	0.0131
711.718	0.013
711.902	0.0129
712.085	0.0128
712.269	0.0127
712.453	0.0125
712.637	0.0125
712.821	0.0124
713.005	0.0123
713.188	0.0122
713.372	0.0121
713.556	0.0119
713.74	0.0118
713.923	0.0117
714.107	0.0116
714.291	0.0115
714.474	0.0113
714.658	0.0112
714.842	0.0111
715.025	0.0111
715.209	0.011
715.393	0.011
715.576	0.011
715.76	0.011
715.943	0.0109
716.127	0.0109
716.31	0.0108
716.494	0.0107
716.677	0.0108
716.861	0.0108
717.044	0.0108
717.228	0.0107
717.411	0.0106
717.594	0.0105
717.778	0.0104
717.961	0.0103
718.145	0.0103
718.328	0.0103
718.511	0.0103
718.695	0.0103
718.878	0.0102
719.061	0.0102
719.244	0.0101
719.428	0.0101
719.611	0.0101
719.794	0.01
719.977	0.01
720.16	0.01
720.344	0.01
720.527	0.01
720.71	0.0101
720.893	0.0102
721.076	0.0101
721.259	0.0101
721.442	0.01
721.625	0.0099
721.808	0.0099
721.991	0.0099
722.174	0.0099
722.357	0.0098
722.54	0.0097
722.723	0.0097
722.906	0.0097
723.089	0.0097
723.272	0.0098
723.455	0.0098
723.638	0.0098
723.821	0.0098
724.003	0.0098
724.186	0.0097
724.369	0.0097
724.552	0.0097
724.735	0.0097
724.917	0.0098
725.1	0.0098
725.283	0.0097
725.466	0.0097
725.648	0.0097
725.831	0.0097
726.014	0.0097
726.196	0.0097
726.379	0.0097
726.562	0.0096
726.744	0.0096
726.927	0.0096
727.109	0.0096
727.292	0.0095
727.474	0.0094
727.657	0.0093
727.839	0.0092
728.022	0.0092
728.204	0.0093
728.387	0.0093
728.569	0.0092
728.752	0.0092
728.934	0.0092
729.116	0.0091
729.299	0.0092
729.481	0.0092
729.664	0.0092
729.846	0.0092
730.028	0.0091
730.21	0.0091
730.393	0.0091
730.575	0.009
730.757	0.0089
730.939	0.0089
731.122	0.0088
731.304	0.0088
731.486	0.0087
731.668	0.0086
731.85	0.0086
732.032	0.0086
732.215	0.0086
732.397	0.0086
732.579	0.0087
732.761	0.0087
732.943	0.0088
733.125	0.0088
733.307	0.0088
733.489	0.0089
733.671	0.0089
733.853	0.0088
734.035	0.0089
734.217	0.0089
734.399	0.0089
734.581	0.0089
734.762	0.0088
734.944	0.0088
735.126	0.0088
735.308	0.0089
735.49	0.0089
735.672	0.0089
735.853	0.009
736.035	0.009
736.217	0.009
736.399	0.009
736.58	0.009
736.762	0.0091
736.944	0.0091
737.126	0.0092
737.307	0.0092
737.489	0.0092
737.67	0.0091
737.852	0.0091
738.034	0.009
738.215	0.009
738.397	0.009
738.578	0.0089
738.76	0.0089
738.941	0.0089
739.123	0.0088
739.304	0.0088
739.486	0.0088
739.667	0.0087
739.849	0.0087
740.03	0.0087
740.211	0.0087
740.393	0.0087
740.574	0.0087
740.756	0.0086
740.937	0.0085
741.118	0.0085
741.299	0.0085
741.481	0.0084
741.662	0.0083
741.843	0.0082
742.025	0.0082
742.206	0.0082
742.387	0.0081
742.568	0.008
742.749	0.0079
742.93	0.0079
743.112	0.008
743.293	0.008
743.474	0.008
743.655	0.008
743.836	0.008
744.017	0.008
744.198	0.008
744.379	0.008
744.56	0.008
744.741	0.0079
744.922	0.0078
745.103	0.0078
745.284	0.0078
745.465	0.0078
745.646	0.0077
745.827	0.0076
746.007	0.0076
746.188	0.0076
746.369	0.0076
746.55	0.0076
746.731	0.0075
746.911	0.0074
747.092	0.0074
747.273	0.0074
747.454	0.0074
747.634	0.0073
747.815	0.0073
747.996	0.0074
748.177	0.0074
748.357	0.0074
748.538	0.0074
748.718	0.0073
748.899	0.0073
749.08	0.0073
749.26	0.0073
749.441	0.0073
749.621	0.0073
749.802	0.0073
749.982	0.0073
750.163	0.0073
750.343	0.0073
750.524	0.0073
750.704	0.0073
750.885	0.0072
751.065	0.0072
751.245	0.0071
751.426	0.0071
751.606	0.0071
751.786	0.007
751.967	0.0069
752.147	0.0069
752.327	0.007
752.508	0.0071
752.688	0.0071
752.868	0.0071
753.048	0.0072
753.229	0.0072
753.409	0.0072
753.589	0.0073
753.769	0.0073
753.949	0.0072
754.129	0.0073
754.309	0.0072
754.489	0.0072
754.67	0.0071
754.85	0.0071
755.03	0.007
755.21	0.007
755.39	0.007
755.57	0.007
755.75	0.007
755.93	0.007
756.11	0.007
756.289	0.007
756.469	0.0071
756.649	0.007
756.829	0.0071
757.009	0.007
757.189	0.0071
757.369	0.0072
757.548	0.0072
757.728	0.0072
757.908	0.0072
758.088	0.0072
758.267	0.0072
758.447	0.0072
758.627	0.0072
758.807	0.0071
758.986	0.0071
759.166	0.0071
759.346	0.0071
759.525	0.007
759.705	0.007
759.884	0.007
760.064	0.007
760.243	0.0071
760.423	0.0071
760.603	0.0072
760.782	0.0071
760.962	0.0072
761.141	0.0072
761.32	0.0074
761.5	0.0075
761.679	0.0076
761.859	0.0076
762.038	0.0076
762.217	0.0077
762.397	0.0078
762.576	0.0079
762.755	0.0078
762.935	0.0078
763.114	0.0077
763.293	0.0078
763.473	0.0078
763.652	0.0077
763.831	0.0076
764.01	0.0076
764.189	0.0076
764.369	0.0076
764.548	0.0076
764.727	0.0077
764.906	0.0077
765.085	0.0078
765.264	0.0078
765.443	0.0078
765.622	0.0077
765.801	0.0076
765.98	0.0076
766.159	0.0075
766.338	0.0074
766.517	0.0074
766.696	0.0073
766.875	0.0071
767.054	0.007
767.233	0.0068
767.412	0.0067
767.591	0.0066
767.769	0.0066
767.948	0.0065
768.127	0.0065
768.306	0.0065
768.485	0.0065
768.663	0.0066
768.842	0.0066
769.021	0.0066
769.2	0.0066
769.378	0.0067
769.557	0.0067
769.736	0.0067
769.914	0.0067
770.093	0.0066
770.271	0.0065
770.45	0.0065
770.629	0.0065
770.807	0.0065
770.986	0.0064
771.164	0.0065
771.343	0.0065
771.521	0.0065
771.7	0.0065
771.878	0.0066
772.057	0.0066
772.235	0.0066
772.413	0.0067
772.592	0.0067
772.77	0.0069
772.948	0.0071
773.127	0.0072
773.305	0.0072
773.483	0.0071
773.662	0.0072
773.84	0.0073
774.018	0.0072
774.196	0.0071
774.375	0.007
774.553	0.0071
774.731	0.0071
774.909	0.0071
775.087	0.0071
775.265	0.0071
775.444	0.0072
775.622	0.0073
775.8	0.0073
775.978	0.0072
776.156	0.0071
776.334	0.0071
776.512	0.0072
776.69	0.0072
776.868	0.0073
777.046	0.0074
777.224	0.0074
777.402	0.0074
777.58	0.0074
777.757	0.0074
777.935	0.0074
778.113	0.0074
778.291	0.0073
778.469	0.0072
778.647	0.0071
778.824	0.007
779.002	0.0069
779.18	0.0068
779.358	0.0068
779.535	0.0068
779.713	0.0068
779.891	0.0068
780.068	0.0067
780.246	0.0067
780.424	0.0067
780.601	0.0067
780.779	0.0067
780.957	0.0067
781.134	0.0066
781.312	0.0066
781.489	0.0067
781.667	0.0068
781.844	0.0068
782.022	0.0068
782.199	0.0068
782.377	0.0068
782.554	0.0068
782.731	0.0068
782.909	0.0068
783.086	0.0068
783.264	0.0068
783.441	0.0068
783.618	0.0068
783.795	0.0067
783.973	0.0067
784.15	0.0068
784.327	0.0069
784.505	0.007
784.682	0.0069
784.859	0.0069
785.036	0.0069
785.213	0.0069
785.39	0.007
785.568	0.007
785.745	0.007
785.922	0.0069
786.099	0.0069
786.276	0.0069
786.453	0.0069
786.63	0.0068
786.807	0.0066
786.984	0.0065
787.161	0.0064
787.338	0.0063
787.515	0.0062
787.692	0.0062
787.869	0.0061
788.046	0.006
788.222	0.0059
788.399	0.0058
788.576	0.0057
788.753	0.0056
788.93	0.0055
789.107	0.0054
789.283	0.0054
789.46	0.0054
789.637	0.0054
789.814	0.0053
789.99	0.0054
790.167	0.0053
790.344	0.0052
790.52	0.0052
790.697	0.0052
790.873	0.0053
791.05	0.0054
791.227	0.0055
791.403	0.0056
791.58	0.0055
791.756	0.0055
791.933	0.0056
792.109	0.0056
792.286	0.0057
792.462	0.0058
792.639	0.0059
792.815	0.006
792.991	0.0061
793.168	0.0061
793.344	0.0062
793.521	0.0062
793.697	0.0062
793.873	0.0062
794.049	0.0061
794.226	0.0062
794.402	0.0063
794.578	0.0063
794.754	0.0063
794.931	0.0062
795.107	0.006
795.283	0.006
795.459	0.006
795.635	0.0061
795.811	0.0061
795.988	0.0062
796.164	0.0062
796.34	0.0062
796.516	0.0061
796.692	0.006
796.868	0.0059
797.044	0.0059
797.22	0.0058
797.396	0.0057
797.572	0.0056
797.748	0.0055
797.924	0.0055
798.099	0.0055
798.275	0.0054
798.451	0.0053
798.627	0.0053
798.803	0.0053
798.979	0.0053
799.154	0.0053
799.33	0.0054
799.506	0.0054
799.682	0.0055
799.857	0.0054
800.033	0.0055
800.209	0.0055
800.385	0.0056
800.56	0.0058
800.736	0.0059
800.911	0.0059
801.087	0.0059
801.263	0.0059
801.438	0.0058
801.614	0.0058
801.789	0.0058
801.965	0.0058
802.14	0.0058
802.316	0.0058
802.491	0.0058
802.667	0.0058
802.842	0.0058
803.017	0.0059
803.193	0.006
803.368	0.0059
803.543	0.006
803.719	0.0059
803.894	0.0059
804.069	0.0059
804.245	0.0058
804.42	0.0057
804.595	0.0057
804.77	0.0057
804.946	0.0058
805.121	0.0059
805.296	0.006
805.471	0.006
805.646	0.006
805.821	0.0061
805.997	0.0061
806.172	0.006
806.347	0.006
806.522	0.006
806.697	0.0061
806.872	0.0061
807.047	0.0061
807.222	0.0061
807.397	0.0061
807.572	0.006
807.747	0.006
807.921	0.0061
808.096	0.0062
808.271	0.0062
808.446	0.0062
808.621	0.0062
808.796	0.0063
808.971	0.0063
809.145	0.0064
809.32	0.0064
809.495	0.0065
809.67	0.0065
809.844	0.0066
810.019	0.0065
810.194	0.0066
810.368	0.0065
810.543	0.0064
810.718	0.0065
810.892	0.0065
811.067	0.0066
811.241	0.0066
811.416	0.0065
811.59	0.0065
811.765	0.0066
811.939	0.0065
812.114	0.0065
812.288	0.0065
812.463	0.0065
812.637	0.0065
812.812	0.0066
812.986	0.0065
813.16	0.0065
813.335	0.0065
813.509	0.0064
813.683	0.0065
813.858	0.0065
814.032	0.0065
814.206	0.0065
814.381	0.0066
814.555	0.0066
814.729	0.0066
814.903	0.0065
815.077	0.0065
815.252	0.0065
815.426	0.0066
815.6	0.0066
815.774	0.0067
815.948	0.0066
816.122	0.0065
816.296	0.0063
816.47	0.0061
816.644	0.0059
816.818	0.0058
816.992	0.0057
817.166	0.0057
817.34	0.0056
817.514	0.0057
817.688	0.0057
817.862	0.0058
818.036	0.0058
818.209	0.0058
818.383	0.0061
818.557	0.0061
818.731	0.0062
818.905	0.0063
819.078	0.0062
819.252	0.0062
819.426	0.006
819.6	0.0059
819.773	0.0058
819.947	0.0057
820.121	0.0057
820.294	0.0056
820.468	0.0055
820.642	0.0055
820.815	0.0054
820.989	0.0055
821.162	0.0055
821.336	0.0056
821.509	0.0056
821.683	0.0058
821.856	0.006
822.03	0.0062
822.203	0.0063
822.377	0.0063
822.55	0.0063
822.723	0.0062
822.897	0.0061
823.07	0.0061
823.243	0.0061
823.417	0.006
823.59	0.0059
823.763	0.0057
823.937	0.0057
824.11	0.0056
824.283	0.0055
824.456	0.0055
824.629	0.0056
824.803	0.0058
824.976	0.0059
825.149	0.0059
825.322	0.0059
825.495	0.0059
825.668	0.0059
825.841	0.0059
826.014	0.0058
826.187	0.0057
826.36	0.0056
826.533	0.0055
826.706	0.0054
826.879	0.0054
827.052	0.0052
827.225	0.0051
827.398	0.0051
827.571	0.0051
827.744	0.005
827.917	0.0051
828.089	0.0051
828.262	0.005
828.435	0.005
828.608	0.005
828.781	0.0051
828.953	0.0052
829.126	0.0053
829.299	0.0054
829.471	0.0054
829.644	0.0055
829.817	0.0055
829.989	0.0056
830.162	0.0055
830.335	0.0054
830.507	0.0054
830.68	0.0056
830.852	0.0056
831.025	0.0056
831.197	0.0056
831.37	0.0057
831.542	0.0058
831.715	0.0058
831.887	0.0058
832.059	0.0058
832.232	0.0058
832.404	0.0059
832.577	0.0058
832.749	0.0058
832.921	0.0059
833.093	0.0061
833.266	0.0062
833.438	0.0063
833.61	0.0065
833.782	0.0065
833.955	0.0065
834.127	0.0064
834.299	0.0063
834.471	0.0062
834.643	0.006
834.815	0.006
834.988	0.006
835.16	0.006
835.332	0.0058
835.504	0.0057
835.676	0.0058
835.848	0.0059
836.02	0.0058
836.192	0.0058
836.364	0.0059
836.536	0.0059
836.708	0.006
836.879	0.0059
837.051	0.0057
837.223	0.0056
837.395	0.0056
837.567	0.0054
837.739	0.0053
837.91	0.0052
838.082	0.0051
838.254	0.005
838.426	0.0048
838.597	0.0046
838.769	0.0045
838.941	0.0043
839.112	0.0042
839.284	0.0042
839.456	0.0042
839.627	0.0044
839.799	0.0045
839.97	0.0045
840.142	0.0046
840.314	0.0047
840.485	0.0047
840.657	0.0048
840.828	0.0048
840.999	0.0048
841.171	0.0048
841.342	0.0048
841.514	0.0047
841.685	0.0047
841.856	0.0049
842.028	0.0047
842.199	0.0049
842.37	0.0051
842.542	0.0053
842.713	0.0053
842.884	0.0055
843.056	0.0055
843.227	0.0058
843.398	0.006
843.569	0.006
843.74	0.0061
843.911	0.006
844.083	0.0061
844.254	0.0062
844.425	0.0062
844.596	0.0061
844.767	0.0061
844.938	0.006
845.109	0.0059
845.28	0.0059
845.451	0.0058
845.622	0.0057
845.793	0.0057
845.964	0.0057
846.135	0.0057
846.305	0.0057
846.476	0.0058
846.647	0.0058
846.818	0.0057
846.989	0.0058
847.16	0.0056
847.33	0.0056
847.501	0.0056
847.672	0.0056
847.843	0.0056
848.013	0.0056
848.184	0.0056
848.355	0.0057
848.525	0.0057
848.696	0.0056
848.867	0.0056
849.037	0.0057
849.208	0.0059
849.378	0.0059
849.549	0.0059
849.719	0.006
849.89	0.006
850.06	0.0061
850.231	0.0061
850.401	0.0061
850.572	0.0062
850.742	0.0061
850.912	0.0062
851.083	0.0062
851.253	0.0061
851.423	0.006
851.594	0.0059
851.764	0.0058
851.934	0.0058
852.104	0.0059
852.275	0.0058
852.445	0.0059
852.615	0.0059
852.785	0.006
852.955	0.0059
853.126	0.0059
853.296	0.006
853.466	0.006
853.636	0.0059
853.806	0.0059
853.976	0.0059
854.146	0.0059
854.316	0.0059
854.486	0.0059
854.656	0.0058
854.826	0.0058
854.996	0.0059
855.166	0.0058
855.336	0.0056
855.506	0.0056
855.675	0.0055
855.845	0.0055
856.015	0.0054
856.185	0.0053
856.355	0.0053
856.525	0.0053
856.694	0.0052
856.864	0.0052
857.034	0.0053
857.203	0.0053
857.373	0.0052
857.543	0.0054
857.712	0.0055
857.882	0.0057
858.052	0.0058
858.221	0.0059
858.391	0.0059
858.56	0.0059
858.73	0.006
858.899	0.0061
859.069	0.0063
859.238	0.0065
859.408	0.0066
859.577	0.0068
859.747	0.0069
859.916	0.007
860.085	0.0069
860.255	0.0069
860.424	0.0071
860.593	0.0073
860.763	0.0073
860.932	0.0075
861.101	0.0074
861.27	0.0078
861.44	0.008
861.609	0.008
861.778	0.0081
861.947	0.0083
862.116	0.0082
862.285	0.0082
862.455	0.0082
862.624	0.0084
862.793	0.0081
862.962	0.008
863.131	0.0076
863.3	0.0076
863.469	0.0074
863.638	0.0073
863.807	0.0072
863.976	0.0071
864.145	0.0068
864.314	0.0065
864.482	0.0062
864.651	0.0061
864.82	0.0059
864.989	0.0057
865.158	0.0055
865.327	0.0053
865.495	0.0052
865.664	0.0051
865.833	0.0052
866.002	0.0052
866.17	0.0052
866.339	0.0052
866.508	0.0049
866.676	0.0048
866.845	0.0046
867.013	0.0046
867.182	0.0046
867.351	0.0047
867.519	0.0048
867.688	0.0049
867.856	0.0048
868.025	0.005
868.193	0.0049
868.362	0.0051
868.53	0.005
868.698	0.0053
868.867	0.0054
869.035	0.0056
869.203	0.0058
869.372	0.006
869.54	0.0061
869.708	0.0061
869.877	0.0062
870.045	0.0062
870.213	0.0063
870.381	0.0065
870.55	0.0067
870.718	0.0068
870.886	0.0069
871.054	0.0067
871.222	0.0066
871.39	0.0064
871.558	0.0065
871.727	0.0066
871.895	0.0066
872.063	0.0068
872.231	0.0069
872.399	0.0069
872.567	0.0069
872.735	0.0069
872.902	0.0068
873.07	0.0067
873.238	0.0066
873.406	0.0067
873.574	0.0065
873.742	0.0064
873.91	0.0062
874.077	0.006
874.245	0.0059
874.413	0.0057
874.581	0.0055
874.749	0.0055
874.916	0.0056
875.084	0.0056
875.252	0.0055
875.419	0.0054
875.587	0.0054
875.754	0.0054
875.922	0.0053
876.09	0.0053
876.257	0.0053
876.425	0.0054
876.592	0.0056
876.76	0.0055
876.927	0.0054
877.095	0.0054
877.262	0.005
877.43	0.0048
877.597	0.0046
877.764	0.0047
877.932	0.0046
878.099	0.0046
878.266	0.0049
878.434	0.0049
878.601	0.0051
878.768	0.0053
878.935	0.0056
879.103	0.0057
879.27	0.0059
879.437	0.0059
879.604	0.0061
879.771	0.0062
879.939	0.0063
880.106	0.0064
880.273	0.0064
880.44	0.0065
880.607	0.0066
880.774	0.0068
880.941	0.0069
881.108	0.0071
881.275	0.0071
881.442	0.0071
881.609	0.0071
881.776	0.0069
881.943	0.0069
882.11	0.007
882.276	0.007
882.443	0.0073
882.61	0.0076
882.777	0.0079
882.944	0.0081
883.11	0.0083
883.277	0.0084
883.444	0.0083
883.611	0.0084
883.777	0.0083
883.944	0.0081
884.111	0.008
884.277	0.008
884.444	0.0081
884.61	0.0081
884.777	0.008
884.944	0.0079
885.11	0.0081
885.277	0.0079
885.443	0.008
885.61	0.008
885.776	0.008
885.942	0.0077
886.109	0.0076
886.275	0.0074
886.442	0.0073
