Data from TB_Absorbance_05.txt Node
Date: Mon Nov 13 17:20:38 CET 2023
User: student
Spectrometer: USB4F03453
Autoset integration time: false
Trigger mode: 4
Integration Time (sec): 1.800000E-2
Scans to average: 60
Electric dark correction enabled: true
Nonlinearity correction enabled: false
Boxcar width: 15
XAxis mode: Wavelengths
Stop averaging: false
Number of Pixels in Spectrum: 3648
>>>>>Begin Spectral Data<<<<<
179.221	-0
179.435	-0
179.649	0.4187
179.863	0.3296
180.076	0.3622
180.29	0.3872
180.504	0.4169
180.718	0.4088
180.931	0.4064
181.145	0.4093
181.359	0.4131
181.572	0.4262
181.786	0.4356
182	0.4288
182.213	0.4284
182.427	0.4285
182.641	0.4247
182.854	0.4284
183.068	0.4286
183.282	0.4262
183.495	0.4241
183.709	0.4197
183.922	0.4234
184.136	0.4257
184.35	0.4267
184.563	0.4352
184.777	0.4403
184.99	0.4411
185.204	0.4435
185.417	0.4421
185.631	0.4443
185.845	0.4451
186.058	0.4454
186.272	0.4493
186.485	0.4542
186.699	0.457
186.912	0.4604
187.126	0.4628
187.339	0.4696
187.553	0.4757
187.766	0.4806
187.98	0.4877
188.193	0.492
188.407	0.4959
188.62	0.5049
188.834	0.5124
189.047	0.5224
189.26	0.5332
189.474	0.5432
189.687	0.5516
189.901	0.5624
190.114	0.5732
190.327	0.5874
190.541	0.6002
190.754	0.6123
190.968	0.6245
191.181	0.6299
191.394	0.6383
191.608	0.6495
191.821	0.6603
192.034	0.6711
192.248	0.6837
192.461	0.6949
192.674	0.7064
192.888	0.7178
193.101	0.7301
193.314	0.7453
193.528	0.7563
193.741	0.7675
193.954	0.7764
194.168	0.7903
194.381	0.8031
194.594	0.8141
194.807	0.8241
195.021	0.8363
195.234	0.8485
195.447	0.8586
195.66	0.8695
195.874	0.8851
196.087	0.8941
196.3	0.9074
196.513	0.9189
196.726	0.9295
196.94	0.9367
197.153	0.9459
197.366	0.9518
197.579	0.9601
197.792	0.9748
198.005	0.982
198.219	0.9921
198.432	1.0004
198.645	1.0123
198.858	1.0204
199.071	1.0333
199.284	1.0445
199.497	1.0553
199.71	1.0665
199.924	1.0784
200.137	1.0885
200.35	1.097
200.563	1.1074
200.776	1.1123
200.989	1.1198
201.202	1.1283
201.415	1.1363
201.628	1.1452
201.841	1.1524
202.054	1.1618
202.267	1.1704
202.48	1.1743
202.693	1.1829
202.906	1.1913
203.119	1.1994
203.332	1.2095
203.545	1.2193
203.758	1.2254
203.971	1.2344
204.184	1.244
204.397	1.2521
204.61	1.2621
204.823	1.2682
205.036	1.2778
205.249	1.2848
205.462	1.2925
205.674	1.296
205.887	1.3039
206.1	1.3114
206.313	1.3171
206.526	1.3225
206.739	1.3287
206.952	1.3376
207.165	1.3464
207.377	1.3555
207.59	1.3617
207.803	1.3678
208.016	1.3764
208.229	1.3826
208.442	1.3891
208.654	1.3973
208.867	1.403
209.08	1.4117
209.293	1.4178
209.506	1.4243
209.718	1.4315
209.931	1.4354
210.144	1.4373
210.357	1.4418
210.569	1.4472
210.782	1.4496
210.995	1.4521
211.207	1.4545
211.42	1.4592
211.633	1.46
211.846	1.4647
212.058	1.4666
212.271	1.4703
212.484	1.4717
212.696	1.4715
212.909	1.472
213.122	1.4712
213.334	1.4721
213.547	1.4704
213.76	1.4682
213.972	1.4665
214.185	1.4672
214.397	1.465
214.61	1.4614
214.823	1.4578
215.035	1.455
215.248	1.4504
215.46	1.4463
215.673	1.4415
215.885	1.4369
216.098	1.431
216.311	1.425
216.523	1.4197
216.736	1.4146
216.948	1.4082
217.161	1.4015
217.373	1.3952
217.586	1.3877
217.798	1.38
218.011	1.3713
218.223	1.3629
218.436	1.3532
218.648	1.3444
218.861	1.3349
219.073	1.3248
219.285	1.3144
219.498	1.3046
219.71	1.2942
219.923	1.2828
220.135	1.2719
220.348	1.261
220.56	1.2494
220.772	1.2372
220.985	1.2255
221.197	1.2133
221.41	1.2008
221.622	1.1886
221.834	1.1758
222.047	1.1629
222.259	1.1501
222.471	1.1371
222.684	1.1242
222.896	1.111
223.108	1.0978
223.321	1.0844
223.533	1.0707
223.745	1.0579
223.957	1.0449
224.17	1.0323
224.382	1.0198
224.594	1.007
224.806	0.994
225.019	0.9816
225.231	0.9694
225.443	0.957
225.655	0.945
225.868	0.9328
226.08	0.9206
226.292	0.9079
226.504	0.8963
226.716	0.8843
226.929	0.8728
227.141	0.8613
227.353	0.85
227.565	0.8393
227.777	0.8288
227.989	0.8185
228.202	0.8082
228.414	0.7982
228.626	0.7883
228.838	0.7787
229.05	0.7691
229.262	0.7594
229.474	0.7497
229.686	0.7405
229.898	0.7314
230.11	0.7223
230.322	0.7133
230.534	0.7044
230.747	0.6959
230.959	0.6874
231.171	0.6794
231.383	0.6714
231.595	0.6638
231.807	0.656
232.019	0.6488
232.231	0.6415
232.443	0.6344
232.655	0.6277
232.867	0.6208
233.079	0.6143
233.29	0.6078
233.502	0.6015
233.714	0.5952
233.926	0.5892
234.138	0.5834
234.35	0.5778
234.562	0.5723
234.774	0.567
234.986	0.5618
235.198	0.5567
235.41	0.5518
235.622	0.5471
235.833	0.5425
236.045	0.5379
236.257	0.5335
236.469	0.5292
236.681	0.525
236.893	0.5208
237.104	0.5168
237.316	0.5129
237.528	0.5092
237.74	0.5055
237.952	0.502
238.163	0.4986
238.375	0.4952
238.587	0.4921
238.799	0.489
239.01	0.486
239.222	0.4832
239.434	0.4805
239.646	0.478
239.857	0.4755
240.069	0.4732
240.281	0.4709
240.492	0.4688
240.704	0.4667
240.916	0.4646
241.128	0.4626
241.339	0.4608
241.551	0.4589
241.762	0.4573
241.974	0.4556
242.186	0.4541
242.397	0.4526
242.609	0.4512
242.821	0.4499
243.032	0.4487
243.244	0.4475
243.455	0.4465
243.667	0.4455
243.879	0.4446
244.09	0.4436
244.302	0.4428
244.513	0.442
244.725	0.4414
244.936	0.4408
245.148	0.4403
245.359	0.4398
245.571	0.4393
245.782	0.4389
245.994	0.4386
246.205	0.4383
246.417	0.4382
246.628	0.4381
246.84	0.438
247.051	0.4379
247.263	0.438
247.474	0.4381
247.686	0.4383
247.897	0.4385
248.108	0.4387
248.32	0.439
248.531	0.4393
248.743	0.4397
248.954	0.4401
249.165	0.4405
249.377	0.441
249.588	0.4415
249.8	0.4421
250.011	0.4427
250.222	0.4434
250.434	0.4441
250.645	0.4449
250.856	0.4456
251.067	0.4465
251.279	0.4473
251.49	0.4482
251.701	0.4492
251.913	0.4502
252.124	0.4511
252.335	0.4522
252.546	0.4533
252.758	0.4544
252.969	0.4555
253.18	0.4566
253.391	0.4577
253.603	0.4589
253.814	0.4602
254.025	0.4614
254.236	0.4627
254.447	0.464
254.659	0.4653
254.87	0.4667
255.081	0.468
255.292	0.4694
255.503	0.4708
255.714	0.4722
255.925	0.4737
256.137	0.4752
256.348	0.4767
256.559	0.4783
256.77	0.4798
256.981	0.4814
257.192	0.483
257.403	0.4845
257.614	0.4861
257.825	0.4878
258.036	0.4894
258.247	0.4911
258.458	0.4927
258.669	0.4945
258.88	0.4962
259.091	0.4979
259.302	0.4995
259.513	0.5012
259.724	0.503
259.935	0.5047
260.146	0.5065
260.357	0.5083
260.568	0.51
260.779	0.5117
260.99	0.5135
261.201	0.5154
261.412	0.5172
261.623	0.519
261.834	0.5207
262.045	0.5225
262.256	0.5243
262.467	0.5261
262.677	0.5279
262.888	0.5298
263.099	0.5317
263.31	0.5335
263.521	0.5354
263.732	0.5372
263.943	0.5391
264.153	0.5409
264.364	0.5427
264.575	0.5445
264.786	0.5463
264.997	0.5482
265.207	0.55
265.418	0.5518
265.629	0.5536
265.84	0.5554
266.05	0.5572
266.261	0.5589
266.472	0.5607
266.683	0.5624
266.893	0.5641
267.104	0.5658
267.315	0.5676
267.525	0.5692
267.736	0.5708
267.947	0.5723
268.157	0.5738
268.368	0.5753
268.579	0.5768
268.789	0.5782
269	0.5795
269.211	0.5809
269.421	0.5822
269.632	0.5835
269.842	0.5848
270.053	0.5859
270.264	0.587
270.474	0.588
270.685	0.5891
270.895	0.59
271.106	0.591
271.316	0.5918
271.527	0.5925
271.737	0.5932
271.948	0.5938
272.158	0.5942
272.369	0.5947
272.579	0.5951
272.79	0.5955
273	0.5957
273.211	0.5959
273.421	0.596
273.632	0.596
273.842	0.5959
274.053	0.5958
274.263	0.5956
274.474	0.5953
274.684	0.5949
274.894	0.5944
275.105	0.5938
275.315	0.5932
275.526	0.5924
275.736	0.5915
275.946	0.5906
276.157	0.5896
276.367	0.5885
276.577	0.5872
276.788	0.5859
276.998	0.5845
277.208	0.583
277.419	0.5814
277.629	0.5797
277.839	0.5778
278.049	0.5759
278.26	0.5738
278.47	0.5715
278.68	0.5692
278.89	0.5668
279.101	0.5643
279.311	0.5616
279.521	0.5588
279.731	0.5558
279.942	0.5528
280.152	0.5495
280.362	0.5462
280.572	0.5426
280.782	0.5391
280.992	0.5353
281.203	0.5314
281.413	0.5274
281.623	0.5233
281.833	0.5192
282.043	0.5149
282.253	0.5106
282.463	0.5062
282.674	0.5017
282.884	0.4971
283.094	0.4924
283.304	0.4877
283.514	0.4829
283.724	0.4781
283.934	0.4734
284.144	0.4687
284.354	0.4639
284.564	0.4591
284.774	0.4544
284.984	0.4497
285.194	0.4449
285.404	0.4403
285.614	0.4357
285.824	0.4311
286.034	0.4265
286.244	0.4221
286.454	0.4177
286.664	0.4134
286.874	0.4092
287.084	0.4051
287.294	0.401
287.503	0.3971
287.713	0.3933
287.923	0.3896
288.133	0.386
288.343	0.3826
288.553	0.3792
288.763	0.3761
288.973	0.373
289.182	0.37
289.392	0.3671
289.602	0.3643
289.812	0.3616
290.022	0.359
290.231	0.3565
290.441	0.3542
290.651	0.352
290.861	0.3498
291.071	0.3477
291.28	0.3458
291.49	0.3439
291.7	0.3422
291.91	0.3406
292.119	0.339
292.329	0.3375
292.539	0.336
292.748	0.3347
292.958	0.3334
293.168	0.3322
293.377	0.331
293.587	0.3299
293.797	0.329
294.006	0.328
294.216	0.3271
294.426	0.3263
294.635	0.3255
294.845	0.3248
295.054	0.3241
295.264	0.3234
295.474	0.3228
295.683	0.3222
295.893	0.3218
296.102	0.3214
296.312	0.321
296.521	0.3206
296.731	0.3203
296.94	0.32
297.15	0.3197
297.359	0.3195
297.569	0.3193
297.778	0.3192
297.988	0.319
298.197	0.3189
298.407	0.3188
298.616	0.3188
298.826	0.3188
299.035	0.3188
299.245	0.3188
299.454	0.3189
299.663	0.319
299.873	0.3191
300.082	0.3193
300.292	0.3194
300.501	0.3196
300.71	0.3198
300.92	0.32
301.129	0.3202
301.338	0.3205
301.548	0.3208
301.757	0.3211
301.966	0.3214
302.176	0.3217
302.385	0.322
302.594	0.3223
302.804	0.3227
303.013	0.3232
303.222	0.3236
303.431	0.324
303.641	0.3244
303.85	0.3249
304.059	0.3254
304.268	0.3258
304.477	0.3263
304.687	0.3268
304.896	0.3274
305.105	0.3279
305.314	0.3284
305.523	0.3289
305.733	0.3294
305.942	0.33
306.151	0.3305
306.36	0.331
306.569	0.3317
306.778	0.3322
306.987	0.3328
307.196	0.3334
307.406	0.334
307.615	0.3346
307.824	0.3352
308.033	0.3358
308.242	0.3365
308.451	0.337
308.66	0.3377
308.869	0.3382
309.078	0.3388
309.287	0.3394
309.496	0.34
309.705	0.3406
309.914	0.3412
310.123	0.3419
310.332	0.3425
310.541	0.3431
310.75	0.3437
310.959	0.3443
311.168	0.3449
311.377	0.3454
311.585	0.346
311.794	0.3466
312.003	0.3472
312.212	0.3478
312.421	0.3484
312.63	0.349
312.839	0.3496
313.048	0.3501
313.256	0.3507
313.465	0.3513
313.674	0.3519
313.883	0.3524
314.092	0.3529
314.301	0.3535
314.509	0.3541
314.718	0.3546
314.927	0.3552
315.136	0.3556
315.344	0.3562
315.553	0.3566
315.762	0.3571
315.971	0.3576
316.179	0.358
316.388	0.3584
316.597	0.359
316.805	0.3594
317.014	0.3598
317.223	0.3603
317.431	0.3608
317.64	0.3612
317.849	0.3617
318.057	0.3622
318.266	0.3627
318.475	0.3631
318.683	0.3636
318.892	0.364
319.1	0.3645
319.309	0.3649
319.518	0.3654
319.726	0.3658
319.935	0.3662
320.143	0.3666
320.352	0.367
320.56	0.3674
320.769	0.3676
320.977	0.368
321.186	0.3685
321.394	0.3688
321.603	0.3692
321.811	0.3696
322.02	0.37
322.228	0.3705
322.437	0.3709
322.645	0.3713
322.854	0.3716
323.062	0.372
323.27	0.3723
323.479	0.3727
323.687	0.3731
323.896	0.3734
324.104	0.3737
324.312	0.3741
324.521	0.3745
324.729	0.3749
324.937	0.3752
325.146	0.3755
325.354	0.3758
325.562	0.3761
325.771	0.3764
325.979	0.3767
326.187	0.377
326.396	0.3774
326.604	0.3777
326.812	0.378
327.02	0.3784
327.229	0.3788
327.437	0.3791
327.645	0.3794
327.853	0.3798
328.061	0.3801
328.27	0.3805
328.478	0.3808
328.686	0.3811
328.894	0.3814
329.102	0.3817
329.311	0.3821
329.519	0.3824
329.727	0.3827
329.935	0.383
330.143	0.3833
330.351	0.3836
330.559	0.384
330.767	0.3843
330.975	0.3846
331.183	0.3849
331.392	0.3852
331.6	0.3855
331.808	0.3858
332.016	0.386
332.224	0.3863
332.432	0.3866
332.64	0.3869
332.848	0.3872
333.056	0.3875
333.264	0.3878
333.472	0.3881
333.68	0.3883
333.888	0.3887
334.095	0.389
334.303	0.3893
334.511	0.3896
334.719	0.3899
334.927	0.3902
335.135	0.3906
335.343	0.3909
335.551	0.3912
335.759	0.3915
335.967	0.3918
336.174	0.3921
336.382	0.3924
336.59	0.3927
336.798	0.393
337.006	0.3933
337.213	0.3936
337.421	0.3939
337.629	0.3943
337.837	0.3945
338.045	0.3948
338.252	0.3951
338.46	0.3955
338.668	0.3958
338.876	0.3962
339.083	0.3964
339.291	0.3968
339.499	0.3972
339.706	0.3975
339.914	0.3978
340.122	0.3982
340.329	0.3985
340.537	0.3989
340.745	0.3992
340.952	0.3996
341.16	0.4
341.368	0.4004
341.575	0.4008
341.783	0.4011
341.99	0.4015
342.198	0.4019
342.406	0.4023
342.613	0.4027
342.821	0.4032
343.028	0.4036
343.236	0.4041
343.443	0.4046
343.651	0.405
343.858	0.4054
344.066	0.4059
344.273	0.4064
344.481	0.4069
344.688	0.4074
344.896	0.4079
345.103	0.4084
345.311	0.4089
345.518	0.4094
345.725	0.41
345.933	0.4105
346.14	0.4111
346.348	0.4117
346.555	0.4123
346.762	0.4129
346.97	0.4135
347.177	0.4141
347.384	0.4147
347.592	0.4153
347.799	0.4159
348.006	0.4165
348.214	0.4172
348.421	0.4178
348.628	0.4185
348.836	0.4192
349.043	0.4199
349.25	0.4206
349.457	0.4213
349.665	0.422
349.872	0.4227
350.079	0.4234
350.286	0.4242
350.493	0.425
350.701	0.4258
350.908	0.4266
351.115	0.4274
351.322	0.4283
351.529	0.4291
351.736	0.4299
351.944	0.4307
352.151	0.4316
352.358	0.4324
352.565	0.4333
352.772	0.4341
352.979	0.4351
353.186	0.436
353.393	0.4369
353.6	0.4379
353.807	0.4389
354.014	0.4399
354.221	0.4409
354.428	0.442
354.635	0.443
354.842	0.4441
355.049	0.4451
355.256	0.4462
355.463	0.4473
355.67	0.4483
355.877	0.4495
356.084	0.4505
356.291	0.4517
356.498	0.4529
356.705	0.454
356.912	0.4551
357.119	0.4563
357.326	0.4575
357.533	0.4588
357.74	0.4599
357.946	0.4612
358.153	0.4625
358.36	0.4637
358.567	0.4649
358.774	0.4663
358.981	0.4676
359.187	0.4689
359.394	0.4702
359.601	0.4716
359.808	0.4729
360.014	0.4742
360.221	0.4756
360.428	0.477
360.635	0.4784
360.841	0.4797
361.048	0.4811
361.255	0.4825
361.462	0.4841
361.668	0.4855
361.875	0.487
362.082	0.4885
362.288	0.49
362.495	0.4914
362.702	0.4929
362.908	0.4944
363.115	0.496
363.321	0.4975
363.528	0.4991
363.735	0.5007
363.941	0.5022
364.148	0.5038
364.354	0.5053
364.561	0.5069
364.767	0.5085
364.974	0.5101
365.18	0.5117
365.387	0.5133
365.593	0.5148
365.8	0.5165
366.006	0.5181
366.213	0.5197
366.419	0.5213
366.626	0.5229
366.832	0.5244
367.039	0.5261
367.245	0.5278
367.452	0.5294
367.658	0.531
367.864	0.5326
368.071	0.5343
368.277	0.536
368.483	0.5377
368.69	0.5393
368.896	0.541
369.102	0.5427
369.309	0.5443
369.515	0.5459
369.721	0.5475
369.928	0.5492
370.134	0.5509
370.34	0.5526
370.547	0.5543
370.753	0.556
370.959	0.5577
371.165	0.5594
371.372	0.5611
371.578	0.5629
371.784	0.5648
371.99	0.5666
372.196	0.5683
372.403	0.5701
372.609	0.5719
372.815	0.5735
373.021	0.5753
373.227	0.577
373.433	0.5787
373.639	0.5803
373.845	0.582
374.052	0.5837
374.258	0.5854
374.464	0.587
374.67	0.5886
374.876	0.5903
375.082	0.592
375.288	0.5936
375.494	0.5953
375.7	0.597
375.906	0.5986
376.112	0.6001
376.318	0.6016
376.524	0.6031
376.73	0.6047
376.936	0.6063
377.142	0.6078
377.348	0.6093
377.554	0.6109
377.76	0.6124
377.966	0.6139
378.172	0.6154
378.377	0.617
378.583	0.6184
378.789	0.6199
378.995	0.6213
379.201	0.6228
379.407	0.6242
379.613	0.6257
379.818	0.6271
380.024	0.6286
380.23	0.63
380.436	0.6314
380.642	0.6328
380.847	0.6342
381.053	0.6355
381.259	0.6369
381.465	0.6383
381.67	0.6397
381.876	0.6412
382.082	0.6426
382.287	0.6439
382.493	0.6451
382.699	0.6464
382.905	0.6477
383.11	0.649
383.316	0.6503
383.521	0.6515
383.727	0.6529
383.933	0.6542
384.138	0.6554
384.344	0.6566
384.55	0.6578
384.755	0.6589
384.961	0.6601
385.166	0.6612
385.372	0.6624
385.577	0.6636
385.783	0.6647
385.988	0.6658
386.194	0.6668
386.399	0.6679
386.605	0.6689
386.81	0.6699
387.016	0.6709
387.221	0.6718
387.427	0.6727
387.632	0.6737
387.838	0.6746
388.043	0.6755
388.248	0.6763
388.454	0.6772
388.659	0.6781
388.865	0.6791
389.07	0.68
389.275	0.6808
389.481	0.6818
389.686	0.6826
389.891	0.6833
390.097	0.6841
390.302	0.685
390.507	0.6858
390.713	0.6865
390.918	0.6873
391.123	0.688
391.328	0.6887
391.534	0.6895
391.739	0.6902
391.944	0.6909
392.149	0.6916
392.355	0.6923
392.56	0.6929
392.765	0.6935
392.97	0.6941
393.175	0.6947
393.38	0.6953
393.586	0.6959
393.791	0.6965
393.996	0.6971
394.201	0.6978
394.406	0.6984
394.611	0.699
394.816	0.6995
395.021	0.7
395.226	0.7005
395.431	0.701
395.637	0.7015
395.842	0.7019
396.047	0.7024
396.252	0.7028
396.457	0.7032
396.662	0.7036
396.867	0.7039
397.072	0.7043
397.277	0.7047
397.481	0.7051
397.686	0.7054
397.891	0.7059
398.096	0.7063
398.301	0.7066
398.506	0.7069
398.711	0.7072
398.916	0.7075
399.121	0.7078
399.326	0.7082
399.53	0.7084
399.735	0.7087
399.94	0.7089
400.145	0.7092
400.35	0.7095
400.555	0.7096
400.759	0.7099
400.964	0.7101
401.169	0.7103
401.374	0.7105
401.578	0.7107
401.783	0.7109
401.988	0.7111
402.193	0.7113
402.397	0.7115
402.602	0.7116
402.807	0.7118
403.011	0.7119
403.216	0.7121
403.421	0.7122
403.625	0.7123
403.83	0.7124
404.035	0.7125
404.239	0.7125
404.444	0.7124
404.648	0.7125
404.853	0.7126
405.057	0.7126
405.262	0.7127
405.467	0.7127
405.671	0.7127
405.876	0.7127
406.08	0.7127
406.285	0.7128
406.489	0.7127
406.694	0.7127
406.898	0.7128
407.103	0.7127
407.307	0.7127
407.511	0.7128
407.716	0.7127
407.92	0.7127
408.125	0.7127
408.329	0.7126
408.534	0.7126
408.738	0.7125
408.942	0.7125
409.147	0.7125
409.351	0.7123
409.555	0.7123
409.76	0.7122
409.964	0.7121
410.168	0.7121
410.373	0.7119
410.577	0.7119
410.781	0.7118
410.985	0.7117
411.19	0.7115
411.394	0.7114
411.598	0.7113
411.802	0.7112
412.007	0.7111
412.211	0.711
412.415	0.7108
412.619	0.7106
412.823	0.7105
413.028	0.7104
413.232	0.7102
413.436	0.71
413.64	0.7099
413.844	0.7096
414.048	0.7095
414.252	0.7093
414.456	0.7091
414.66	0.7088
414.865	0.7086
415.069	0.7084
415.273	0.7082
415.477	0.708
415.681	0.7079
415.885	0.7076
416.089	0.7074
416.293	0.7072
416.497	0.7069
416.701	0.7067
416.905	0.7064
417.109	0.7062
417.313	0.7059
417.516	0.7058
417.72	0.7055
417.924	0.7052
418.128	0.705
418.332	0.7049
418.536	0.7046
418.74	0.7043
418.944	0.704
419.148	0.7038
419.351	0.7035
419.555	0.7032
419.759	0.7029
419.963	0.7026
420.167	0.7023
420.37	0.702
420.574	0.7018
420.778	0.7015
420.982	0.7013
421.185	0.701
421.389	0.7006
421.593	0.7004
421.797	0.7
422	0.6996
422.204	0.6994
422.408	0.6991
422.611	0.6987
422.815	0.6984
423.019	0.6982
423.222	0.6979
423.426	0.6977
423.629	0.6973
423.833	0.6969
424.037	0.6965
424.24	0.6962
424.444	0.6958
424.647	0.6954
424.851	0.695
425.054	0.6946
425.258	0.6943
425.461	0.6939
425.665	0.6935
425.868	0.6932
426.072	0.6928
426.275	0.6924
426.479	0.692
426.682	0.6916
426.886	0.6912
427.089	0.6908
427.293	0.6903
427.496	0.69
427.699	0.6896
427.903	0.689
428.106	0.6887
428.309	0.6883
428.513	0.6879
428.716	0.6874
428.919	0.6871
429.123	0.6866
429.326	0.6861
429.529	0.6858
429.733	0.6852
429.936	0.6848
430.139	0.6844
430.342	0.684
430.546	0.6834
430.749	0.683
430.952	0.6824
431.155	0.682
431.359	0.6815
431.562	0.6811
431.765	0.6806
431.968	0.68
432.171	0.6794
432.374	0.6789
432.578	0.6784
432.781	0.6779
432.984	0.6773
433.187	0.6767
433.39	0.6761
433.593	0.6755
433.796	0.675
433.999	0.6743
434.202	0.6738
434.405	0.6732
434.608	0.6726
434.811	0.6721
435.014	0.6715
435.217	0.671
435.42	0.6705
435.623	0.6699
435.826	0.6693
436.029	0.6687
436.232	0.668
436.435	0.6674
436.638	0.6667
436.841	0.666
437.044	0.6653
437.247	0.6646
437.45	0.6639
437.652	0.6631
437.855	0.6624
438.058	0.6617
438.261	0.661
438.464	0.6602
438.667	0.6595
438.869	0.6587
439.072	0.658
439.275	0.6573
439.478	0.6565
439.68	0.656
439.883	0.6553
440.086	0.6547
440.289	0.6541
440.491	0.6534
440.694	0.6528
440.897	0.6521
441.099	0.6513
441.302	0.6506
441.505	0.6499
441.707	0.6491
441.91	0.6485
442.113	0.6477
442.315	0.647
442.518	0.6464
442.72	0.6456
442.923	0.6449
443.126	0.6443
443.328	0.6436
443.531	0.6429
443.733	0.6421
443.936	0.6414
444.138	0.6406
444.341	0.6398
444.543	0.6389
444.746	0.6381
444.948	0.6373
445.151	0.6365
445.353	0.6356
445.555	0.6348
445.758	0.634
445.96	0.6331
446.163	0.6323
446.365	0.6314
446.567	0.6305
446.77	0.6296
446.972	0.6286
447.175	0.6278
447.377	0.6268
447.579	0.6259
447.781	0.625
447.984	0.6241
448.186	0.623
448.388	0.6221
448.591	0.6212
448.793	0.6203
448.995	0.6193
449.197	0.6184
449.4	0.6175
449.602	0.6165
449.804	0.6155
450.006	0.6147
450.208	0.6138
450.411	0.613
450.613	0.6121
450.815	0.6112
451.017	0.6104
451.219	0.6094
451.421	0.6085
451.623	0.6075
451.825	0.6066
452.027	0.6056
452.229	0.6045
452.432	0.6036
452.634	0.6027
452.836	0.6016
453.038	0.6006
453.24	0.5997
453.442	0.5987
453.644	0.5979
453.846	0.5969
454.048	0.5959
454.25	0.5949
454.451	0.594
454.653	0.5931
454.855	0.5921
455.057	0.591
455.259	0.59
455.461	0.5891
455.663	0.5883
455.865	0.5874
456.067	0.5865
456.268	0.5857
456.47	0.5847
456.672	0.5837
456.874	0.5829
457.076	0.582
457.277	0.581
457.479	0.5801
457.681	0.5793
457.883	0.5784
458.084	0.5774
458.286	0.5765
458.488	0.5755
458.69	0.5745
458.891	0.5737
459.093	0.5728
459.295	0.572
459.496	0.5712
459.698	0.5704
459.9	0.5695
460.101	0.5687
460.303	0.5679
460.504	0.5671
460.706	0.5662
460.908	0.5652
461.109	0.5644
461.311	0.5634
461.512	0.5625
461.714	0.5616
461.915	0.5608
462.117	0.56
462.318	0.559
462.52	0.5581
462.721	0.5573
462.923	0.5564
463.124	0.5555
463.326	0.5547
463.527	0.5539
463.729	0.5532
463.93	0.5526
464.131	0.5518
464.333	0.5511
464.534	0.5504
464.735	0.5497
464.937	0.549
465.138	0.5483
465.34	0.5477
465.541	0.5469
465.742	0.5462
465.943	0.5453
466.145	0.5446
466.346	0.5439
466.547	0.5432
466.748	0.5425
466.95	0.5418
467.151	0.5412
467.352	0.5404
467.553	0.5398
467.755	0.5392
467.956	0.5385
468.157	0.5378
468.358	0.537
468.559	0.5363
468.76	0.5356
468.961	0.535
469.163	0.5344
469.364	0.5338
469.565	0.5331
469.766	0.5326
469.967	0.532
470.168	0.5314
470.369	0.5308
470.57	0.5301
470.771	0.5296
470.972	0.529
471.173	0.5285
471.374	0.528
471.575	0.5274
471.776	0.5269
471.977	0.5265
472.178	0.5261
472.379	0.5256
472.58	0.5252
472.781	0.5248
472.982	0.5244
473.182	0.524
473.383	0.5237
473.584	0.5234
473.785	0.523
473.986	0.5227
474.187	0.5223
474.387	0.5219
474.588	0.5216
474.789	0.5212
474.99	0.5209
475.191	0.5206
475.391	0.5202
475.592	0.5199
475.793	0.5196
475.994	0.5194
476.194	0.5191
476.395	0.5189
476.596	0.5186
476.796	0.5184
476.997	0.5183
477.198	0.5181
477.398	0.518
477.599	0.5177
477.799	0.5176
478	0.5175
478.201	0.5175
478.401	0.5174
478.602	0.5173
478.802	0.5172
479.003	0.5172
479.203	0.5171
479.404	0.517
479.604	0.517
479.805	0.5169
480.005	0.517
480.206	0.517
480.406	0.517
480.607	0.5172
480.807	0.5172
481.008	0.5174
481.208	0.5175
481.409	0.5177
481.609	0.5179
481.809	0.5181
482.01	0.5183
482.21	0.5186
482.41	0.5188
482.611	0.5187
482.811	0.5184
483.011	0.518
483.212	0.5179
483.412	0.5179
483.612	0.5181
483.812	0.5183
484.013	0.5185
484.213	0.5187
484.413	0.5189
484.613	0.5191
484.814	0.5193
485.014	0.5195
485.214	0.5197
485.414	0.52
485.614	0.5203
485.814	0.5207
486.015	0.5209
486.215	0.5212
486.415	0.5216
486.615	0.522
486.815	0.5223
487.015	0.5227
487.215	0.523
487.415	0.5234
487.615	0.5237
487.815	0.5242
488.015	0.5246
488.215	0.525
488.415	0.5256
488.615	0.5263
488.815	0.5273
489.015	0.5287
489.215	0.5304
489.415	0.5318
489.615	0.533
489.815	0.5342
490.015	0.5353
490.215	0.5363
490.415	0.5373
490.614	0.5383
490.814	0.5393
491.014	0.5403
491.214	0.5413
491.414	0.5422
491.613	0.5431
491.813	0.5441
492.013	0.545
492.213	0.546
492.413	0.547
492.612	0.548
492.812	0.549
493.012	0.5501
493.211	0.5513
493.411	0.5525
493.611	0.5535
493.811	0.5547
494.01	0.5558
494.21	0.5569
494.409	0.5581
494.609	0.5592
494.809	0.5604
495.008	0.5617
495.208	0.5629
495.407	0.5642
495.607	0.5655
495.807	0.5668
496.006	0.5682
496.206	0.5695
496.405	0.5709
496.605	0.5723
496.804	0.5737
497.004	0.5751
497.203	0.5766
497.403	0.578
497.602	0.5795
497.801	0.5811
498.001	0.5826
498.2	0.5842
498.4	0.5857
498.599	0.5873
498.798	0.5889
498.998	0.5904
499.197	0.5921
499.396	0.5937
499.596	0.5954
499.795	0.5971
499.994	0.5989
500.194	0.6005
500.393	0.6022
500.592	0.6039
500.791	0.6056
500.991	0.6073
501.19	0.6091
501.389	0.6109
501.588	0.6127
501.788	0.6144
501.987	0.6162
502.186	0.618
502.385	0.6198
502.584	0.6217
502.783	0.6237
502.982	0.6256
503.182	0.6275
503.381	0.6294
503.58	0.6314
503.779	0.6334
503.978	0.6353
504.177	0.6372
504.376	0.6393
504.575	0.6413
504.774	0.6434
504.973	0.6456
505.172	0.6478
505.371	0.6499
505.57	0.6521
505.769	0.6543
505.968	0.6565
506.167	0.6587
506.366	0.661
506.565	0.6633
506.763	0.6655
506.962	0.6678
507.161	0.67
507.36	0.6723
507.559	0.6746
507.758	0.6769
507.957	0.6794
508.155	0.6818
508.354	0.6843
508.553	0.6867
508.752	0.6892
508.95	0.6916
509.149	0.6941
509.348	0.6967
509.547	0.6992
509.745	0.7018
509.944	0.7043
510.143	0.7069
510.341	0.7095
510.54	0.7121
510.739	0.7147
510.937	0.7173
511.136	0.7199
511.335	0.7226
511.533	0.7253
511.732	0.7279
511.93	0.7306
512.129	0.7333
512.327	0.736
512.526	0.7389
512.724	0.7417
512.923	0.7445
513.121	0.7473
513.32	0.7502
513.518	0.753
513.717	0.7559
513.915	0.7588
514.114	0.7616
514.312	0.7644
514.511	0.7673
514.709	0.7701
514.907	0.773
515.106	0.776
515.304	0.7789
515.502	0.7819
515.701	0.785
515.899	0.788
516.097	0.791
516.296	0.7941
516.494	0.7972
516.692	0.8003
516.891	0.8033
517.089	0.8063
517.287	0.8092
517.485	0.8123
517.683	0.8153
517.882	0.8184
518.08	0.8214
518.278	0.8245
518.476	0.8276
518.674	0.8307
518.873	0.8338
519.071	0.837
519.269	0.8402
519.467	0.8435
519.665	0.8467
519.863	0.85
520.061	0.8532
520.259	0.8565
520.457	0.8599
520.655	0.8632
520.853	0.8666
521.051	0.87
521.249	0.8732
521.447	0.8765
521.645	0.8798
521.843	0.883
522.041	0.8863
522.239	0.8898
522.437	0.8932
522.635	0.8966
522.833	0.9
523.031	0.9034
523.229	0.9069
523.426	0.9105
523.624	0.914
523.822	0.9174
524.02	0.9208
524.218	0.9244
524.415	0.9278
524.613	0.9311
524.811	0.9345
525.009	0.938
525.207	0.9413
525.404	0.9448
525.602	0.9483
525.8	0.9518
525.997	0.9552
526.195	0.9586
526.393	0.9621
526.59	0.9655
526.788	0.9688
526.986	0.9721
527.183	0.9755
527.381	0.9789
527.578	0.9822
527.776	0.9855
527.974	0.9888
528.171	0.9922
528.369	0.9953
528.566	0.9986
528.764	1.002
528.961	1.0052
529.159	1.0085
529.356	1.0118
529.554	1.015
529.751	1.0182
529.949	1.0217
530.146	1.0252
530.343	1.0286
530.541	1.0319
530.738	1.0354
530.936	1.0386
531.133	1.0419
531.33	1.0452
531.528	1.0484
531.725	1.0516
531.922	1.0549
532.12	1.0581
532.317	1.0612
532.514	1.0644
532.711	1.0674
532.909	1.0705
533.106	1.0735
533.303	1.0763
533.5	1.0794
533.698	1.0822
533.895	1.085
534.092	1.0878
534.289	1.0905
534.486	1.0932
534.683	1.0959
534.881	1.0986
535.078	1.1011
535.275	1.1037
535.472	1.1061
535.669	1.1088
535.866	1.1114
536.063	1.1137
536.26	1.1162
536.457	1.1184
536.654	1.1209
536.851	1.123
537.048	1.1253
537.245	1.1275
537.442	1.1298
537.639	1.132
537.836	1.1342
538.033	1.1361
538.23	1.1382
538.427	1.1401
538.624	1.142
538.821	1.144
539.017	1.146
539.214	1.1478
539.411	1.1498
539.608	1.1514
539.805	1.153
540.001	1.1546
540.198	1.1561
540.395	1.1576
540.592	1.1591
540.789	1.1605
540.985	1.1617
541.182	1.1631
541.379	1.1645
541.575	1.1656
541.772	1.1666
541.969	1.1676
542.165	1.1685
542.362	1.1694
542.559	1.1702
542.755	1.1708
542.952	1.1715
543.149	1.1719
543.345	1.1723
543.542	1.1727
543.738	1.1731
543.935	1.1736
544.131	1.1739
544.328	1.1742
544.524	1.1743
544.721	1.1746
544.917	1.1746
545.114	1.1744
545.31	1.1743
545.507	1.174
545.703	1.1737
545.9	1.1734
546.096	1.173
546.292	1.1725
546.489	1.172
546.685	1.1713
546.881	1.1706
547.078	1.1698
547.274	1.1688
547.47	1.1678
547.667	1.1669
547.863	1.1657
548.059	1.1646
548.255	1.1634
548.452	1.162
548.648	1.1607
548.844	1.1593
549.04	1.1579
549.237	1.1564
549.433	1.1549
549.629	1.1531
549.825	1.1513
550.021	1.1494
550.217	1.1475
550.414	1.1454
550.61	1.1433
550.806	1.141
551.002	1.1387
551.198	1.1363
551.394	1.1338
551.59	1.1313
551.786	1.1286
551.982	1.1261
552.178	1.1234
552.374	1.1207
552.57	1.1179
552.766	1.1152
552.962	1.1121
553.158	1.1093
553.354	1.1063
553.55	1.1031
553.746	1.1
553.941	1.0967
554.137	1.0936
554.333	1.0904
554.529	1.087
554.725	1.0835
554.921	1.08
555.116	1.0766
555.312	1.073
555.508	1.0694
555.704	1.0656
555.9	1.062
556.095	1.0581
556.291	1.0541
556.487	1.0502
556.682	1.046
556.878	1.0418
557.074	1.0376
557.27	1.0334
557.465	1.0291
557.661	1.0248
557.856	1.0205
558.052	1.016
558.248	1.0114
558.443	1.0069
558.639	1.0024
558.834	0.9978
559.03	0.9933
559.225	0.9884
559.421	0.9839
559.616	0.9792
559.812	0.9745
560.007	0.9699
560.203	0.9651
560.398	0.9603
560.594	0.9555
560.789	0.9506
560.985	0.9456
561.18	0.9406
561.375	0.9355
561.571	0.9305
561.766	0.9256
561.962	0.9205
562.157	0.9155
562.352	0.9104
562.548	0.9053
562.743	0.9003
562.938	0.8951
563.133	0.8899
563.329	0.8846
563.524	0.8793
563.719	0.8739
563.914	0.8684
564.11	0.8629
564.305	0.8574
564.5	0.8518
564.695	0.8461
564.89	0.8405
565.085	0.8348
565.28	0.8292
565.476	0.8235
565.671	0.8179
565.866	0.812
566.061	0.8061
566.256	0.8002
566.451	0.7942
566.646	0.7883
566.841	0.7823
567.036	0.7766
567.231	0.7707
567.426	0.7649
567.621	0.7592
567.816	0.7534
568.011	0.7477
568.206	0.7421
568.401	0.7364
568.596	0.731
568.791	0.7257
568.985	0.7206
569.18	0.7156
569.375	0.7106
569.57	0.7056
569.765	0.7006
569.96	0.6955
570.154	0.6903
570.349	0.685
570.544	0.6797
570.739	0.6744
570.933	0.6692
571.128	0.6639
571.323	0.6585
571.518	0.6533
571.712	0.6481
571.907	0.643
572.102	0.638
572.296	0.633
572.491	0.628
572.686	0.623
572.88	0.6179
573.075	0.6128
573.269	0.6076
573.464	0.6023
573.658	0.597
573.853	0.5916
574.047	0.586
574.242	0.5802
574.437	0.5743
574.631	0.5685
574.825	0.5628
575.02	0.5573
575.214	0.5521
575.409	0.5473
575.603	0.5426
575.798	0.538
575.992	0.5333
576.186	0.5286
576.381	0.5239
576.575	0.5192
576.77	0.5145
576.964	0.5097
577.158	0.5051
577.352	0.5004
577.547	0.4956
577.741	0.4906
577.935	0.4853
578.13	0.4796
578.324	0.4726
578.518	0.4649
578.712	0.4574
578.906	0.4511
579.101	0.4451
579.295	0.4399
579.489	0.4356
579.683	0.4315
579.877	0.4275
580.071	0.4237
580.265	0.42
580.459	0.4162
580.654	0.4124
580.848	0.4086
581.042	0.4048
581.236	0.4009
581.43	0.397
581.624	0.3932
581.818	0.3893
582.012	0.3854
582.206	0.3816
582.4	0.3778
582.594	0.3741
582.787	0.3705
582.981	0.367
583.175	0.3636
583.369	0.3601
583.563	0.3567
583.757	0.3532
583.951	0.3497
584.145	0.3464
584.338	0.3442
584.532	0.3428
584.726	0.3413
584.92	0.3391
585.114	0.3369
585.307	0.334
585.501	0.3306
585.695	0.3273
585.888	0.3241
586.082	0.321
586.276	0.318
586.47	0.315
586.663	0.3121
586.857	0.3093
587.05	0.3064
587.244	0.3037
587.438	0.3009
587.631	0.2982
587.825	0.2954
588.018	0.2927
588.212	0.2899
588.405	0.2871
588.599	0.2843
588.792	0.2816
588.986	0.2788
589.179	0.2759
589.373	0.273
589.566	0.27
589.76	0.2669
589.953	0.2637
590.147	0.2606
590.34	0.2576
590.533	0.2546
590.727	0.2517
590.92	0.2489
591.114	0.2461
591.307	0.2434
591.5	0.2406
591.693	0.2378
591.887	0.2351
592.08	0.2325
592.273	0.23
592.467	0.2275
592.66	0.2251
592.853	0.2229
593.046	0.2207
593.239	0.2186
593.433	0.2165
593.626	0.2145
593.819	0.2124
594.012	0.2104
594.205	0.2085
594.398	0.2066
594.591	0.2047
594.784	0.2028
594.977	0.201
595.171	0.199
595.364	0.1971
595.557	0.1951
595.75	0.1931
595.943	0.191
596.136	0.1889
596.329	0.1869
596.522	0.1849
596.715	0.1829
596.907	0.1809
597.1	0.179
597.293	0.177
597.486	0.1752
597.679	0.1733
597.872	0.1715
598.065	0.1697
598.258	0.1679
598.45	0.1662
598.643	0.1645
598.836	0.1628
599.029	0.1612
599.222	0.1596
599.414	0.1581
599.607	0.1566
599.8	0.155
599.992	0.1536
600.185	0.1521
600.378	0.1506
600.571	0.1492
600.763	0.1478
600.956	0.1465
601.148	0.1452
601.341	0.1439
601.534	0.1425
601.726	0.1412
601.919	0.1399
602.111	0.1386
602.304	0.1374
602.496	0.1361
602.689	0.1348
602.881	0.1336
603.074	0.1324
603.266	0.1312
603.459	0.1301
603.651	0.1289
603.844	0.1277
604.036	0.1266
604.229	0.1255
604.421	0.1245
604.613	0.1234
604.806	0.1224
604.998	0.1213
605.19	0.1203
605.383	0.1193
605.575	0.1182
605.767	0.1172
605.96	0.1162
606.152	0.1152
606.344	0.1143
606.536	0.1133
606.729	0.1124
606.921	0.1115
607.113	0.1106
607.305	0.1097
607.497	0.1089
607.69	0.1081
607.882	0.1073
608.074	0.1065
608.266	0.1058
608.458	0.105
608.65	0.1043
608.842	0.1035
609.034	0.1028
609.226	0.102
609.418	0.1013
609.61	0.1006
609.802	0.0999
609.994	0.0991
610.186	0.0984
610.378	0.0976
610.57	0.097
610.762	0.0963
610.954	0.0956
611.146	0.095
611.338	0.0944
611.53	0.0937
611.722	0.0931
611.913	0.0925
612.105	0.0918
612.297	0.0912
612.489	0.0906
612.681	0.0899
612.873	0.0892
613.064	0.0886
613.256	0.088
613.448	0.0874
613.639	0.0868
613.831	0.0862
614.023	0.0856
614.215	0.085
614.406	0.0844
614.598	0.0837
614.79	0.0832
614.981	0.0826
615.173	0.0821
615.364	0.0816
615.556	0.0811
615.748	0.0807
615.939	0.0802
616.131	0.0798
616.322	0.0793
616.514	0.0788
616.705	0.0784
616.897	0.0779
617.088	0.0774
617.28	0.077
617.471	0.0766
617.662	0.0762
617.854	0.0758
618.045	0.0755
618.237	0.0751
618.428	0.0747
618.619	0.0743
618.811	0.0739
619.002	0.0735
619.193	0.0731
619.385	0.0728
619.576	0.0724
619.767	0.072
619.958	0.0716
620.15	0.0713
620.341	0.071
620.532	0.0707
620.723	0.0704
620.914	0.0701
621.106	0.0698
621.297	0.0695
621.488	0.0691
621.679	0.0688
621.87	0.0685
622.061	0.0682
622.252	0.0678
622.443	0.0675
622.635	0.0672
622.826	0.0669
623.017	0.0665
623.208	0.0662
623.399	0.066
623.59	0.0657
623.781	0.0654
623.972	0.0651
624.162	0.0649
624.353	0.0647
624.544	0.0644
624.735	0.0642
624.926	0.064
625.117	0.0638
625.308	0.0636
625.499	0.0634
625.69	0.0632
625.88	0.063
626.071	0.0627
626.262	0.0625
626.453	0.0623
626.643	0.0621
626.834	0.0618
627.025	0.0616
627.216	0.0614
627.406	0.0612
627.597	0.061
627.788	0.0608
627.978	0.0606
628.169	0.0604
628.36	0.0603
628.55	0.0601
628.741	0.06
628.931	0.0599
629.122	0.0598
629.313	0.0596
629.503	0.0595
629.694	0.0593
629.884	0.0592
630.075	0.059
630.265	0.0588
630.456	0.0587
630.646	0.0586
630.837	0.0584
631.027	0.0583
631.217	0.0582
631.408	0.058
631.598	0.0579
631.789	0.0578
631.979	0.0577
632.169	0.0576
632.36	0.0574
632.55	0.0574
632.74	0.0573
632.93	0.0572
633.121	0.0571
633.311	0.057
633.501	0.0569
633.691	0.0568
633.882	0.0567
634.072	0.0566
634.262	0.0565
634.452	0.0563
634.642	0.0562
634.833	0.056
635.023	0.0559
635.213	0.0557
635.403	0.0557
635.593	0.0555
635.783	0.0555
635.973	0.0554
636.163	0.0553
636.353	0.0552
636.543	0.0551
636.733	0.055
636.923	0.0549
637.113	0.0548
637.303	0.0547
637.493	0.0546
637.683	0.0545
637.873	0.0543
638.063	0.0542
638.253	0.0541
638.442	0.0539
638.632	0.0538
638.822	0.0536
639.012	0.0534
639.202	0.0532
639.392	0.0531
639.581	0.053
639.771	0.053
639.961	0.0529
640.151	0.0529
640.34	0.0528
640.53	0.0528
640.72	0.0527
640.909	0.0526
641.099	0.0526
641.289	0.0525
641.478	0.0524
641.668	0.0523
641.858	0.0522
642.047	0.0522
642.237	0.0521
642.426	0.0521
642.616	0.052
642.805	0.052
642.995	0.052
643.184	0.052
643.374	0.052
643.563	0.0519
643.753	0.0519
643.942	0.0518
644.132	0.0518
644.321	0.0519
644.51	0.052
644.7	0.052
644.889	0.052
645.079	0.052
645.268	0.0519
645.457	0.0519
645.647	0.0519
645.836	0.0518
646.025	0.0518
646.214	0.0518
646.404	0.0517
646.593	0.0517
646.782	0.0517
646.971	0.0516
647.161	0.0515
647.35	0.0515
647.539	0.0514
647.728	0.0513
647.917	0.0512
648.106	0.0512
648.295	0.0512
648.485	0.0512
648.674	0.0511
648.863	0.0511
649.052	0.0511
649.241	0.0511
649.43	0.0511
649.619	0.051
649.808	0.0511
649.997	0.0511
650.186	0.051
650.375	0.051
650.564	0.051
650.752	0.051
650.941	0.0509
651.13	0.0509
651.319	0.0509
651.508	0.0509
651.697	0.051
651.886	0.0509
652.074	0.0509
652.263	0.0511
652.452	0.0465
652.641	0.0425
652.83	0.0389
653.018	0.0357
653.207	0.0328
653.396	0.0302
653.584	0.0278
653.773	0.0256
653.962	0.0235
654.15	0.0216
654.339	0.0199
654.528	0.0183
654.716	0.0168
654.905	0.0153
655.093	0.014
655.282	0.0128
655.471	0.0116
655.659	0.0105
655.848	0.0095
656.036	0.0085
656.225	0.0076
656.413	0.0068
656.602	0.0059
656.79	0.0052
656.978	0.0044
657.167	0.0037
657.355	0.0031
657.544	0.0024
657.732	0.0018
657.92	0.0012
658.109	0.0082
658.297	0.0184
658.485	0.0289
658.674	0.0396
658.862	0.0468
659.05	0.0486
659.238	0.0503
659.427	0.0522
659.615	0.0541
659.803	0.0562
659.991	0.0583
660.179	0.0606
660.368	0.0631
660.556	0.0656
660.744	0.0684
660.932	0.0713
661.12	0.0744
661.308	0.0777
661.496	0.0813
661.684	0.0851
661.872	0.0893
662.06	0.0937
662.248	0.0985
662.436	0.1038
662.624	0.1095
662.812	0.1158
663	0.1228
663.188	0.1304
663.376	0.139
663.564	0.1487
663.752	0.1596
663.94	0.1431
664.128	0.1191
664.315	0.0933
664.503	0.066
664.691	0.0488
664.879	0.0484
665.067	0.0484
665.255	0.0484
665.442	0.0484
665.63	0.0484
665.818	0.0484
666.005	0.0484
666.193	0.0484
666.381	0.0484
666.568	0.0484
666.756	0.0484
666.944	0.0484
667.131	0.0484
667.319	0.0484
667.507	0.0483
667.694	0.0483
667.882	0.0483
668.069	0.0484
668.257	0.0484
668.444	0.0484
668.632	0.0485
668.819	0.0486
669.007	0.0486
669.194	0.0487
669.382	0.0488
669.569	0.0488
669.757	0.0488
669.944	0.0489
670.131	0.0488
670.319	0.0489
670.506	0.0489
670.693	0.0489
670.881	0.049
671.068	0.0489
671.255	0.0489
671.443	0.0489
671.63	0.0488
671.817	0.0488
672.004	0.0488
672.191	0.0488
672.379	0.0489
672.566	0.0489
672.753	0.0489
672.94	0.0489
673.127	0.0489
673.314	0.0489
673.502	0.0489
673.689	0.0489
673.876	0.0489
674.063	0.0489
674.25	0.0489
674.437	0.049
674.624	0.0489
674.811	0.0489
674.998	0.0489
675.185	0.0488
675.372	0.0488
675.559	0.0488
675.746	0.0489
675.933	0.049
676.119	0.0489
676.306	0.049
676.493	0.0491
676.68	0.0491
676.867	0.0491
677.054	0.0492
677.241	0.0493
677.427	0.0493
677.614	0.0494
677.801	0.0495
677.988	0.0495
678.174	0.0496
678.361	0.0496
678.548	0.0497
678.734	0.0497
678.921	0.0498
679.108	0.0498
679.294	0.0498
679.481	0.0498
679.668	0.0499
679.854	0.05
680.041	0.05
680.227	0.05
680.414	0.0499
680.6	0.05
680.787	0.05
680.973	0.0501
681.16	0.0501
681.346	0.0501
681.533	0.05
681.719	0.05
681.906	0.0499
682.092	0.0499
682.278	0.0498
682.465	0.0498
682.651	0.0497
682.838	0.0497
683.024	0.0496
683.21	0.0496
683.396	0.0495
683.583	0.0494
683.769	0.0493
683.955	0.0492
684.142	0.0492
684.328	0.0491
684.514	0.0491
684.7	0.049
684.886	0.0489
685.073	0.0489
685.259	0.0489
685.445	0.0488
685.631	0.0487
685.817	0.0486
686.003	0.0486
686.189	0.0485
686.375	0.0485
686.561	0.0484
686.747	0.0484
686.933	0.0484
687.119	0.0484
687.305	0.0484
687.491	0.0484
687.677	0.0484
687.863	0.0483
688.049	0.0483
688.235	0.0482
688.421	0.0483
688.607	0.0483
688.793	0.0483
688.978	0.0483
689.164	0.0483
689.35	0.0483
689.536	0.0483
689.722	0.0484
689.907	0.0483
690.093	0.0483
690.279	0.0482
690.465	0.0482
690.65	0.0481
690.836	0.0481
691.022	0.048
691.207	0.0479
691.393	0.0479
691.578	0.0479
691.764	0.0479
691.95	0.0479
692.135	0.0479
692.321	0.0478
692.506	0.0477
692.692	0.0477
692.877	0.0477
693.063	0.0476
693.248	0.0476
693.434	0.0476
693.619	0.0477
693.805	0.0478
693.99	0.0478
694.176	0.0478
694.361	0.0478
694.546	0.0478
694.732	0.0478
694.917	0.0477
695.102	0.0478
695.288	0.0478
695.473	0.0478
695.658	0.0478
695.843	0.0479
696.029	0.0479
696.214	0.048
696.399	0.048
696.584	0.048
696.77	0.048
696.955	0.048
697.14	0.048
697.325	0.0481
697.51	0.0481
697.695	0.048
697.88	0.0481
698.065	0.0481
698.251	0.0482
698.436	0.0483
698.621	0.0483
698.806	0.0484
698.991	0.0484
699.176	0.0484
699.361	0.0484
699.546	0.0484
699.73	0.0484
699.915	0.0484
700.1	0.0485
700.285	0.0486
700.47	0.0487
700.655	0.0488
700.84	0.0488
701.025	0.0488
701.209	0.0488
701.394	0.0488
701.579	0.0488
701.764	0.0489
701.948	0.0489
702.133	0.049
702.318	0.0491
702.503	0.0492
702.687	0.0494
702.872	0.0494
703.057	0.0495
703.241	0.0496
703.426	0.0497
703.61	0.0498
703.795	0.0499
703.98	0.0499
704.164	0.05
704.349	0.05
704.533	0.05
704.718	0.05
704.902	0.0501
705.087	0.0501
705.271	0.0501
705.456	0.0501
705.64	0.0501
705.825	0.0501
706.009	0.0501
706.193	0.0501
706.378	0.0501
706.562	0.0501
706.746	0.0501
706.931	0.0501
707.115	0.0502
707.299	0.0502
707.484	0.0502
707.668	0.0503
707.852	0.0504
708.036	0.0504
708.221	0.0504
708.405	0.0504
708.589	0.0504
708.773	0.0504
708.957	0.0504
709.141	0.0504
709.326	0.0503
709.51	0.0502
709.694	0.05
709.878	0.05
710.062	0.0499
710.246	0.0498
710.43	0.0498
710.614	0.0498
710.798	0.0497
710.982	0.0497
711.166	0.0496
711.35	0.0496
711.534	0.0496
711.718	0.0496
711.902	0.0496
712.085	0.0496
712.269	0.0496
712.453	0.0496
712.637	0.0496
712.821	0.0495
713.005	0.0495
713.188	0.0494
713.372	0.0493
713.556	0.0492
713.74	0.0492
713.923	0.0491
714.107	0.049
714.291	0.0489
714.474	0.0488
714.658	0.0487
714.842	0.0487
715.025	0.0487
715.209	0.0488
715.393	0.0489
715.576	0.0489
715.76	0.049
715.943	0.049
716.127	0.0489
716.31	0.0489
716.494	0.0489
716.677	0.0489
716.861	0.0488
717.044	0.0487
717.228	0.0486
717.411	0.0485
717.594	0.0484
717.778	0.0483
717.961	0.0483
718.145	0.0483
718.328	0.0482
718.511	0.0482
718.695	0.0482
718.878	0.0482
719.061	0.0482
719.244	0.0482
719.428	0.0482
719.611	0.0481
719.794	0.0483
719.977	0.0483
720.16	0.0483
720.344	0.0484
720.527	0.0484
720.71	0.0484
720.893	0.0484
721.076	0.0484
721.259	0.0484
721.442	0.0484
721.625	0.0484
721.808	0.0485
721.991	0.0485
722.174	0.0485
722.357	0.0485
722.54	0.0486
722.723	0.0487
722.906	0.0487
723.089	0.0488
723.272	0.0488
723.455	0.049
723.638	0.049
723.821	0.0491
724.003	0.0492
724.186	0.0492
724.369	0.0493
724.552	0.0493
724.735	0.0494
724.917	0.0495
725.1	0.0496
725.283	0.0497
725.466	0.0498
725.648	0.05
725.831	0.0501
726.014	0.0502
726.196	0.0503
726.379	0.0504
726.562	0.0505
726.744	0.0505
726.927	0.0505
727.109	0.0505
727.292	0.0506
727.474	0.0506
727.657	0.0507
727.839	0.0507
728.022	0.0508
728.204	0.0509
728.387	0.0509
728.569	0.0509
728.752	0.0509
728.934	0.0508
729.116	0.0508
729.299	0.0508
729.481	0.0508
729.664	0.0507
729.846	0.0506
730.028	0.0505
730.21	0.0505
730.393	0.0505
730.575	0.0504
730.757	0.0503
730.939	0.0503
731.122	0.0502
731.304	0.0501
731.486	0.05
731.668	0.0499
731.85	0.0497
732.032	0.0497
732.215	0.0497
732.397	0.0498
732.579	0.0498
732.761	0.0498
732.943	0.0498
733.125	0.0498
733.307	0.0497
733.489	0.0497
733.671	0.0496
733.853	0.0495
734.035	0.0495
734.217	0.0496
734.399	0.0497
734.581	0.0497
734.762	0.0496
734.944	0.0496
735.126	0.0496
735.308	0.0496
735.49	0.0496
735.672	0.0496
735.853	0.0497
736.035	0.0497
736.217	0.0497
736.399	0.0497
736.58	0.0497
736.762	0.0497
736.944	0.0497
737.126	0.0497
737.307	0.0497
737.489	0.0497
737.67	0.0497
737.852	0.0496
738.034	0.0496
738.215	0.0495
738.397	0.0495
738.578	0.0494
738.76	0.0494
738.941	0.0494
739.123	0.0494
739.304	0.0495
739.486	0.0495
739.667	0.0495
739.849	0.0495
740.03	0.0496
740.211	0.0496
740.393	0.0497
740.574	0.0498
740.756	0.0499
740.937	0.0499
741.118	0.0499
741.299	0.05
741.481	0.05
741.662	0.05
741.843	0.0501
742.025	0.0501
742.206	0.0501
742.387	0.0501
742.568	0.05
742.749	0.05
742.93	0.0499
743.112	0.05
743.293	0.05
743.474	0.05
743.655	0.0501
743.836	0.0501
744.017	0.0503
744.198	0.0504
744.379	0.0506
744.56	0.0507
744.741	0.0507
744.922	0.0507
745.103	0.0508
745.284	0.0509
745.465	0.051
745.646	0.0509
745.827	0.051
746.007	0.0509
746.188	0.0508
746.369	0.0508
746.55	0.0508
746.731	0.0507
746.911	0.0506
747.092	0.0505
747.273	0.0504
747.454	0.0503
747.634	0.0503
747.815	0.0503
747.996	0.0503
748.177	0.0503
748.357	0.0504
748.538	0.0506
748.718	0.0507
748.899	0.0507
749.08	0.0507
749.26	0.0506
749.441	0.0506
749.621	0.0504
749.802	0.0503
749.982	0.0502
750.163	0.0501
750.343	0.05
750.524	0.05
750.704	0.0499
750.885	0.0499
751.065	0.0497
751.245	0.0497
751.426	0.0495
751.606	0.0495
751.786	0.0495
751.967	0.0496
752.147	0.0495
752.327	0.0496
752.508	0.0496
752.688	0.0497
752.868	0.0498
753.048	0.05
753.229	0.05
753.409	0.0501
753.589	0.0503
753.769	0.0504
753.949	0.0505
754.129	0.0504
754.309	0.0504
754.489	0.0505
754.67	0.0506
754.85	0.0507
755.03	0.0507
755.21	0.0508
755.39	0.0508
755.57	0.0509
755.75	0.0509
755.93	0.051
756.11	0.0511
756.289	0.0512
756.469	0.0512
756.649	0.0512
756.829	0.0514
757.009	0.0515
757.189	0.0516
757.369	0.0518
757.548	0.0518
757.728	0.0518
757.908	0.0518
758.088	0.0519
758.267	0.0519
758.447	0.0519
758.627	0.0519
758.807	0.0518
758.986	0.0517
759.166	0.0515
759.346	0.0513
759.525	0.0512
759.705	0.0511
759.884	0.051
760.064	0.0509
760.243	0.0509
760.423	0.0509
760.603	0.051
760.782	0.051
760.962	0.0511
761.141	0.0511
761.32	0.0511
761.5	0.0512
761.679	0.0512
761.859	0.0512
762.038	0.0513
762.217	0.0514
762.397	0.0514
762.576	0.0514
762.755	0.0513
762.935	0.0513
763.114	0.0513
763.293	0.0513
763.473	0.0513
763.652	0.0513
763.831	0.0512
764.01	0.0512
764.189	0.0512
764.369	0.0513
764.548	0.0514
764.727	0.0515
764.906	0.0517
765.085	0.0518
765.264	0.0518
765.443	0.0519
765.622	0.052
765.801	0.0519
765.98	0.0519
766.159	0.0518
766.338	0.0518
766.517	0.0519
766.696	0.0519
766.875	0.0518
767.054	0.0518
767.233	0.0517
767.412	0.0516
767.591	0.0515
767.769	0.0516
767.948	0.0516
768.127	0.0516
768.306	0.0517
768.485	0.0518
768.663	0.0518
768.842	0.0518
769.021	0.0519
769.2	0.052
769.378	0.052
769.557	0.0521
769.736	0.0522
769.914	0.0523
770.093	0.0524
770.271	0.0525
770.45	0.0525
770.629	0.0526
770.807	0.0527
770.986	0.0528
771.164	0.0529
771.343	0.053
771.521	0.0531
771.7	0.0532
771.878	0.0532
772.057	0.0531
772.235	0.0532
772.413	0.0532
772.592	0.0533
772.77	0.0534
772.948	0.0534
773.127	0.0535
773.305	0.0534
773.483	0.0533
773.662	0.0532
773.84	0.0532
774.018	0.0532
774.196	0.0532
774.375	0.0532
774.553	0.0532
774.731	0.0532
774.909	0.0531
775.087	0.0531
775.265	0.0531
775.444	0.053
775.622	0.053
775.8	0.053
775.978	0.0529
776.156	0.0528
776.334	0.0527
776.512	0.0527
776.69	0.0525
776.868	0.0524
777.046	0.0523
777.224	0.0522
777.402	0.0521
777.58	0.052
777.757	0.0519
777.935	0.0518
778.113	0.0517
778.291	0.0517
778.469	0.0516
778.647	0.0515
778.824	0.0515
779.002	0.0516
779.18	0.0515
779.358	0.0516
779.535	0.0516
779.713	0.0515
779.891	0.0515
780.068	0.0514
780.246	0.0514
780.424	0.0514
780.601	0.0514
780.779	0.0513
780.957	0.0512
781.134	0.0512
781.312	0.0511
781.489	0.0511
781.667	0.051
781.844	0.051
782.022	0.0509
782.199	0.051
782.377	0.051
782.554	0.0511
782.731	0.0511
782.909	0.0512
783.086	0.0513
783.264	0.0513
783.441	0.0514
783.618	0.0516
783.795	0.0517
783.973	0.0517
784.15	0.0519
784.327	0.052
784.505	0.052
784.682	0.0521
784.859	0.0521
785.036	0.052
785.213	0.052
785.39	0.052
785.568	0.052
785.745	0.052
785.922	0.052
786.099	0.052
786.276	0.052
786.453	0.052
786.63	0.052
786.807	0.052
786.984	0.0519
787.161	0.052
787.338	0.052
787.515	0.052
787.692	0.0519
787.869	0.0519
788.046	0.0518
788.222	0.0518
788.399	0.0517
788.576	0.0516
788.753	0.0515
788.93	0.0513
789.107	0.0513
789.283	0.0511
789.46	0.051
789.637	0.051
789.814	0.0508
789.99	0.0507
790.167	0.0507
790.344	0.0507
790.52	0.0508
790.697	0.0509
790.873	0.051
791.05	0.0511
791.227	0.0512
791.403	0.0512
791.58	0.0513
791.756	0.0513
791.933	0.0513
792.109	0.0513
792.286	0.0512
792.462	0.0513
792.639	0.0513
792.815	0.0514
792.991	0.0514
793.168	0.0515
793.344	0.0515
793.521	0.0516
793.697	0.0515
793.873	0.0516
794.049	0.0517
794.226	0.0517
794.402	0.0518
794.578	0.0518
794.754	0.0519
794.931	0.0519
795.107	0.0519
795.283	0.052
795.459	0.0521
795.635	0.0522
795.811	0.0521
795.988	0.052
796.164	0.052
796.34	0.0518
796.516	0.0517
796.692	0.0516
796.868	0.0515
797.044	0.0514
797.22	0.0513
797.396	0.0511
797.572	0.051
797.748	0.051
797.924	0.0509
798.099	0.0509
798.275	0.0509
798.451	0.0509
798.627	0.0509
798.803	0.0509
798.979	0.051
799.154	0.051
799.33	0.0508
799.506	0.0508
799.682	0.0508
799.857	0.0508
800.033	0.0508
800.209	0.0508
800.385	0.0507
800.56	0.0506
800.736	0.0505
800.911	0.0505
801.087	0.0504
801.263	0.0503
801.438	0.0504
801.614	0.0505
801.789	0.0506
801.965	0.0506
802.14	0.0506
802.316	0.0506
802.491	0.0507
802.667	0.0509
802.842	0.051
803.017	0.0511
803.193	0.0511
803.368	0.0511
803.543	0.0511
803.719	0.051
803.894	0.051
804.069	0.0509
804.245	0.0508
804.42	0.0509
804.595	0.0509
804.77	0.051
804.946	0.0511
805.121	0.0512
805.296	0.0513
805.471	0.0513
805.646	0.0514
805.821	0.0515
805.997	0.0516
806.172	0.0517
806.347	0.0518
806.522	0.052
806.697	0.0521
806.872	0.0522
807.047	0.0523
807.222	0.0524
807.397	0.0525
807.572	0.0525
807.747	0.0526
807.921	0.0526
808.096	0.0526
808.271	0.0526
808.446	0.0527
808.621	0.0528
808.796	0.053
808.971	0.0531
809.145	0.0532
809.32	0.0533
809.495	0.0533
809.67	0.0534
809.844	0.0532
810.019	0.0533
810.194	0.0532
810.368	0.0531
810.543	0.053
810.718	0.053
810.892	0.0529
811.067	0.0529
811.241	0.0529
811.416	0.0528
811.59	0.0527
811.765	0.0527
811.939	0.0526
812.114	0.0525
812.288	0.0524
812.463	0.0522
812.637	0.052
812.812	0.0519
812.986	0.0518
813.16	0.0517
813.335	0.0516
813.509	0.0516
813.683	0.0516
813.858	0.0515
814.032	0.0514
814.206	0.0514
814.381	0.0514
814.555	0.0514
814.729	0.0515
814.903	0.0516
815.077	0.0516
815.252	0.0517
815.426	0.0517
815.6	0.0517
815.774	0.0518
815.948	0.0518
816.122	0.0517
816.296	0.0517
816.47	0.0517
816.644	0.0517
816.818	0.0518
816.992	0.0519
817.166	0.0519
817.34	0.0519
817.514	0.0521
817.688	0.0522
817.862	0.0524
818.036	0.0527
818.209	0.0529
818.383	0.0531
818.557	0.0533
818.731	0.0535
818.905	0.0537
819.078	0.0539
819.252	0.0539
819.426	0.054
819.6	0.0542
819.773	0.0543
819.947	0.0542
820.121	0.0542
820.294	0.0542
820.468	0.0542
820.642	0.0541
820.815	0.0541
820.989	0.0541
821.162	0.0542
821.336	0.0542
821.509	0.0542
821.683	0.0543
821.856	0.0543
822.03	0.0544
822.203	0.0543
822.377	0.0543
822.55	0.0544
822.723	0.0543
822.897	0.0541
823.07	0.054
823.243	0.0538
823.417	0.0537
823.59	0.0534
823.763	0.0532
823.937	0.0528
824.11	0.0526
824.283	0.0524
824.456	0.0522
824.629	0.0521
824.803	0.0519
824.976	0.0518
825.149	0.0517
825.322	0.0516
825.495	0.0514
825.668	0.0512
825.841	0.051
826.014	0.0509
826.187	0.0508
826.36	0.0507
826.533	0.0506
826.706	0.0505
826.879	0.0504
827.052	0.0504
827.225	0.0503
827.398	0.0502
827.571	0.0501
827.744	0.05
827.917	0.0499
828.089	0.0499
828.262	0.0498
828.435	0.0498
828.608	0.0497
828.781	0.0497
828.953	0.0498
829.126	0.0499
829.299	0.05
829.471	0.05
829.644	0.0502
829.817	0.0501
829.989	0.0502
830.162	0.0504
830.335	0.0503
830.507	0.0503
830.68	0.0504
830.852	0.0504
831.025	0.0505
831.197	0.0505
831.37	0.0505
831.542	0.0506
831.715	0.0506
831.887	0.0506
832.059	0.0506
832.232	0.0506
832.404	0.0506
832.577	0.0506
832.749	0.0507
832.921	0.0507
833.093	0.0508
833.266	0.0508
833.438	0.0509
833.61	0.0509
833.782	0.0509
833.955	0.0509
834.127	0.0509
834.299	0.0509
834.471	0.0508
834.643	0.0507
834.815	0.0508
834.988	0.0506
835.16	0.0506
835.332	0.0505
835.504	0.0504
835.676	0.0505
835.848	0.0506
836.02	0.0507
836.192	0.0507
836.364	0.0508
836.536	0.0509
836.708	0.0511
836.879	0.0512
837.051	0.0512
837.223	0.0512
837.395	0.0511
837.567	0.0512
837.739	0.0513
837.91	0.0512
838.082	0.0512
838.254	0.0512
838.426	0.0511
838.597	0.0513
838.769	0.0512
838.941	0.0512
839.112	0.0513
839.284	0.0512
839.456	0.0512
839.627	0.0512
839.799	0.0512
839.97	0.0513
840.142	0.0513
840.314	0.0515
840.485	0.0516
840.657	0.0516
840.828	0.0516
840.999	0.0513
841.171	0.0512
841.342	0.051
841.514	0.051
841.685	0.0509
841.856	0.0508
842.028	0.0506
842.199	0.0506
842.37	0.0505
842.542	0.0506
842.713	0.0506
842.884	0.0506
843.056	0.0506
843.227	0.0506
843.398	0.0505
843.569	0.0505
843.74	0.0505
843.911	0.0504
844.083	0.0504
844.254	0.0503
844.425	0.0502
844.596	0.0501
844.767	0.05
844.938	0.0499
845.109	0.0499
845.28	0.0499
845.451	0.0499
845.622	0.0497
845.793	0.0496
845.964	0.0496
846.135	0.0495
846.305	0.0496
846.476	0.0497
846.647	0.0497
846.818	0.0497
846.989	0.0498
847.16	0.0499
847.33	0.0499
847.501	0.0499
847.672	0.05
847.843	0.05
848.013	0.05
848.184	0.05
848.355	0.05
848.525	0.0499
848.696	0.0499
848.867	0.0497
849.037	0.0497
849.208	0.0497
849.378	0.0497
849.549	0.0497
849.719	0.0497
849.89	0.0498
850.06	0.0498
850.231	0.0497
850.401	0.0496
850.572	0.0494
850.742	0.0493
850.912	0.0493
851.083	0.0493
851.253	0.0492
851.423	0.0491
851.594	0.0492
851.764	0.049
851.934	0.049
852.104	0.049
852.275	0.0488
852.445	0.0485
852.615	0.0486
852.785	0.0486
852.955	0.0485
853.126	0.0485
853.296	0.0484
853.466	0.0483
853.636	0.0483
853.806	0.0482
853.976	0.0482
854.146	0.0483
854.316	0.0481
854.486	0.0479
854.656	0.0478
854.826	0.0477
854.996	0.0475
855.166	0.0475
855.336	0.0474
855.506	0.0473
855.675	0.0473
855.845	0.0473
856.015	0.0472
856.185	0.0471
856.355	0.047
856.525	0.047
856.694	0.0469
856.864	0.0468
857.034	0.0469
857.203	0.047
857.373	0.0469
857.543	0.047
857.712	0.0471
857.882	0.047
858.052	0.0469
858.221	0.047
858.391	0.0472
858.56	0.0473
858.73	0.0473
858.899	0.0472
859.069	0.0473
859.238	0.0474
859.408	0.0473
859.577	0.0474
859.747	0.0476
859.916	0.0477
860.085	0.0479
860.255	0.048
860.424	0.048
860.593	0.0481
860.763	0.0482
860.932	0.0484
861.101	0.0486
861.27	0.0487
861.44	0.0488
861.609	0.049
861.778	0.049
861.947	0.0491
862.116	0.049
862.285	0.049
862.455	0.0489
862.624	0.0489
862.793	0.049
862.962	0.0489
863.131	0.049
863.3	0.049
863.469	0.0489
863.638	0.0486
863.807	0.0484
863.976	0.0483
864.145	0.0483
864.314	0.048
864.482	0.0479
864.651	0.0477
864.82	0.0475
864.989	0.0472
865.158	0.0471
865.327	0.047
865.495	0.0469
865.664	0.0468
865.833	0.0466
866.002	0.0465
866.17	0.0464
866.339	0.0462
866.508	0.0461
866.676	0.046
866.845	0.0459
867.013	0.0458
867.182	0.0457
867.351	0.0458
867.519	0.0456
867.688	0.0457
867.856	0.0457
868.025	0.0458
868.193	0.0458
868.362	0.0457
868.53	0.0456
868.698	0.0455
868.867	0.0454
869.035	0.0456
869.203	0.0456
869.372	0.0456
869.54	0.0458
869.708	0.0458
869.877	0.0461
870.045	0.0462
870.213	0.0462
870.381	0.0464
870.55	0.0465
870.718	0.0466
870.886	0.0466
871.054	0.0468
871.222	0.0466
871.39	0.0466
871.558	0.0466
871.727	0.0465
871.895	0.0467
872.063	0.0468
872.231	0.0469
872.399	0.047
872.567	0.0471
872.735	0.0472
872.902	0.047
873.07	0.0468
873.238	0.0468
873.406	0.0468
873.574	0.0467
873.742	0.0469
873.91	0.0469
874.077	0.047
874.245	0.0468
874.413	0.0467
874.581	0.0467
874.749	0.0467
874.916	0.0467
875.084	0.0465
875.252	0.0463
875.419	0.0463
875.587	0.0461
875.754	0.0457
875.922	0.0457
876.09	0.0457
876.257	0.0456
876.425	0.0459
876.592	0.046
876.76	0.0459
876.927	0.0458
877.095	0.0456
877.262	0.0456
877.43	0.0456
877.597	0.0456
877.764	0.0454
877.932	0.0454
878.099	0.0454
878.266	0.0457
878.434	0.0456
878.601	0.0456
878.768	0.0458
878.935	0.0457
879.103	0.0456
879.27	0.0457
879.437	0.0459
879.604	0.0461
879.771	0.046
879.939	0.0459
880.106	0.0461
880.273	0.0462
880.44	0.0463
880.607	0.0464
880.774	0.0466
880.941	0.0466
881.108	0.0466
881.275	0.0464
881.442	0.0463
881.609	0.0462
881.776	0.0461
881.943	0.0463
882.11	0.0463
882.276	0.0467
882.443	0.0463
882.61	0.0464
882.777	0.0465
882.944	0.0464
883.11	0.0466
883.277	0.0468
883.444	0.0467
883.611	0.0468
883.777	0.0469
883.944	0.0467
884.111	0.0467
884.277	0.0468
884.444	0.0468
884.61	0.0467
884.777	0.0466
884.944	0.0467
885.11	0.0468
885.277	0.0465
885.443	0.0465
885.61	0.0466
885.776	0.0467
885.942	0.0465
886.109	0.0467
886.275	0.0469
886.442	0.0472
