Data from TB_taskE_Absorbance_1.txt Node
Date: Mon Nov 13 17:41:18 CET 2023
User: student
Spectrometer: USB4F03453
Autoset integration time: false
Trigger mode: 4
Integration Time (sec): 1.800000E-2
Scans to average: 60
Electric dark correction enabled: true
Nonlinearity correction enabled: false
Boxcar width: 15
XAxis mode: Wavelengths
Stop averaging: false
Number of Pixels in Spectrum: 3648
>>>>>Begin Spectral Data<<<<<
179.221	0.3893
179.435	0.5119
179.649	0.448
179.863	0.924
180.076	0.5217
180.29	0.4403
180.504	0.453
180.718	0.4438
180.931	0.4305
181.145	0.4216
181.359	0.4231
181.572	0.4209
181.786	0.4216
182	0.4337
182.213	0.4358
182.427	0.4353
182.641	0.4314
182.854	0.4334
183.068	0.4341
183.282	0.4346
183.495	0.4372
183.709	0.4296
183.922	0.432
184.136	0.429
184.35	0.4291
184.563	0.4319
184.777	0.4388
184.99	0.4406
185.204	0.4393
185.417	0.443
185.631	0.4431
185.845	0.4413
186.058	0.4423
186.272	0.4439
186.485	0.4423
186.699	0.4441
186.912	0.4517
187.126	0.4521
187.339	0.4556
187.553	0.4571
187.766	0.4652
187.98	0.4708
188.193	0.4765
188.407	0.4788
188.62	0.4812
188.834	0.4848
189.047	0.4921
189.26	0.5018
189.474	0.5121
189.687	0.5183
189.901	0.5295
190.114	0.5414
190.327	0.5526
190.541	0.5594
190.754	0.5696
190.968	0.5791
191.181	0.5907
191.394	0.6004
191.608	0.6125
191.821	0.6269
192.034	0.6369
192.248	0.6483
192.461	0.6625
192.674	0.6744
192.888	0.6845
193.101	0.6984
193.314	0.7066
193.528	0.7159
193.741	0.7283
193.954	0.7398
194.168	0.7571
194.381	0.767
194.594	0.7771
194.807	0.7887
195.021	0.802
195.234	0.8156
195.447	0.8293
195.66	0.8417
195.874	0.8538
196.087	0.8637
196.3	0.8764
196.513	0.8867
196.726	0.8965
196.94	0.9036
197.153	0.9168
197.366	0.9282
197.579	0.9405
197.792	0.9495
198.005	0.958
198.219	0.9679
198.432	0.9773
198.645	0.9846
198.858	0.9942
199.071	1.0021
199.284	1.0148
199.497	1.0277
199.71	1.0373
199.924	1.0488
200.137	1.059
200.35	1.0703
200.563	1.0803
200.776	1.0889
200.989	1.1002
201.202	1.111
201.415	1.1201
201.628	1.1286
201.841	1.1342
202.054	1.1426
202.267	1.1536
202.48	1.1649
202.693	1.1727
202.906	1.1855
203.119	1.1897
203.332	1.2011
203.545	1.2122
203.758	1.2187
203.971	1.227
204.184	1.2344
204.397	1.2413
204.61	1.2519
204.823	1.2611
205.036	1.2664
205.249	1.2763
205.462	1.2864
205.674	1.2933
205.887	1.2998
206.1	1.3058
206.313	1.313
206.526	1.324
206.739	1.3318
206.952	1.3387
207.165	1.345
207.377	1.3521
207.59	1.3563
207.803	1.3626
208.016	1.3703
208.229	1.3781
208.442	1.3863
208.654	1.3926
208.867	1.3969
209.08	1.4016
209.293	1.4078
209.506	1.4103
209.718	1.418
209.931	1.4209
210.144	1.4264
210.357	1.4309
210.569	1.4346
210.782	1.4389
210.995	1.4421
211.207	1.4428
211.42	1.4455
211.633	1.448
211.846	1.4509
212.058	1.45
212.271	1.4545
212.484	1.4547
212.696	1.455
212.909	1.4555
213.122	1.4572
213.334	1.4579
213.547	1.4581
213.76	1.458
213.972	1.4564
214.185	1.4556
214.397	1.4538
214.61	1.4523
214.823	1.451
215.035	1.4471
215.248	1.4433
215.46	1.4398
215.673	1.4344
215.885	1.4301
216.098	1.4259
216.311	1.4202
216.523	1.4146
216.736	1.4078
216.948	1.4029
217.161	1.3966
217.373	1.3895
217.586	1.3836
217.798	1.3756
218.011	1.3674
218.223	1.3595
218.436	1.3497
218.648	1.3414
218.861	1.33
219.073	1.3198
219.285	1.3104
219.498	1.2999
219.71	1.2876
219.923	1.2765
220.135	1.265
220.348	1.254
220.56	1.2422
220.772	1.23
220.985	1.2178
221.197	1.2051
221.41	1.1917
221.622	1.1789
221.834	1.166
222.047	1.1531
222.259	1.1406
222.471	1.1273
222.684	1.1141
222.896	1.1007
223.108	1.0875
223.321	1.0743
223.533	1.0602
223.745	1.0468
223.957	1.0336
224.17	1.0204
224.382	1.0074
224.594	0.9943
224.806	0.9809
225.019	0.9679
225.231	0.9552
225.443	0.943
225.655	0.9307
225.868	0.918
226.08	0.9056
226.292	0.8929
226.504	0.8808
226.716	0.8686
226.929	0.8566
227.141	0.845
227.353	0.8337
227.565	0.8227
227.777	0.8121
227.989	0.8017
228.202	0.7913
228.414	0.781
228.626	0.7709
228.838	0.761
229.05	0.7513
229.262	0.7416
229.474	0.7318
229.686	0.7225
229.898	0.713
230.11	0.7038
230.322	0.6947
230.534	0.6856
230.747	0.677
230.959	0.6684
231.171	0.6602
231.383	0.652
231.595	0.6444
231.807	0.6365
232.019	0.6291
232.231	0.6218
232.443	0.6146
232.655	0.6078
232.867	0.6008
233.079	0.5943
233.29	0.5877
233.502	0.5814
233.714	0.575
233.926	0.569
234.138	0.5632
234.35	0.5575
234.562	0.552
234.774	0.5465
234.986	0.5413
235.198	0.5363
235.41	0.5314
235.622	0.5267
235.833	0.522
236.045	0.5174
236.257	0.513
236.469	0.5087
236.681	0.5045
236.893	0.5003
237.104	0.4963
237.316	0.4924
237.528	0.4886
237.74	0.4849
237.952	0.4814
238.163	0.478
238.375	0.4747
238.587	0.4716
238.799	0.4686
239.01	0.4656
239.222	0.4627
239.434	0.46
239.646	0.4574
239.857	0.455
240.069	0.4527
240.281	0.4504
240.492	0.4482
240.704	0.4461
240.916	0.4441
241.128	0.4422
241.339	0.4403
241.551	0.4385
241.762	0.4368
241.974	0.4352
242.186	0.4336
242.397	0.4321
242.609	0.4306
242.821	0.4293
243.032	0.428
243.244	0.4269
243.455	0.4257
243.667	0.4247
243.879	0.4237
244.09	0.4228
244.302	0.4219
244.513	0.4212
244.725	0.4206
244.936	0.4199
245.148	0.4193
245.359	0.4188
245.571	0.4183
245.782	0.4179
245.994	0.4175
246.205	0.4173
246.417	0.417
246.628	0.4168
246.84	0.4167
247.051	0.4166
247.263	0.4166
247.474	0.4166
247.686	0.4166
247.897	0.4167
248.108	0.4168
248.32	0.417
248.531	0.4172
248.743	0.4175
248.954	0.4178
249.165	0.4182
249.377	0.4186
249.588	0.4191
249.8	0.4196
250.011	0.4201
250.222	0.4207
250.434	0.4213
250.645	0.422
250.856	0.4227
251.067	0.4234
251.279	0.4242
251.49	0.425
251.701	0.4258
251.913	0.4266
252.124	0.4276
252.335	0.4285
252.546	0.4295
252.758	0.4305
252.969	0.4315
253.18	0.4326
253.391	0.4336
253.603	0.4347
253.814	0.4359
254.025	0.437
254.236	0.4382
254.447	0.4394
254.659	0.4407
254.87	0.4419
255.081	0.4432
255.292	0.4445
255.503	0.4458
255.714	0.4472
255.925	0.4486
256.137	0.45
256.348	0.4514
256.559	0.453
256.77	0.4545
256.981	0.456
257.192	0.4575
257.403	0.459
257.614	0.4606
257.825	0.4621
258.036	0.4637
258.247	0.4653
258.458	0.467
258.669	0.4687
258.88	0.4704
259.091	0.4721
259.302	0.4737
259.513	0.4755
259.724	0.4772
259.935	0.4789
260.146	0.4807
260.357	0.4825
260.568	0.4843
260.779	0.4861
260.99	0.488
261.201	0.4898
261.412	0.4916
261.623	0.4934
261.834	0.4951
262.045	0.497
262.256	0.4988
262.467	0.5007
262.677	0.5025
262.888	0.5045
263.099	0.5063
263.31	0.5082
263.521	0.5102
263.732	0.5121
263.943	0.514
264.153	0.5159
264.364	0.5177
264.575	0.5196
264.786	0.5214
264.997	0.5232
265.207	0.5251
265.418	0.527
265.629	0.5288
265.84	0.5306
266.05	0.5324
266.261	0.5342
266.472	0.5359
266.683	0.5377
266.893	0.5394
267.104	0.5411
267.315	0.5427
267.525	0.5443
267.736	0.5459
267.947	0.5475
268.157	0.549
268.368	0.5505
268.579	0.552
268.789	0.5533
269	0.5547
269.211	0.556
269.421	0.5573
269.632	0.5586
269.842	0.5597
270.053	0.5608
270.264	0.5619
270.474	0.5629
270.685	0.5639
270.895	0.5648
271.106	0.5657
271.316	0.5666
271.527	0.5673
271.737	0.568
271.948	0.5685
272.158	0.569
272.369	0.5695
272.579	0.5699
272.79	0.5703
273	0.5706
273.211	0.5708
273.421	0.5709
273.632	0.5709
273.842	0.5709
274.053	0.5708
274.263	0.5707
274.474	0.5704
274.684	0.57
274.894	0.5696
275.105	0.5691
275.315	0.5685
275.526	0.5678
275.736	0.567
275.946	0.5661
276.157	0.5653
276.367	0.5643
276.577	0.5632
276.788	0.5619
276.998	0.5606
277.208	0.5593
277.419	0.5578
277.629	0.5562
277.839	0.5545
278.049	0.5527
278.26	0.5508
278.47	0.5489
278.68	0.5467
278.89	0.5444
279.101	0.5421
279.311	0.5397
279.521	0.5371
279.731	0.5342
279.942	0.5314
280.152	0.5285
280.362	0.5255
280.572	0.5223
280.782	0.519
280.992	0.5156
281.203	0.5121
281.413	0.5085
281.623	0.5048
281.833	0.5011
282.043	0.4973
282.253	0.4933
282.463	0.4893
282.674	0.4851
282.884	0.481
283.094	0.4768
283.304	0.4725
283.514	0.4681
283.724	0.4638
283.934	0.4595
284.144	0.4552
284.354	0.4509
284.564	0.4466
284.774	0.4423
284.984	0.4379
285.194	0.4337
285.404	0.4295
285.614	0.4253
285.824	0.4212
286.034	0.417
286.244	0.413
286.454	0.4091
286.664	0.4051
286.874	0.4014
287.084	0.3977
287.294	0.3939
287.503	0.3904
287.713	0.3869
287.923	0.3835
288.133	0.3802
288.343	0.3771
288.553	0.374
288.763	0.3711
288.973	0.3682
289.182	0.3655
289.392	0.3629
289.602	0.3602
289.812	0.3578
290.022	0.3554
290.231	0.3532
290.441	0.3511
290.651	0.349
290.861	0.3471
291.071	0.3452
291.28	0.3434
291.49	0.3416
291.7	0.34
291.91	0.3385
292.119	0.337
292.329	0.3356
292.539	0.3343
292.748	0.3331
292.958	0.3319
293.168	0.3308
293.377	0.3297
293.587	0.3287
293.797	0.3278
294.006	0.3269
294.216	0.3261
294.426	0.3254
294.635	0.3247
294.845	0.324
295.054	0.3234
295.264	0.3228
295.474	0.3223
295.683	0.3218
295.893	0.3214
296.102	0.321
296.312	0.3206
296.521	0.3203
296.731	0.32
296.94	0.3198
297.15	0.3196
297.359	0.3194
297.569	0.3192
297.778	0.3191
297.988	0.3191
298.197	0.319
298.407	0.319
298.616	0.319
298.826	0.3191
299.035	0.3191
299.245	0.3192
299.454	0.3193
299.663	0.3194
299.873	0.3196
300.082	0.3198
300.292	0.32
300.501	0.3202
300.71	0.3205
300.92	0.3208
301.129	0.321
301.338	0.3213
301.548	0.3216
301.757	0.322
301.966	0.3223
302.176	0.3227
302.385	0.3231
302.594	0.3235
302.804	0.3239
303.013	0.3243
303.222	0.3247
303.431	0.3252
303.641	0.3256
303.85	0.3261
304.059	0.3266
304.268	0.3271
304.477	0.3276
304.687	0.3281
304.896	0.3286
305.105	0.3291
305.314	0.3297
305.523	0.3302
305.733	0.3307
305.942	0.3313
306.151	0.3319
306.36	0.3325
306.569	0.333
306.778	0.3337
306.987	0.3343
307.196	0.3348
307.406	0.3355
307.615	0.336
307.824	0.3366
308.033	0.3373
308.242	0.3379
308.451	0.3386
308.66	0.3393
308.869	0.3399
309.078	0.3405
309.287	0.3411
309.496	0.3417
309.705	0.3424
309.914	0.343
310.123	0.3437
310.332	0.3443
310.541	0.3449
310.75	0.3456
310.959	0.3462
311.168	0.3468
311.377	0.3474
311.585	0.348
311.794	0.3486
312.003	0.3492
312.212	0.3499
312.421	0.3505
312.63	0.3511
312.839	0.3517
313.048	0.3523
313.256	0.3528
313.465	0.3534
313.674	0.354
313.883	0.3545
314.092	0.3551
314.301	0.3557
314.509	0.3563
314.718	0.3568
314.927	0.3574
315.136	0.3579
315.344	0.3585
315.553	0.359
315.762	0.3595
315.971	0.3601
316.179	0.3606
316.388	0.3611
316.597	0.3617
316.805	0.3622
317.014	0.3628
317.223	0.3633
317.431	0.3638
317.64	0.3643
317.849	0.3648
318.057	0.3653
318.266	0.3658
318.475	0.3664
318.683	0.3668
318.892	0.3672
319.1	0.3677
319.309	0.3681
319.518	0.3686
319.726	0.369
319.935	0.3695
320.143	0.3699
320.352	0.3703
320.56	0.3707
320.769	0.3711
320.977	0.3715
321.186	0.3719
321.394	0.3723
321.603	0.3727
321.811	0.3731
322.02	0.3735
322.228	0.3739
322.437	0.3743
322.645	0.3747
322.854	0.375
323.062	0.3753
323.27	0.3757
323.479	0.376
323.687	0.3764
323.896	0.3766
324.104	0.377
324.312	0.3773
324.521	0.3777
324.729	0.378
324.937	0.3783
325.146	0.3787
325.354	0.3791
325.562	0.3794
325.771	0.3797
325.979	0.38
326.187	0.3804
326.396	0.3807
326.604	0.3811
326.812	0.3815
327.02	0.3818
327.229	0.3821
327.437	0.3824
327.645	0.3828
327.853	0.3831
328.061	0.3834
328.27	0.3837
328.478	0.3839
328.686	0.3843
328.894	0.3846
329.102	0.3848
329.311	0.3851
329.519	0.3854
329.727	0.3857
329.935	0.386
330.143	0.3863
330.351	0.3867
330.559	0.387
330.767	0.3873
330.975	0.3876
331.183	0.3878
331.392	0.3881
331.6	0.3884
331.808	0.3887
332.016	0.3889
332.224	0.3891
332.432	0.3894
332.64	0.3896
332.848	0.3898
333.056	0.3901
333.264	0.3903
333.472	0.3906
333.68	0.3908
333.888	0.391
334.095	0.3912
334.303	0.3915
334.511	0.3917
334.719	0.392
334.927	0.3923
335.135	0.3925
335.343	0.3927
335.551	0.393
335.759	0.3932
335.967	0.3934
336.174	0.3937
336.382	0.3939
336.59	0.3941
336.798	0.3942
337.006	0.3944
337.213	0.3947
337.421	0.3949
337.629	0.3951
337.837	0.3954
338.045	0.3956
338.252	0.3958
338.46	0.396
338.668	0.3962
338.876	0.3964
339.083	0.3966
339.291	0.3968
339.499	0.3971
339.706	0.3973
339.914	0.3975
340.122	0.3978
340.329	0.398
340.537	0.3982
340.745	0.3985
340.952	0.3987
341.16	0.3989
341.368	0.3992
341.575	0.3994
341.783	0.3997
341.99	0.4
342.198	0.4002
342.406	0.4005
342.613	0.4007
342.821	0.401
343.028	0.4013
343.236	0.4015
343.443	0.4019
343.651	0.4021
343.858	0.4024
344.066	0.4028
344.273	0.4031
344.481	0.4034
344.688	0.4037
344.896	0.4041
345.103	0.4044
345.311	0.4048
345.518	0.4052
345.725	0.4056
345.933	0.406
346.14	0.4064
346.348	0.4068
346.555	0.4072
346.762	0.4076
346.97	0.408
347.177	0.4084
347.384	0.4088
347.592	0.4093
347.799	0.4097
348.006	0.4102
348.214	0.4107
348.421	0.4111
348.628	0.4116
348.836	0.4121
349.043	0.4127
349.25	0.4133
349.457	0.4138
349.665	0.4144
349.872	0.4149
350.079	0.4155
350.286	0.4161
350.493	0.4166
350.701	0.4172
350.908	0.4178
351.115	0.4184
351.322	0.419
351.529	0.4197
351.736	0.4204
351.944	0.421
352.151	0.4216
352.358	0.4223
352.565	0.423
352.772	0.4237
352.979	0.4244
353.186	0.4251
353.393	0.4259
353.6	0.4267
353.807	0.4276
354.014	0.4284
354.221	0.4291
354.428	0.43
354.635	0.4308
354.842	0.4317
355.049	0.4326
355.256	0.4334
355.463	0.4343
355.67	0.4352
355.877	0.4361
356.084	0.437
356.291	0.438
356.498	0.4389
356.705	0.4398
356.912	0.4408
357.119	0.4418
357.326	0.4429
357.533	0.4439
357.74	0.445
357.946	0.4459
358.153	0.447
358.36	0.4481
358.567	0.4491
358.774	0.4503
358.981	0.4513
359.187	0.4525
359.394	0.4536
359.601	0.4547
359.808	0.4559
360.014	0.457
360.221	0.4582
360.428	0.4594
360.635	0.4605
360.841	0.4617
361.048	0.4628
361.255	0.464
361.462	0.4652
361.668	0.4664
361.875	0.4677
362.082	0.469
362.288	0.4702
362.495	0.4715
362.702	0.4728
362.908	0.474
363.115	0.4754
363.321	0.4766
363.528	0.4779
363.735	0.4792
363.941	0.4806
364.148	0.4819
364.354	0.4833
364.561	0.4847
364.767	0.486
364.974	0.4874
365.18	0.4888
365.387	0.4903
365.593	0.4916
365.8	0.493
366.006	0.4944
366.213	0.4959
366.419	0.4972
366.626	0.4986
366.832	0.5
367.039	0.5015
367.245	0.5029
367.452	0.5044
367.658	0.5059
367.864	0.5074
368.071	0.5089
368.277	0.5104
368.483	0.5119
368.69	0.5134
368.896	0.5149
369.102	0.5164
369.309	0.5179
369.515	0.5192
369.721	0.5206
369.928	0.5221
370.134	0.5237
370.34	0.5251
370.547	0.5267
370.753	0.5283
370.959	0.5298
371.165	0.5313
371.372	0.5329
371.578	0.5345
371.784	0.5362
371.99	0.5378
372.196	0.5393
372.403	0.5409
372.609	0.5426
372.815	0.5441
373.021	0.5457
373.227	0.5473
373.433	0.5489
373.639	0.5506
373.845	0.552
374.052	0.5537
374.258	0.5551
374.464	0.5567
374.67	0.5582
374.876	0.5598
375.082	0.5614
375.288	0.5629
375.494	0.5646
375.7	0.5661
375.906	0.5676
376.112	0.5692
376.318	0.5706
376.524	0.5721
376.73	0.5737
376.936	0.5751
377.142	0.5767
377.348	0.5782
377.554	0.5797
377.76	0.5812
377.966	0.5827
378.172	0.5842
378.377	0.5857
378.583	0.5871
378.789	0.5886
378.995	0.59
379.201	0.5914
379.407	0.5928
379.613	0.5943
379.818	0.5956
380.024	0.597
380.23	0.5984
380.436	0.5998
380.642	0.6012
380.847	0.6025
381.053	0.6039
381.259	0.6054
381.465	0.6067
381.67	0.608
381.876	0.6094
382.082	0.6109
382.287	0.6123
382.493	0.6136
382.699	0.6149
382.905	0.6161
383.11	0.6174
383.316	0.6187
383.521	0.6199
383.727	0.6213
383.933	0.6226
384.138	0.624
384.344	0.6253
384.55	0.6265
384.755	0.6277
384.961	0.6289
385.166	0.6302
385.372	0.6314
385.577	0.6326
385.783	0.6338
385.988	0.635
386.194	0.6363
386.399	0.6373
386.605	0.6385
386.81	0.6395
387.016	0.6406
387.221	0.6416
387.427	0.6427
387.632	0.6438
387.838	0.6449
388.043	0.646
388.248	0.647
388.454	0.6481
388.659	0.6491
388.865	0.6501
389.07	0.6512
389.275	0.6522
389.481	0.6533
389.686	0.6543
389.891	0.6552
390.097	0.6562
390.302	0.6571
390.507	0.658
390.713	0.6589
390.918	0.6598
391.123	0.6607
391.328	0.6615
391.534	0.6625
391.739	0.6634
391.944	0.6642
392.149	0.665
392.355	0.6658
392.56	0.6667
392.765	0.6675
392.97	0.6684
393.175	0.6692
393.38	0.67
393.586	0.6707
393.791	0.6715
393.996	0.6723
394.201	0.673
394.406	0.6738
394.611	0.6746
394.816	0.6753
395.021	0.6762
395.226	0.677
395.431	0.6777
395.637	0.6784
395.842	0.6791
396.047	0.6798
396.252	0.6804
396.457	0.6811
396.662	0.6818
396.867	0.6823
397.072	0.6829
397.277	0.6835
397.481	0.6841
397.686	0.6847
397.891	0.6852
398.096	0.6857
398.301	0.6864
398.506	0.6869
398.711	0.6873
398.916	0.6878
399.121	0.6883
399.326	0.6889
399.53	0.6894
399.735	0.6899
399.94	0.6904
400.145	0.6909
400.35	0.6913
400.555	0.6919
400.759	0.6923
400.964	0.6927
401.169	0.6932
401.374	0.6937
401.578	0.6942
401.783	0.6947
401.988	0.6952
402.193	0.6956
402.397	0.6961
402.602	0.6966
402.807	0.6969
403.011	0.6973
403.216	0.6977
403.421	0.698
403.625	0.6985
403.83	0.6989
404.035	0.6992
404.239	0.6995
404.444	0.6999
404.648	0.7001
404.853	0.7005
405.057	0.7009
405.262	0.7012
405.467	0.7015
405.671	0.7017
405.876	0.7021
406.08	0.7023
406.285	0.7027
406.489	0.703
406.694	0.7032
406.898	0.7035
407.103	0.7038
407.307	0.7042
407.511	0.7044
407.716	0.7046
407.92	0.7048
408.125	0.7051
408.329	0.7053
408.534	0.7054
408.738	0.7056
408.942	0.7059
409.147	0.7061
409.351	0.7064
409.555	0.7066
409.76	0.7068
409.964	0.707
410.168	0.7072
410.373	0.7074
410.577	0.7076
410.781	0.7078
410.985	0.7079
411.19	0.7081
411.394	0.7082
411.598	0.7084
411.802	0.7086
412.007	0.7088
412.211	0.7089
412.415	0.7091
412.619	0.7092
412.823	0.7093
413.028	0.7095
413.232	0.7096
413.436	0.7097
413.64	0.7097
413.844	0.7099
414.048	0.7099
414.252	0.71
414.456	0.71
414.66	0.7101
414.865	0.7102
415.069	0.7102
415.273	0.7102
415.477	0.7103
415.681	0.7103
415.885	0.7104
416.089	0.7104
416.293	0.7103
416.497	0.7104
416.701	0.7104
416.905	0.7103
417.109	0.7104
417.313	0.7104
417.516	0.7105
417.72	0.7106
417.924	0.7106
418.128	0.7106
418.332	0.7106
418.536	0.7105
418.74	0.7105
418.944	0.7105
419.148	0.7105
419.351	0.7104
419.555	0.7104
419.759	0.7103
419.963	0.7103
420.167	0.7102
420.37	0.7102
420.574	0.7101
420.778	0.71
420.982	0.71
421.185	0.71
421.389	0.7099
421.593	0.7099
421.797	0.7098
422	0.7097
422.204	0.7095
422.408	0.7095
422.611	0.7094
422.815	0.7093
423.019	0.7092
423.222	0.7091
423.426	0.709
423.629	0.7088
423.833	0.7086
424.037	0.7084
424.24	0.7082
424.444	0.708
424.647	0.7078
424.851	0.7076
425.054	0.7073
425.258	0.7072
425.461	0.7069
425.665	0.7067
425.868	0.7064
426.072	0.7062
426.275	0.7059
426.479	0.7057
426.682	0.7054
426.886	0.7053
427.089	0.705
427.293	0.7047
427.496	0.7045
427.699	0.7042
427.903	0.7039
428.106	0.7035
428.309	0.7032
428.513	0.703
428.716	0.7026
428.919	0.7023
429.123	0.702
429.326	0.7017
429.529	0.7014
429.733	0.7011
429.936	0.7008
430.139	0.7004
430.342	0.7
430.546	0.6997
430.749	0.6994
430.952	0.699
431.155	0.6988
431.359	0.6985
431.562	0.698
431.765	0.6977
431.968	0.6973
432.171	0.6969
432.374	0.6964
432.578	0.696
432.781	0.6956
432.984	0.6951
433.187	0.6946
433.39	0.6943
433.593	0.6937
433.796	0.6933
433.999	0.6928
434.202	0.6922
434.405	0.6918
434.608	0.6914
434.811	0.6909
435.014	0.6905
435.217	0.69
435.42	0.6895
435.623	0.689
435.826	0.6885
436.029	0.6881
436.232	0.6876
436.435	0.687
436.638	0.6864
436.841	0.6857
437.044	0.6849
437.247	0.6843
437.45	0.6836
437.652	0.683
437.855	0.6824
438.058	0.6817
438.261	0.681
438.464	0.6804
438.667	0.6798
438.869	0.6791
439.072	0.6784
439.275	0.6778
439.478	0.6771
439.68	0.6765
439.883	0.6759
440.086	0.6752
440.289	0.6745
440.491	0.6738
440.694	0.6732
440.897	0.6724
441.099	0.6718
441.302	0.6711
441.505	0.6705
441.707	0.6698
441.91	0.6692
442.113	0.6684
442.315	0.6676
442.518	0.6669
442.72	0.6662
442.923	0.6656
443.126	0.6648
443.328	0.6641
443.531	0.6634
443.733	0.6627
443.936	0.6619
444.138	0.6611
444.341	0.6602
444.543	0.6594
444.746	0.6585
444.948	0.6576
445.151	0.6567
445.353	0.6558
445.555	0.6549
445.758	0.6539
445.96	0.653
446.163	0.6521
446.365	0.6512
446.567	0.6503
446.77	0.6493
446.972	0.6484
447.175	0.6475
447.377	0.6465
447.579	0.6456
447.781	0.6446
447.984	0.6435
448.186	0.6424
448.388	0.6415
448.591	0.6406
448.793	0.6395
448.995	0.6385
449.197	0.6375
449.4	0.6366
449.602	0.6356
449.804	0.6346
450.006	0.6337
450.208	0.6327
450.411	0.6318
450.613	0.6308
450.815	0.6298
451.017	0.6288
451.219	0.6279
451.421	0.6269
451.623	0.6259
451.825	0.625
452.027	0.624
452.229	0.6229
452.432	0.6219
452.634	0.6209
452.836	0.6198
453.038	0.6188
453.24	0.6177
453.442	0.6168
453.644	0.6157
453.846	0.6147
454.048	0.6136
454.25	0.6127
454.451	0.6117
454.653	0.6106
454.855	0.6094
455.057	0.6083
455.259	0.607
455.461	0.606
455.663	0.605
455.865	0.604
456.067	0.603
456.268	0.602
456.47	0.6009
456.672	0.5999
456.874	0.5988
457.076	0.5979
457.277	0.5968
457.479	0.5957
457.681	0.5946
457.883	0.5936
458.084	0.5925
458.286	0.5914
458.488	0.5903
458.69	0.5891
458.891	0.5881
459.093	0.587
459.295	0.5861
459.496	0.5851
459.698	0.5842
459.9	0.5831
460.101	0.5823
460.303	0.5813
460.504	0.5801
460.706	0.579
460.908	0.5779
461.109	0.5768
461.311	0.5758
461.512	0.5747
461.714	0.5736
461.915	0.5726
462.117	0.5715
462.318	0.5703
462.52	0.5692
462.721	0.5681
462.923	0.567
463.124	0.5659
463.326	0.5649
463.527	0.564
463.729	0.5631
463.93	0.5622
464.131	0.5613
464.333	0.5602
464.534	0.5593
464.735	0.5583
464.937	0.5575
465.138	0.5566
465.34	0.5557
465.541	0.5547
465.742	0.5537
465.943	0.5526
466.145	0.5517
466.346	0.5507
466.547	0.5497
466.748	0.5488
466.95	0.5479
467.151	0.547
467.352	0.5462
467.553	0.5451
467.755	0.5443
467.956	0.5434
468.157	0.5424
468.358	0.5415
468.559	0.5405
468.76	0.5395
468.961	0.5386
469.163	0.5376
469.364	0.5367
469.565	0.5357
469.766	0.5348
469.967	0.5339
470.168	0.533
470.369	0.5321
470.57	0.5312
470.771	0.5303
470.972	0.5296
471.173	0.5287
471.374	0.5279
471.575	0.527
471.776	0.5262
471.977	0.5254
472.178	0.5245
472.379	0.5238
472.58	0.5231
472.781	0.5224
472.982	0.5216
473.182	0.521
473.383	0.5202
473.584	0.5194
473.785	0.5188
473.986	0.5181
474.187	0.5175
474.387	0.5169
474.588	0.5163
474.789	0.5157
474.99	0.5151
475.191	0.5144
475.391	0.5138
475.592	0.5132
475.793	0.5125
475.994	0.5119
476.194	0.5114
476.395	0.5108
476.596	0.5103
476.796	0.5097
476.997	0.5091
477.198	0.5085
477.398	0.508
477.599	0.5075
477.799	0.5069
478	0.5064
478.201	0.506
478.401	0.5055
478.602	0.5049
478.802	0.5044
479.003	0.5041
479.203	0.5036
479.404	0.5032
479.604	0.5028
479.805	0.5025
480.005	0.5021
480.206	0.5018
480.406	0.5013
480.607	0.501
480.807	0.5006
481.008	0.5002
481.208	0.4999
481.409	0.4996
481.609	0.4993
481.809	0.499
482.01	0.4987
482.21	0.4982
482.41	0.4975
482.611	0.4966
482.811	0.4956
483.011	0.4948
483.212	0.4944
483.412	0.4942
483.612	0.494
483.812	0.4939
484.013	0.4938
484.213	0.4937
484.413	0.4936
484.613	0.4935
484.814	0.4935
485.014	0.4934
485.214	0.4933
485.414	0.4933
485.614	0.4933
485.814	0.4933
486.015	0.4932
486.215	0.4932
486.415	0.4932
486.615	0.4932
486.815	0.4933
487.015	0.4933
487.215	0.4934
487.415	0.4935
487.615	0.4935
487.815	0.4936
488.015	0.4938
488.215	0.4938
488.415	0.494
488.615	0.4943
488.815	0.4949
489.015	0.4958
489.215	0.4967
489.415	0.4972
489.615	0.4976
489.815	0.4979
490.015	0.4982
490.215	0.4985
490.415	0.4989
490.614	0.4992
490.814	0.4997
491.014	0.5001
491.214	0.5004
491.414	0.5009
491.613	0.5013
491.813	0.5017
492.013	0.5021
492.213	0.5025
492.413	0.503
492.612	0.5035
492.812	0.504
493.012	0.5046
493.211	0.5051
493.411	0.5056
493.611	0.5062
493.811	0.5068
494.01	0.5074
494.21	0.5079
494.409	0.5085
494.609	0.5091
494.809	0.5098
495.008	0.5105
495.208	0.5112
495.407	0.5119
495.607	0.5126
495.807	0.5133
496.006	0.5141
496.206	0.5149
496.405	0.5158
496.605	0.5166
496.804	0.5174
497.004	0.5182
497.203	0.519
497.403	0.5199
497.602	0.5208
497.801	0.5217
498.001	0.5226
498.2	0.5235
498.4	0.5245
498.599	0.5254
498.798	0.5263
498.998	0.5272
499.197	0.5283
499.396	0.5293
499.596	0.5304
499.795	0.5315
499.994	0.5326
500.194	0.5337
500.393	0.5348
500.592	0.5359
500.791	0.537
500.991	0.5381
501.19	0.5392
501.389	0.5403
501.588	0.5414
501.788	0.5426
501.987	0.5438
502.186	0.545
502.385	0.5462
502.584	0.5474
502.783	0.5487
502.982	0.5499
503.182	0.5512
503.381	0.5525
503.58	0.5538
503.779	0.5551
503.978	0.5564
504.177	0.5578
504.376	0.5591
504.575	0.5605
504.774	0.562
504.973	0.5634
505.172	0.565
505.371	0.5664
505.57	0.5679
505.769	0.5694
505.968	0.5708
506.167	0.5724
506.366	0.5739
506.565	0.5755
506.763	0.5771
506.962	0.5787
507.161	0.5804
507.36	0.5821
507.559	0.5837
507.758	0.5854
507.957	0.5871
508.155	0.5888
508.354	0.5905
508.553	0.5923
508.752	0.5941
508.95	0.5959
509.149	0.5977
509.348	0.5995
509.547	0.6013
509.745	0.6031
509.944	0.6049
510.143	0.6068
510.341	0.6087
510.54	0.6105
510.739	0.6124
510.937	0.6143
511.136	0.6163
511.335	0.6182
511.533	0.6202
511.732	0.6222
511.93	0.6242
512.129	0.6261
512.327	0.6281
512.526	0.6301
512.724	0.6321
512.923	0.6342
513.121	0.6363
513.32	0.6383
513.518	0.6403
513.717	0.6424
513.915	0.6445
514.114	0.6467
514.312	0.6488
514.511	0.6509
514.709	0.653
514.907	0.6551
515.106	0.6572
515.304	0.6595
515.502	0.6617
515.701	0.6639
515.899	0.6663
516.097	0.6686
516.296	0.6708
516.494	0.6731
516.692	0.6754
516.891	0.6777
517.089	0.6801
517.287	0.6823
517.485	0.6846
517.683	0.687
517.882	0.6893
518.08	0.6917
518.278	0.694
518.476	0.6964
518.674	0.6987
518.873	0.7012
519.071	0.7035
519.269	0.706
519.467	0.7084
519.665	0.7109
519.863	0.7135
520.061	0.716
520.259	0.7185
520.457	0.721
520.655	0.7235
520.853	0.726
521.051	0.7286
521.249	0.7311
521.447	0.7336
521.645	0.7361
521.843	0.7387
522.041	0.7413
522.239	0.7439
522.437	0.7466
522.635	0.7492
522.833	0.7518
523.031	0.7544
523.229	0.757
523.426	0.7597
523.624	0.7624
523.822	0.765
524.02	0.7676
524.218	0.7702
524.415	0.7729
524.613	0.7755
524.811	0.7781
525.009	0.7806
525.207	0.7833
525.404	0.786
525.602	0.7887
525.8	0.7914
525.997	0.794
526.195	0.7966
526.393	0.7992
526.59	0.8019
526.788	0.8046
526.986	0.8073
527.183	0.8099
527.381	0.8125
527.578	0.8151
527.776	0.8178
527.974	0.8204
528.171	0.8229
528.369	0.8254
528.566	0.8279
528.764	0.8304
528.961	0.8328
529.159	0.8354
529.356	0.8379
529.554	0.8404
529.751	0.843
529.949	0.8456
530.146	0.8483
530.343	0.8509
530.541	0.8535
530.738	0.8561
530.936	0.8587
531.133	0.8612
531.33	0.8638
531.528	0.8663
531.725	0.8688
531.922	0.8712
532.12	0.8738
532.317	0.8762
532.514	0.8788
532.711	0.8812
532.909	0.8835
533.106	0.8858
533.303	0.8881
533.5	0.8904
533.698	0.8926
533.895	0.8947
534.092	0.8969
534.289	0.8989
534.486	0.9011
534.683	0.9032
534.881	0.9053
535.078	0.9074
535.275	0.9095
535.472	0.9116
535.669	0.9135
535.866	0.9155
536.063	0.9174
536.26	0.9194
536.457	0.9213
536.654	0.9232
536.851	0.9249
537.048	0.9267
537.245	0.9285
537.442	0.9302
537.639	0.9319
537.836	0.9335
538.033	0.9352
538.23	0.9367
538.427	0.9382
538.624	0.9397
538.821	0.9411
539.017	0.9425
539.214	0.9438
539.411	0.9451
539.608	0.9463
539.805	0.9475
540.001	0.9486
540.198	0.9497
540.395	0.951
540.592	0.9521
540.789	0.9531
540.985	0.954
541.182	0.9548
541.379	0.9556
541.575	0.9564
541.772	0.9571
541.969	0.9577
542.165	0.9583
542.362	0.9587
542.559	0.9592
542.755	0.9595
542.952	0.9599
543.149	0.9602
543.345	0.9606
543.542	0.9608
543.738	0.961
543.935	0.9612
544.131	0.9613
544.328	0.9614
544.524	0.9612
544.721	0.9611
544.917	0.9609
545.114	0.9608
545.31	0.9606
545.507	0.9602
545.703	0.9599
545.9	0.9596
546.096	0.9592
546.292	0.9586
546.489	0.958
546.685	0.9573
546.881	0.9566
547.078	0.9559
547.274	0.955
547.47	0.954
547.667	0.9532
547.863	0.9522
548.059	0.9511
548.255	0.95
548.452	0.9489
548.648	0.9477
548.844	0.9466
549.04	0.9453
549.237	0.9439
549.433	0.9423
549.629	0.9409
549.825	0.9393
550.021	0.9377
550.217	0.936
550.414	0.9342
550.61	0.9323
550.806	0.9304
551.002	0.9285
551.198	0.9264
551.394	0.9243
551.59	0.9222
551.786	0.92
551.982	0.9177
552.178	0.9153
552.374	0.913
552.57	0.9105
552.766	0.9081
552.962	0.9056
553.158	0.903
553.354	0.9005
553.55	0.898
553.746	0.8954
553.941	0.8928
554.137	0.8901
554.333	0.8873
554.529	0.8843
554.725	0.8815
554.921	0.8784
555.116	0.8754
555.312	0.8723
555.508	0.8693
555.704	0.8661
555.9	0.8629
556.095	0.8596
556.291	0.8562
556.487	0.853
556.682	0.8495
556.878	0.846
557.074	0.8424
557.27	0.8388
557.465	0.8352
557.661	0.8314
557.856	0.8277
558.052	0.8239
558.248	0.82
558.443	0.8162
558.639	0.8123
558.834	0.8085
559.03	0.8046
559.225	0.8006
559.421	0.7967
559.616	0.7927
559.812	0.7888
560.007	0.7847
560.203	0.7807
560.398	0.7766
560.594	0.7724
560.789	0.7682
560.985	0.7641
561.18	0.7599
561.375	0.7557
561.571	0.7516
561.766	0.7473
561.962	0.7432
562.157	0.7391
562.352	0.7348
562.548	0.7304
562.743	0.7262
562.938	0.7219
563.133	0.7175
563.329	0.7131
563.524	0.7086
563.719	0.704
563.914	0.6993
564.11	0.6945
564.305	0.6898
564.5	0.6851
564.695	0.6803
564.89	0.6755
565.085	0.6707
565.28	0.666
565.476	0.6611
565.671	0.6562
565.866	0.6512
566.061	0.6462
566.256	0.6411
566.451	0.636
566.646	0.6309
566.841	0.6258
567.036	0.6207
567.231	0.6157
567.426	0.6107
567.621	0.6057
567.816	0.6008
568.011	0.5959
568.206	0.591
568.401	0.5862
568.596	0.5816
568.791	0.5771
568.985	0.5726
569.18	0.5684
569.375	0.5642
569.57	0.56
569.765	0.5558
569.96	0.5515
570.154	0.5471
570.349	0.5425
570.544	0.538
570.739	0.5335
570.933	0.529
571.128	0.5245
571.323	0.52
571.518	0.5155
571.712	0.5112
571.907	0.5069
572.102	0.5027
572.296	0.4985
572.491	0.4944
572.686	0.4902
572.88	0.486
573.075	0.4818
573.269	0.4774
573.464	0.473
573.658	0.4686
573.853	0.464
574.047	0.4592
574.242	0.4543
574.437	0.4493
574.631	0.4444
574.825	0.4396
575.02	0.435
575.214	0.4307
575.409	0.4266
575.603	0.4227
575.798	0.4189
575.992	0.415
576.186	0.4112
576.381	0.4073
576.575	0.4034
576.77	0.3995
576.964	0.3956
577.158	0.3918
577.352	0.3879
577.547	0.3839
577.741	0.3796
577.935	0.3751
578.13	0.3703
578.324	0.3642
578.518	0.3575
578.712	0.351
578.906	0.3456
579.101	0.3405
579.295	0.3362
579.489	0.3326
579.683	0.3292
579.877	0.326
580.071	0.323
580.265	0.3199
580.459	0.3168
580.654	0.3137
580.848	0.3106
581.042	0.3074
581.236	0.3042
581.43	0.3009
581.624	0.2977
581.818	0.2944
582.012	0.2912
582.206	0.2879
582.4	0.2847
582.594	0.2816
582.787	0.2786
582.981	0.2757
583.175	0.2729
583.369	0.2701
583.563	0.2673
583.757	0.2645
583.951	0.2616
584.145	0.2589
584.338	0.2574
584.532	0.2566
584.726	0.2557
584.92	0.2541
585.114	0.2524
585.307	0.25
585.501	0.2473
585.695	0.2445
585.888	0.2418
586.082	0.2392
586.276	0.2367
586.47	0.2342
586.663	0.2319
586.857	0.2295
587.05	0.2272
587.244	0.2249
587.438	0.2227
587.631	0.2204
587.825	0.2183
588.018	0.216
588.212	0.2138
588.405	0.2116
588.599	0.2094
588.792	0.2071
588.986	0.2048
589.179	0.2024
589.373	0.1999
589.566	0.1973
589.76	0.1947
589.953	0.192
590.147	0.1894
590.34	0.1868
590.533	0.1843
590.727	0.1819
590.92	0.1795
591.114	0.1772
591.307	0.1749
591.5	0.1726
591.693	0.1703
591.887	0.168
592.08	0.1657
592.273	0.1636
592.467	0.1615
592.66	0.1596
592.853	0.1577
593.046	0.1558
593.239	0.1541
593.433	0.1523
593.626	0.1506
593.819	0.1489
594.012	0.1473
594.205	0.1456
594.398	0.1439
594.591	0.1423
594.784	0.1407
594.977	0.1391
595.171	0.1375
595.364	0.1359
595.557	0.1343
595.75	0.1326
595.943	0.1309
596.136	0.1292
596.329	0.1276
596.522	0.1259
596.715	0.1243
596.907	0.1226
597.1	0.1209
597.293	0.1193
597.486	0.1177
597.679	0.1162
597.872	0.1147
598.065	0.1133
598.258	0.1118
598.45	0.1104
598.643	0.109
598.836	0.1077
599.029	0.1063
599.222	0.105
599.414	0.1037
599.607	0.1025
599.8	0.1012
599.992	0.0999
600.185	0.0987
600.378	0.0975
600.571	0.0963
600.763	0.0951
600.956	0.094
601.148	0.0929
601.341	0.0919
601.534	0.0908
601.726	0.0897
601.919	0.0887
602.111	0.0876
602.304	0.0866
602.496	0.0855
602.689	0.0845
602.881	0.0834
603.074	0.0824
603.266	0.0814
603.459	0.0804
603.651	0.0794
603.844	0.0785
604.036	0.0775
604.229	0.0766
604.421	0.0757
604.613	0.0748
604.806	0.0739
604.998	0.073
605.19	0.0722
605.383	0.0713
605.575	0.0705
605.767	0.0696
605.96	0.0689
606.152	0.0681
606.344	0.0673
606.536	0.0665
606.729	0.0658
606.921	0.065
607.113	0.0642
607.305	0.0635
607.497	0.0628
607.69	0.0621
607.882	0.0615
608.074	0.0608
608.266	0.0601
608.458	0.0594
608.65	0.0588
608.842	0.0582
609.034	0.0576
609.226	0.057
609.418	0.0564
609.61	0.0558
609.802	0.0553
609.994	0.0547
610.186	0.054
610.378	0.0534
610.57	0.0528
610.762	0.0522
610.954	0.0517
611.146	0.0511
611.338	0.0506
611.53	0.0501
611.722	0.0495
611.913	0.0489
612.105	0.0484
612.297	0.0478
612.489	0.0473
612.681	0.0467
612.873	0.0462
613.064	0.0457
613.256	0.0451
613.448	0.0446
613.639	0.0441
613.831	0.0436
614.023	0.0431
614.215	0.0427
614.406	0.0422
614.598	0.0417
614.79	0.0413
614.981	0.0409
615.173	0.0405
615.364	0.0401
615.556	0.0397
615.748	0.0393
615.939	0.0389
616.131	0.0385
616.322	0.0381
616.514	0.0377
616.705	0.0374
616.897	0.037
617.088	0.0366
617.28	0.0362
617.471	0.0359
617.662	0.0356
617.854	0.0353
618.045	0.035
618.237	0.0348
618.428	0.0345
618.619	0.0343
618.811	0.034
619.002	0.0337
619.193	0.0334
619.385	0.033
619.576	0.0327
619.767	0.0323
619.958	0.0319
620.15	0.0316
620.341	0.0312
620.532	0.0309
620.723	0.0306
620.914	0.0302
621.106	0.0299
621.297	0.0296
621.488	0.0292
621.679	0.0289
621.87	0.0287
622.061	0.0285
622.252	0.0282
622.443	0.028
622.635	0.0277
622.826	0.0275
623.017	0.0272
623.208	0.027
623.399	0.0267
623.59	0.0265
623.781	0.0262
623.972	0.026
624.162	0.0257
624.353	0.0254
624.544	0.0252
624.735	0.0249
624.926	0.0247
625.117	0.0246
625.308	0.0245
625.499	0.0244
625.69	0.0243
625.88	0.0242
626.071	0.024
626.262	0.0239
626.453	0.0237
626.643	0.0236
626.834	0.0235
627.025	0.0234
627.216	0.0234
627.406	0.0233
627.597	0.0231
627.788	0.023
627.978	0.0228
628.169	0.0226
628.36	0.0225
628.55	0.0223
628.741	0.0222
628.931	0.0221
629.122	0.0219
629.313	0.0218
629.503	0.0217
629.694	0.0216
629.884	0.0215
630.075	0.0214
630.265	0.0214
630.456	0.0213
630.646	0.0212
630.837	0.0211
631.027	0.0209
631.217	0.0208
631.408	0.0206
631.598	0.0205
631.789	0.0204
631.979	0.0203
632.169	0.0202
632.36	0.0201
632.55	0.0199
632.74	0.0198
632.93	0.0197
633.121	0.0195
633.311	0.0194
633.501	0.0193
633.691	0.0191
633.882	0.019
634.072	0.0189
634.262	0.0188
634.452	0.0187
634.642	0.0186
634.833	0.0185
635.023	0.0184
635.213	0.0183
635.403	0.0182
635.593	0.0182
635.783	0.0181
635.973	0.0181
636.163	0.018
636.353	0.0179
636.543	0.0178
636.733	0.0177
636.923	0.0176
637.113	0.0175
637.303	0.0175
637.493	0.0175
637.683	0.0174
637.873	0.0173
638.063	0.0173
638.253	0.0173
638.442	0.0172
638.632	0.0171
638.822	0.017
639.012	0.017
639.202	0.017
639.392	0.017
639.581	0.017
639.771	0.017
639.961	0.017
640.151	0.017
640.34	0.017
640.53	0.017
640.72	0.017
640.909	0.017
641.099	0.017
641.289	0.017
641.478	0.0168
641.668	0.0168
641.858	0.0168
642.047	0.0167
642.237	0.0168
642.426	0.0167
642.616	0.0167
642.805	0.0167
642.995	0.0166
643.184	0.0165
643.374	0.0165
643.563	0.0164
643.753	0.0164
643.942	0.0164
644.132	0.0163
644.321	0.0163
644.51	0.0163
644.7	0.0164
644.889	0.0164
645.079	0.0163
645.268	0.0162
645.457	0.0161
645.647	0.0161
645.836	0.0159
646.025	0.0158
646.214	0.0158
646.404	0.0156
646.593	0.0156
646.782	0.0155
646.971	0.0155
647.161	0.0155
647.35	0.0154
647.539	0.0154
647.728	0.0154
647.917	0.0153
648.106	0.0153
648.295	0.0153
648.485	0.0153
648.674	0.0153
648.863	0.0152
649.052	0.0152
649.241	0.0152
649.43	0.0152
649.619	0.0152
649.808	0.0151
649.997	0.015
650.186	0.015
650.375	0.0149
650.564	0.0148
650.752	0.0148
650.941	0.0147
651.13	0.0147
651.319	0.0146
651.508	0.0146
651.697	0.0146
651.886	0.0146
652.074	0.0147
652.263	0.0147
652.452	0.0135
652.641	0.0123
652.83	0.0113
653.018	0.0103
653.207	0.0095
653.396	0.0088
653.584	0.0081
653.773	0.0074
653.962	0.0068
654.15	0.0063
654.339	0.0058
654.528	0.0053
654.716	0.0049
654.905	0.0045
655.093	0.0041
655.282	0.0037
655.471	0.0033
655.659	0.003
655.848	0.0027
656.036	0.0024
656.225	0.0022
656.413	0.002
656.602	0.0017
656.79	0.0015
656.978	0.0013
657.167	0.0011
657.355	0.0009
657.544	0.0007
657.732	0.0005
657.92	0.0003
658.109	-0
658.297	-0
658.485	0.0019
658.674	0.0103
658.862	0.0137
659.05	0.0142
659.238	0.0146
659.427	0.0151
659.615	0.0157
659.803	0.0162
659.991	0.0168
660.179	0.0175
660.368	0.0181
660.556	0.0188
660.744	0.0196
660.932	0.0204
661.12	0.0212
661.308	0.0221
661.496	0.0231
661.684	0.0241
661.872	0.0252
662.06	0.0263
662.248	0.0276
662.436	0.0289
662.624	0.0304
662.812	0.032
663	0.0337
663.188	0.0356
663.376	0.0377
663.564	0.04
663.752	0.0426
663.94	0.0454
664.128	0.0487
664.315	0.0461
664.503	0.0227
664.691	0.0136
664.879	0.0136
665.067	0.0136
665.255	0.0136
665.442	0.0136
665.63	0.0135
665.818	0.0135
666.005	0.0134
666.193	0.0134
666.381	0.0133
666.568	0.0133
666.756	0.0133
666.944	0.0133
667.131	0.0133
667.319	0.0133
667.507	0.0132
667.694	0.0132
667.882	0.0132
668.069	0.0132
668.257	0.0132
668.444	0.0132
668.632	0.0131
668.819	0.0131
669.007	0.013
669.194	0.0129
669.382	0.013
669.569	0.013
669.757	0.0131
669.944	0.0131
670.131	0.013
670.319	0.013
670.506	0.013
670.693	0.013
670.881	0.013
671.068	0.013
671.255	0.0129
671.443	0.013
671.63	0.013
671.817	0.013
672.004	0.013
672.191	0.013
672.379	0.013
672.566	0.013
672.753	0.013
672.94	0.0129
673.127	0.0129
673.314	0.0128
673.502	0.0128
673.689	0.0128
673.876	0.0128
674.063	0.0129
674.25	0.013
674.437	0.0131
674.624	0.0131
674.811	0.0132
674.998	0.0132
675.185	0.0132
675.372	0.0131
675.559	0.0131
675.746	0.013
675.933	0.013
676.119	0.0129
676.306	0.0129
676.493	0.0129
676.68	0.0129
676.867	0.0129
677.054	0.0129
677.241	0.0128
677.427	0.0128
677.614	0.0128
677.801	0.0127
677.988	0.0127
678.174	0.0127
678.361	0.0127
678.548	0.0127
678.734	0.0128
678.921	0.0128
679.108	0.0128
679.294	0.0128
679.481	0.0128
679.668	0.0128
679.854	0.0128
680.041	0.0127
680.227	0.0126
680.414	0.0125
680.6	0.0124
680.787	0.0123
680.973	0.0123
681.16	0.0123
681.346	0.0123
681.533	0.0123
681.719	0.0123
681.906	0.0123
682.092	0.0124
682.278	0.0124
682.465	0.0125
682.651	0.0125
682.838	0.0124
683.024	0.0124
683.21	0.0124
683.396	0.0124
683.583	0.0124
683.769	0.0124
683.955	0.0124
684.142	0.0123
684.328	0.0122
684.514	0.0122
684.7	0.0122
684.886	0.0123
685.073	0.0122
685.259	0.0122
685.445	0.0121
685.631	0.0121
685.817	0.0121
686.003	0.0121
686.189	0.0122
686.375	0.0123
686.561	0.0123
686.747	0.0123
686.933	0.0123
687.119	0.0122
687.305	0.0123
687.491	0.0123
687.677	0.0123
687.863	0.0122
688.049	0.0121
688.235	0.012
688.421	0.012
688.607	0.012
688.793	0.012
688.978	0.012
689.164	0.012
689.35	0.012
689.536	0.012
689.722	0.0121
689.907	0.012
690.093	0.012
690.279	0.0119
690.465	0.0119
690.65	0.0118
690.836	0.0118
691.022	0.0118
691.207	0.0117
691.393	0.0117
691.578	0.0117
691.764	0.0116
691.95	0.0116
692.135	0.0115
692.321	0.0114
692.506	0.0114
692.692	0.0114
692.877	0.0114
693.063	0.0114
693.248	0.0114
693.434	0.0114
693.619	0.0115
693.805	0.0116
693.99	0.0117
694.176	0.0118
694.361	0.0118
694.546	0.0119
694.732	0.012
694.917	0.0119
695.102	0.0119
695.288	0.0119
695.473	0.0119
695.658	0.0119
695.843	0.0119
696.029	0.012
696.214	0.012
696.399	0.012
696.584	0.012
696.77	0.012
696.955	0.0119
697.14	0.0119
697.325	0.0119
697.51	0.0119
697.695	0.012
697.88	0.012
698.065	0.012
698.251	0.0121
698.436	0.0121
698.621	0.0121
698.806	0.0121
698.991	0.0121
699.176	0.0121
699.361	0.0121
699.546	0.0119
699.73	0.0119
699.915	0.0118
700.1	0.0118
700.285	0.0117
700.47	0.0118
700.655	0.0118
700.84	0.0118
701.025	0.0119
701.209	0.0118
701.394	0.0119
701.579	0.0119
701.764	0.0119
701.948	0.0119
702.133	0.0119
702.318	0.012
702.503	0.0121
702.687	0.0122
702.872	0.0122
703.057	0.0122
703.241	0.0122
703.426	0.0122
703.61	0.0123
703.795	0.0123
703.98	0.0123
704.164	0.0124
704.349	0.0124
704.533	0.0124
704.718	0.0124
704.902	0.0123
705.087	0.0123
705.271	0.0124
705.456	0.0125
705.64	0.0125
705.825	0.0125
706.009	0.0125
706.193	0.0125
706.378	0.0125
706.562	0.0125
706.746	0.0125
706.931	0.0125
707.115	0.0125
707.299	0.0125
707.484	0.0125
707.668	0.0125
707.852	0.0126
708.036	0.0125
708.221	0.0126
708.405	0.0126
708.589	0.0127
708.773	0.0126
708.957	0.0126
709.141	0.0127
709.326	0.0126
709.51	0.0126
709.694	0.0126
709.878	0.0125
710.062	0.0125
710.246	0.0125
710.43	0.0125
710.614	0.0126
710.798	0.0126
710.982	0.0126
711.166	0.0125
711.35	0.0124
711.534	0.0124
711.718	0.0123
711.902	0.0122
712.085	0.0122
712.269	0.0122
712.453	0.0122
712.637	0.0122
712.821	0.0122
713.005	0.0122
713.188	0.0122
713.372	0.0122
713.556	0.0122
713.74	0.0122
713.923	0.0121
714.107	0.012
714.291	0.012
714.474	0.012
714.658	0.0119
714.842	0.012
715.025	0.0119
715.209	0.0119
715.393	0.012
715.576	0.012
715.76	0.012
715.943	0.012
716.127	0.0119
716.31	0.0119
716.494	0.0119
716.677	0.0119
716.861	0.012
717.044	0.0119
717.228	0.0118
717.411	0.0118
717.594	0.0118
717.778	0.0118
717.961	0.0118
718.145	0.0118
718.328	0.0118
718.511	0.0117
718.695	0.0117
718.878	0.0116
719.061	0.0116
719.244	0.0116
719.428	0.0117
719.611	0.0117
719.794	0.0119
719.977	0.0119
720.16	0.0119
720.344	0.012
720.527	0.012
720.71	0.012
720.893	0.0121
721.076	0.012
721.259	0.012
721.442	0.0121
721.625	0.012
721.808	0.012
721.991	0.0119
722.174	0.0119
722.357	0.0119
722.54	0.012
722.723	0.012
722.906	0.0121
723.089	0.0122
723.272	0.0122
723.455	0.0122
723.638	0.0123
723.821	0.0123
724.003	0.0123
724.186	0.0124
724.369	0.0124
724.552	0.0124
724.735	0.0124
724.917	0.0123
725.1	0.0122
725.283	0.0122
725.466	0.0121
725.648	0.0122
725.831	0.0122
726.014	0.0123
726.196	0.0123
726.379	0.0124
726.562	0.0124
726.744	0.0124
726.927	0.0124
727.109	0.0124
727.292	0.0124
727.474	0.0125
727.657	0.0125
727.839	0.0125
728.022	0.0126
728.204	0.0127
728.387	0.0128
728.569	0.0128
728.752	0.0127
728.934	0.0127
729.116	0.0126
729.299	0.0127
729.481	0.0126
729.664	0.0126
729.846	0.0125
730.028	0.0125
730.21	0.0125
730.393	0.0125
730.575	0.0125
730.757	0.0124
730.939	0.0124
731.122	0.0123
731.304	0.0122
731.486	0.0121
731.668	0.012
731.85	0.0119
732.032	0.0119
732.215	0.0119
732.397	0.0119
732.579	0.0119
732.761	0.0119
732.943	0.0119
733.125	0.0119
733.307	0.0118
733.489	0.0118
733.671	0.0117
733.853	0.0116
734.035	0.0115
734.217	0.0115
734.399	0.0116
734.581	0.0116
734.762	0.0116
734.944	0.0116
735.126	0.0116
735.308	0.0117
735.49	0.0117
735.672	0.0118
735.853	0.0119
736.035	0.0119
736.217	0.012
736.399	0.0121
736.58	0.0121
736.762	0.0121
736.944	0.0121
737.126	0.0121
737.307	0.0122
737.489	0.0122
737.67	0.0122
737.852	0.0122
738.034	0.0122
738.215	0.0122
738.397	0.0123
738.578	0.0123
738.76	0.0123
738.941	0.0123
739.123	0.0123
739.304	0.0124
739.486	0.0123
739.667	0.0123
739.849	0.0123
740.03	0.0123
740.211	0.0123
740.393	0.0123
740.574	0.0123
740.756	0.0124
740.937	0.0123
741.118	0.0123
741.299	0.0123
741.481	0.0122
741.662	0.0122
741.843	0.0122
742.025	0.0123
742.206	0.0124
742.387	0.0123
742.568	0.0123
742.749	0.0123
742.93	0.0122
743.112	0.0121
743.293	0.0121
743.474	0.0121
743.655	0.0121
743.836	0.0121
744.017	0.0121
744.198	0.0121
744.379	0.0121
744.56	0.0122
744.741	0.0122
744.922	0.0122
745.103	0.0122
745.284	0.0123
745.465	0.0123
745.646	0.0122
745.827	0.0122
746.007	0.0122
746.188	0.0122
746.369	0.0121
746.55	0.0121
746.731	0.0121
746.911	0.0121
747.092	0.0121
747.273	0.0121
747.454	0.012
747.634	0.0119
747.815	0.0118
747.996	0.0118
748.177	0.0118
748.357	0.0118
748.538	0.0119
748.718	0.012
748.899	0.0121
749.08	0.0121
749.26	0.012
749.441	0.0119
749.621	0.0119
749.802	0.0117
749.982	0.0118
750.163	0.0117
750.343	0.0116
750.524	0.0116
750.704	0.0116
750.885	0.0116
751.065	0.0115
751.245	0.0115
751.426	0.0114
751.606	0.0114
751.786	0.0114
751.967	0.0115
752.147	0.0115
752.327	0.0115
752.508	0.0116
752.688	0.0116
752.868	0.0117
753.048	0.0117
753.229	0.0118
753.409	0.0118
753.589	0.0119
753.769	0.012
753.949	0.0121
754.129	0.012
754.309	0.012
754.489	0.0119
754.67	0.0119
754.85	0.012
755.03	0.0121
755.21	0.0121
755.39	0.0122
755.57	0.0122
755.75	0.0122
755.93	0.0122
756.11	0.0121
756.289	0.0121
756.469	0.012
756.649	0.0119
756.829	0.0119
757.009	0.0119
757.189	0.0119
757.369	0.0118
757.548	0.0118
757.728	0.0118
757.908	0.0117
758.088	0.0116
758.267	0.0116
758.447	0.0115
758.627	0.0114
758.807	0.0113
758.986	0.0112
759.166	0.0112
759.346	0.011
759.525	0.0109
759.705	0.0108
759.884	0.0107
760.064	0.0107
760.243	0.0106
760.423	0.0105
760.603	0.0105
760.782	0.0106
760.962	0.0105
761.141	0.0105
761.32	0.0105
761.5	0.0106
761.679	0.0106
761.859	0.0107
762.038	0.0108
762.217	0.011
762.397	0.0111
762.576	0.0112
762.755	0.0113
762.935	0.0114
763.114	0.0114
763.293	0.0114
763.473	0.0116
763.652	0.0116
763.831	0.0116
764.01	0.0117
764.189	0.0118
764.369	0.0118
764.548	0.0119
764.727	0.012
764.906	0.0121
765.085	0.0121
765.264	0.0122
765.443	0.0122
765.622	0.0123
765.801	0.0123
765.98	0.0123
766.159	0.0122
766.338	0.0122
766.517	0.0122
766.696	0.0121
766.875	0.0121
767.054	0.012
767.233	0.012
767.412	0.0119
767.591	0.0119
767.769	0.0119
767.948	0.0118
768.127	0.0117
768.306	0.0116
768.485	0.0116
768.663	0.0116
768.842	0.0115
769.021	0.0114
769.2	0.0114
769.378	0.0113
769.557	0.0113
769.736	0.0113
769.914	0.0113
770.093	0.0112
770.271	0.0111
770.45	0.0112
770.629	0.0112
770.807	0.0112
770.986	0.0112
771.164	0.0112
771.343	0.0112
771.521	0.0112
771.7	0.0113
771.878	0.0113
772.057	0.0113
772.235	0.0114
772.413	0.0114
772.592	0.0114
772.77	0.0114
772.948	0.0115
773.127	0.0115
773.305	0.0116
773.483	0.0116
773.662	0.0117
773.84	0.0117
774.018	0.0118
774.196	0.0117
774.375	0.0117
774.553	0.0117
774.731	0.0118
774.909	0.0119
775.087	0.0119
775.265	0.0121
775.444	0.0122
775.622	0.0123
775.8	0.0124
775.978	0.0124
776.156	0.0124
776.334	0.0124
776.512	0.0125
776.69	0.0125
776.868	0.0124
777.046	0.0125
777.224	0.0124
777.402	0.0124
777.58	0.0123
777.757	0.0123
777.935	0.0123
778.113	0.0123
778.291	0.0124
778.469	0.0123
778.647	0.0121
778.824	0.012
779.002	0.0119
779.18	0.0118
779.358	0.0117
779.535	0.0117
779.713	0.0116
779.891	0.0117
780.068	0.0116
780.246	0.0115
780.424	0.0114
780.601	0.0115
780.779	0.0114
780.957	0.0113
781.134	0.0113
781.312	0.0113
781.489	0.0113
781.667	0.0112
781.844	0.0113
782.022	0.0113
782.199	0.0113
782.377	0.0113
782.554	0.0114
782.731	0.0114
782.909	0.0114
783.086	0.0114
783.264	0.0114
783.441	0.0114
783.618	0.0114
783.795	0.0113
783.973	0.0114
784.15	0.0115
784.327	0.0117
784.505	0.0118
784.682	0.0119
784.859	0.012
785.036	0.0119
785.213	0.0119
785.39	0.0119
785.568	0.012
785.745	0.012
785.922	0.0119
786.099	0.0117
786.276	0.0117
786.453	0.0116
786.63	0.0114
786.807	0.0112
786.984	0.0112
787.161	0.0111
787.338	0.011
787.515	0.0108
787.692	0.0107
787.869	0.0107
788.046	0.0107
788.222	0.0106
788.399	0.0106
788.576	0.0106
788.753	0.0106
788.93	0.0106
789.107	0.0106
789.283	0.0107
789.46	0.0106
789.637	0.0106
789.814	0.0105
789.99	0.0105
790.167	0.0103
790.344	0.0103
790.52	0.0104
790.697	0.0104
790.873	0.0104
791.05	0.0105
791.227	0.0105
791.403	0.0106
791.58	0.0107
791.756	0.0109
791.933	0.011
792.109	0.011
792.286	0.0111
792.462	0.0112
792.639	0.0113
792.815	0.0113
792.991	0.0115
793.168	0.0116
793.344	0.0116
793.521	0.0116
793.697	0.0116
793.873	0.0115
794.049	0.0116
794.226	0.0117
794.402	0.0118
794.578	0.0119
794.754	0.0119
794.931	0.0119
795.107	0.0119
795.283	0.0119
795.459	0.0118
795.635	0.0119
795.811	0.0119
795.988	0.0119
796.164	0.0119
796.34	0.012
796.516	0.012
796.692	0.0121
796.868	0.0122
797.044	0.0121
797.22	0.0121
797.396	0.0121
797.572	0.0121
797.748	0.0122
797.924	0.0122
798.099	0.0121
798.275	0.0121
798.451	0.0121
798.627	0.012
798.803	0.0121
798.979	0.012
799.154	0.0121
799.33	0.0121
799.506	0.012
799.682	0.0119
799.857	0.0118
800.033	0.0116
800.209	0.0115
800.385	0.0115
800.56	0.0114
800.736	0.0115
800.911	0.0115
801.087	0.0114
801.263	0.0114
801.438	0.0114
801.614	0.0115
801.789	0.0116
801.965	0.0115
802.14	0.0114
802.316	0.0113
802.491	0.0113
802.667	0.0113
802.842	0.0113
803.017	0.0112
803.193	0.0112
803.368	0.0112
803.543	0.0112
803.719	0.0111
803.894	0.0111
804.069	0.0111
804.245	0.0111
804.42	0.0112
804.595	0.0111
804.77	0.0111
804.946	0.0111
805.121	0.0112
805.296	0.0112
805.471	0.0113
805.646	0.0114
805.821	0.0114
805.997	0.0115
806.172	0.0115
806.347	0.0116
806.522	0.0117
806.697	0.0117
806.872	0.0117
807.047	0.0116
807.222	0.0115
807.397	0.0115
807.572	0.0116
807.747	0.0116
807.921	0.0117
808.096	0.0117
808.271	0.0117
808.446	0.0117
808.621	0.0117
808.796	0.0118
808.971	0.0119
809.145	0.012
809.32	0.0119
809.495	0.0119
809.67	0.0119
809.844	0.012
810.019	0.0119
810.194	0.0119
810.368	0.012
810.543	0.012
810.718	0.012
810.892	0.0121
811.067	0.012
811.241	0.0121
811.416	0.012
811.59	0.0118
811.765	0.0117
811.939	0.0115
812.114	0.0115
812.288	0.0114
812.463	0.0112
812.637	0.0111
812.812	0.0109
812.986	0.0108
813.16	0.0108
813.335	0.0106
813.509	0.0106
813.683	0.0106
813.858	0.0104
814.032	0.0104
814.206	0.0103
814.381	0.0103
814.555	0.0103
814.729	0.0103
814.903	0.0102
815.077	0.0102
815.252	0.0101
815.426	0.0102
815.6	0.0101
815.774	0.0101
815.948	0.01
816.122	0.0099
816.296	0.0099
816.47	0.0099
816.644	0.0099
816.818	0.0099
816.992	0.0101
817.166	0.0102
817.34	0.0103
817.514	0.0106
817.688	0.0109
817.862	0.0112
818.036	0.0114
818.209	0.0116
818.383	0.0119
818.557	0.012
818.731	0.0121
818.905	0.0122
819.078	0.0123
819.252	0.0123
819.426	0.0123
819.6	0.0123
819.773	0.0124
819.947	0.0124
820.121	0.0125
820.294	0.0126
820.468	0.0126
820.642	0.0126
820.815	0.0127
820.989	0.0127
821.162	0.0127
821.336	0.0127
821.509	0.0126
821.683	0.0126
821.856	0.0126
822.03	0.0125
822.203	0.0124
822.377	0.0124
822.55	0.0124
822.723	0.0122
822.897	0.0119
823.07	0.0117
823.243	0.0114
823.417	0.0112
823.59	0.011
823.763	0.0108
823.937	0.0106
824.11	0.0105
824.283	0.0104
824.456	0.0103
824.629	0.0103
824.803	0.0103
824.976	0.0103
825.149	0.0102
825.322	0.01
825.495	0.0099
825.668	0.0098
825.841	0.0099
826.014	0.0098
826.187	0.0098
826.36	0.0098
826.533	0.0098
826.706	0.0099
826.879	0.01
827.052	0.0099
827.225	0.0099
827.398	0.0098
827.571	0.0097
827.744	0.0097
827.917	0.0096
828.089	0.0097
828.262	0.0098
828.435	0.0099
828.608	0.01
828.781	0.0101
828.953	0.0102
829.126	0.0103
829.299	0.0104
829.471	0.0104
829.644	0.0105
829.817	0.0106
829.989	0.0107
830.162	0.0108
830.335	0.011
830.507	0.0111
830.68	0.0112
830.852	0.0113
831.025	0.0114
831.197	0.0114
831.37	0.0114
831.542	0.0114
831.715	0.0113
831.887	0.0114
832.059	0.0114
832.232	0.0115
832.404	0.0115
832.577	0.0115
832.749	0.0116
832.921	0.0118
833.093	0.0119
833.266	0.0119
833.438	0.0119
833.61	0.0119
833.782	0.0118
833.955	0.0117
834.127	0.0117
834.299	0.0117
834.471	0.0116
834.643	0.0117
834.815	0.0117
834.988	0.0117
835.16	0.0117
835.332	0.0116
835.504	0.0116
835.676	0.0116
835.848	0.0115
836.02	0.0114
836.192	0.0113
836.364	0.0113
836.536	0.0113
836.708	0.0113
836.879	0.0114
837.051	0.0113
837.223	0.0112
837.395	0.0111
837.567	0.011
837.739	0.011
837.91	0.011
838.082	0.011
838.254	0.0109
838.426	0.0109
838.597	0.0109
838.769	0.0109
838.941	0.0109
839.112	0.011
839.284	0.011
839.456	0.011
839.627	0.011
839.799	0.011
839.97	0.0109
840.142	0.0108
840.314	0.0108
840.485	0.0109
840.657	0.0108
840.828	0.0109
840.999	0.0108
841.171	0.0108
841.342	0.0108
841.514	0.011
841.685	0.0109
841.856	0.0108
842.028	0.0109
842.199	0.0111
842.37	0.0113
842.542	0.0114
842.713	0.0117
842.884	0.0118
843.056	0.0119
843.227	0.012
843.398	0.0121
843.569	0.0121
843.74	0.012
843.911	0.012
844.083	0.0121
844.254	0.012
844.425	0.0122
844.596	0.0121
844.767	0.0122
844.938	0.0122
845.109	0.0122
845.28	0.0123
845.451	0.0124
845.622	0.0123
845.793	0.0122
845.964	0.0122
846.135	0.0121
846.305	0.0122
846.476	0.0122
846.647	0.0122
846.818	0.0122
846.989	0.0123
847.16	0.0122
847.33	0.0121
847.501	0.0119
847.672	0.0119
847.843	0.0117
848.013	0.0115
848.184	0.0113
848.355	0.0113
848.525	0.0111
848.696	0.0111
848.867	0.0111
849.037	0.011
849.208	0.0111
849.378	0.011
849.549	0.011
849.719	0.0108
849.89	0.0108
850.06	0.0108
850.231	0.0108
850.401	0.0108
850.572	0.0108
850.742	0.0109
850.912	0.0111
851.083	0.0111
851.253	0.0111
851.423	0.0111
851.594	0.011
851.764	0.0109
851.934	0.011
852.104	0.0111
852.275	0.011
852.445	0.011
852.615	0.0109
852.785	0.0111
852.955	0.0109
853.126	0.011
853.296	0.011
853.466	0.011
853.636	0.011
853.806	0.0111
853.976	0.0112
854.146	0.0113
854.316	0.0115
854.486	0.0114
854.656	0.0116
854.826	0.0117
854.996	0.0116
855.166	0.0115
855.336	0.0114
855.506	0.0114
855.675	0.0113
855.845	0.0112
856.015	0.0109
856.185	0.0108
856.355	0.0108
856.525	0.0107
856.694	0.0107
856.864	0.0108
857.034	0.0108
857.203	0.0107
857.373	0.0108
857.543	0.0108
857.712	0.0109
857.882	0.011
858.052	0.0111
858.221	0.0112
858.391	0.0113
858.56	0.0113
858.73	0.0113
858.899	0.0113
859.069	0.0113
859.238	0.0111
859.408	0.0112
859.577	0.011
859.747	0.0112
859.916	0.0111
860.085	0.011
860.255	0.0112
860.424	0.0114
860.593	0.0115
860.763	0.0117
860.932	0.0118
861.101	0.012
861.27	0.0121
861.44	0.0121
861.609	0.0122
861.778	0.0123
861.947	0.0123
862.116	0.0124
862.285	0.0124
862.455	0.0125
862.624	0.0124
862.793	0.0124
862.962	0.0124
863.131	0.0125
863.3	0.0123
863.469	0.0122
863.638	0.0121
863.807	0.0122
863.976	0.0123
864.145	0.0123
864.314	0.0123
864.482	0.0122
864.651	0.0121
864.82	0.0119
864.989	0.0117
865.158	0.0116
865.327	0.0115
865.495	0.0113
865.664	0.0111
865.833	0.0108
866.002	0.0107
866.17	0.0106
866.339	0.0105
866.508	0.0104
866.676	0.0104
866.845	0.0103
867.013	0.0103
867.182	0.0103
867.351	0.0103
867.519	0.0102
867.688	0.01
867.856	0.0102
868.025	0.0101
868.193	0.0102
868.362	0.0103
868.53	0.0105
868.698	0.0107
868.867	0.0109
869.035	0.0109
869.203	0.0108
869.372	0.0108
869.54	0.0109
869.708	0.0111
869.877	0.0112
870.045	0.0113
870.213	0.0114
870.381	0.0114
870.55	0.0114
870.718	0.0113
870.886	0.0115
871.054	0.0115
871.222	0.0114
871.39	0.0114
871.558	0.0115
871.727	0.0116
871.895	0.0114
872.063	0.0114
872.231	0.0114
872.399	0.0114
872.567	0.0113
872.735	0.0114
872.902	0.0116
873.07	0.0114
873.238	0.0111
873.406	0.0109
873.574	0.0106
873.742	0.0106
873.91	0.0105
874.077	0.0104
874.245	0.0103
874.413	0.0104
874.581	0.0102
874.749	0.01
874.916	0.0098
875.084	0.0097
875.252	0.0098
875.419	0.0098
875.587	0.0097
875.754	0.0097
875.922	0.0097
876.09	0.0095
876.257	0.0095
876.425	0.0095
876.592	0.0095
876.76	0.0094
876.927	0.0092
877.095	0.0092
877.262	0.0093
877.43	0.0091
877.597	0.0093
877.764	0.0093
877.932	0.0092
878.099	0.0092
878.266	0.0093
878.434	0.0095
878.601	0.0097
878.768	0.0098
878.935	0.0098
879.103	0.0097
879.27	0.0098
879.437	0.0098
879.604	0.0098
879.771	0.0099
879.939	0.0101
880.106	0.0103
880.273	0.0104
880.44	0.0105
880.607	0.0106
880.774	0.0108
880.941	0.011
881.108	0.0111
881.275	0.0113
881.442	0.0114
881.609	0.0114
881.776	0.0115
881.943	0.0115
882.11	0.0118
882.276	0.0119
882.443	0.0121
882.61	0.0122
882.777	0.0122
882.944	0.0123
883.11	0.0126
883.277	0.0125
883.444	0.0127
883.611	0.0127
883.777	0.0127
883.944	0.0127
884.111	0.0126
884.277	0.0127
884.444	0.0127
884.61	0.0127
884.777	0.0129
884.944	0.0128
885.11	0.0128
885.277	0.0128
885.443	0.0127
885.61	0.0126
885.776	0.0128
885.942	0.0127
886.109	0.0127
886.275	0.0128
886.442	0.0127
