Data from vanillin(C)_Absorbance_01.txt Node
Date: Mon Nov 13 16:07:59 CET 2023
User: student
Spectrometer: USB4F03453
Autoset integration time: false
Trigger mode: 4
Integration Time (sec): 1.800000E-2
Scans to average: 60
Electric dark correction enabled: true
Nonlinearity correction enabled: false
Boxcar width: 15
XAxis mode: Wavelengths
Stop averaging: false
Number of Pixels in Spectrum: 3648
>>>>>Begin Spectral Data<<<<<
179.221	-0
179.435	-0
179.649	0.5653
179.863	0.0882
180.076	0.1588
180.29	0.1467
180.504	0.1465
180.718	0.1475
180.931	0.1505
181.145	0.1588
181.359	0.1618
181.572	0.1664
181.786	0.1633
182	0.1604
182.213	0.1588
182.427	0.1607
182.641	0.16
182.854	0.1573
183.068	0.153
183.282	0.1561
183.495	0.1567
183.709	0.1556
183.922	0.1583
184.136	0.1598
184.35	0.1628
184.563	0.1645
184.777	0.1668
184.99	0.1694
185.204	0.1699
185.417	0.1711
185.631	0.1736
185.845	0.1791
186.058	0.1803
186.272	0.1802
186.485	0.1824
186.699	0.1866
186.912	0.1929
187.126	0.1978
187.339	0.2026
187.553	0.2073
187.766	0.2122
187.98	0.2185
188.193	0.2232
188.407	0.2317
188.62	0.2387
188.834	0.2478
189.047	0.2554
189.26	0.2627
189.474	0.2715
189.687	0.2812
189.901	0.2902
190.114	0.3009
190.327	0.3107
190.541	0.3195
190.754	0.3263
190.968	0.3361
191.181	0.3479
191.394	0.3588
191.608	0.369
191.821	0.379
192.034	0.3903
192.248	0.402
192.461	0.4106
192.674	0.4226
192.888	0.4339
193.101	0.4474
193.314	0.4566
193.528	0.4661
193.741	0.477
193.954	0.488
194.168	0.4973
194.381	0.5068
194.594	0.5163
194.807	0.5277
195.021	0.5371
195.234	0.5488
195.447	0.5594
195.66	0.5709
195.874	0.581
196.087	0.592
196.3	0.6022
196.513	0.6113
196.726	0.6207
196.94	0.6308
197.153	0.6414
197.366	0.6515
197.579	0.6619
197.792	0.6692
198.005	0.6792
198.219	0.6884
198.432	0.6994
198.645	0.7077
198.858	0.7168
199.071	0.7254
199.284	0.7348
199.497	0.7457
199.71	0.7536
199.924	0.7635
200.137	0.7719
200.35	0.781
200.563	0.7889
200.776	0.7986
200.989	0.8078
201.202	0.8163
201.415	0.8244
201.628	0.8329
201.841	0.8413
202.054	0.8488
202.267	0.8565
202.48	0.866
202.693	0.8736
202.906	0.8823
203.119	0.8914
203.332	0.8989
203.545	0.9073
203.758	0.9157
203.971	0.9248
204.184	0.9326
204.397	0.9421
204.61	0.947
204.823	0.9543
205.036	0.9603
205.249	0.9673
205.462	0.9721
205.674	0.9783
205.887	0.9828
206.1	0.9847
206.313	0.9883
206.526	0.9908
206.739	0.994
206.952	0.9939
207.165	0.994
207.377	0.9928
207.59	0.9911
207.803	0.9874
208.016	0.9839
208.229	0.9786
208.442	0.9725
208.654	0.9652
208.867	0.9575
209.08	0.9486
209.293	0.9383
209.506	0.9274
209.718	0.9159
209.931	0.9048
210.144	0.8917
210.357	0.8781
210.569	0.863
210.782	0.848
210.995	0.8327
211.207	0.8182
211.42	0.8024
211.633	0.7873
211.846	0.7713
212.058	0.7559
212.271	0.7397
212.484	0.7236
212.696	0.7078
212.909	0.6918
213.122	0.6759
213.334	0.6598
213.547	0.6436
213.76	0.6282
213.972	0.6127
214.185	0.5972
214.397	0.5823
214.61	0.5675
214.823	0.5525
215.035	0.5381
215.248	0.5238
215.46	0.5096
215.673	0.4955
215.885	0.4815
216.098	0.4677
216.311	0.4538
216.523	0.44
216.736	0.4269
216.948	0.4143
217.161	0.4024
217.373	0.391
217.586	0.3797
217.798	0.3684
218.011	0.3574
218.223	0.3465
218.436	0.3361
218.648	0.3264
218.861	0.3168
219.073	0.3073
219.285	0.2981
219.498	0.2892
219.71	0.2808
219.923	0.2727
220.135	0.2648
220.348	0.2572
220.56	0.2499
220.772	0.2429
220.985	0.2363
221.197	0.23
221.41	0.2238
221.622	0.218
221.834	0.2125
222.047	0.2073
222.259	0.2024
222.471	0.1977
222.684	0.1932
222.896	0.1891
223.108	0.1851
223.321	0.1814
223.533	0.1778
223.745	0.1747
223.957	0.1718
224.17	0.1692
224.382	0.1667
224.594	0.1645
224.806	0.1623
225.019	0.1604
225.231	0.1587
225.443	0.1571
225.655	0.1558
225.868	0.1545
226.08	0.1534
226.292	0.1524
226.504	0.1517
226.716	0.1511
226.929	0.1505
227.141	0.1502
227.353	0.1499
227.565	0.1498
227.777	0.1497
227.989	0.1498
228.202	0.15
228.414	0.1503
228.626	0.1507
228.838	0.1512
229.05	0.1518
229.262	0.1525
229.474	0.1533
229.686	0.1542
229.898	0.1552
230.11	0.1562
230.322	0.1574
230.534	0.1587
230.747	0.1601
230.959	0.1615
231.171	0.163
231.383	0.1646
231.595	0.1662
231.807	0.168
232.019	0.1698
232.231	0.1715
232.443	0.1735
232.655	0.1754
232.867	0.1775
233.079	0.1796
233.29	0.1818
233.502	0.184
233.714	0.1863
233.926	0.1887
234.138	0.191
234.35	0.1935
234.562	0.1959
234.774	0.1984
234.986	0.201
235.198	0.2036
235.41	0.2062
235.622	0.2089
235.833	0.2116
236.045	0.2144
236.257	0.2172
236.469	0.22
236.681	0.2229
236.893	0.2259
237.104	0.2289
237.316	0.232
237.528	0.235
237.74	0.2381
237.952	0.2411
238.163	0.2441
238.375	0.2473
238.587	0.2503
238.799	0.2534
239.01	0.2566
239.222	0.2597
239.434	0.2627
239.646	0.2656
239.857	0.2686
240.069	0.2715
240.281	0.2745
240.492	0.2775
240.704	0.2803
240.916	0.2832
241.128	0.2862
241.339	0.2891
241.551	0.292
241.762	0.2948
241.974	0.2976
242.186	0.3004
242.397	0.3031
242.609	0.3058
242.821	0.3084
243.032	0.3109
243.244	0.3133
243.455	0.3158
243.667	0.3181
243.879	0.3203
244.09	0.3225
244.302	0.3245
244.513	0.3265
244.725	0.3284
244.936	0.3302
245.148	0.3318
245.359	0.3334
245.571	0.3349
245.782	0.3363
245.994	0.3377
246.205	0.3389
246.417	0.3399
246.628	0.3408
246.84	0.3416
247.051	0.3423
247.263	0.343
247.474	0.3435
247.686	0.3438
247.897	0.344
248.108	0.3441
248.32	0.344
248.531	0.3439
248.743	0.3437
248.954	0.3433
249.165	0.3427
249.377	0.342
249.588	0.3412
249.8	0.3403
250.011	0.3391
250.222	0.3379
250.434	0.3365
250.645	0.335
250.856	0.3333
251.067	0.3315
251.279	0.3296
251.49	0.3275
251.701	0.3253
251.913	0.3231
252.124	0.3206
252.335	0.318
252.546	0.3153
252.758	0.3125
252.969	0.3096
253.18	0.3065
253.391	0.3034
253.603	0.3002
253.814	0.2967
254.025	0.2931
254.236	0.2895
254.447	0.2858
254.659	0.2819
254.87	0.278
255.081	0.2741
255.292	0.2699
255.503	0.2658
255.714	0.2615
255.925	0.2571
256.137	0.2527
256.348	0.2481
256.559	0.2434
256.77	0.2388
256.981	0.234
257.192	0.2293
257.403	0.2246
257.614	0.2197
257.825	0.2149
258.036	0.2101
258.247	0.2052
258.458	0.2004
258.669	0.1954
258.88	0.1905
259.091	0.1857
259.302	0.1809
259.513	0.1761
259.724	0.1713
259.935	0.1667
260.146	0.1621
260.357	0.1575
260.568	0.153
260.779	0.1486
260.99	0.1442
261.201	0.1399
261.412	0.1357
261.623	0.1317
261.834	0.1278
262.045	0.1239
262.256	0.1202
262.467	0.1166
262.677	0.1131
262.888	0.1095
263.099	0.1061
263.31	0.1028
263.521	0.0996
263.732	0.0966
263.943	0.0937
264.153	0.0909
264.364	0.0882
264.575	0.0857
264.786	0.0832
264.997	0.081
265.207	0.0787
265.418	0.0766
265.629	0.0746
265.84	0.0727
266.05	0.0709
266.261	0.0692
266.472	0.0677
266.683	0.0662
266.893	0.0648
267.104	0.0635
267.315	0.0623
267.525	0.0612
267.736	0.0602
267.947	0.0593
268.157	0.0585
268.368	0.0577
268.579	0.057
268.789	0.0564
269	0.0559
269.211	0.0554
269.421	0.055
269.632	0.0547
269.842	0.0544
270.053	0.0542
270.264	0.054
270.474	0.0539
270.685	0.0538
270.895	0.0538
271.106	0.0538
271.316	0.0539
271.527	0.0539
271.737	0.0541
271.948	0.0542
272.158	0.0544
272.369	0.0547
272.579	0.0549
272.79	0.0551
273	0.0555
273.211	0.0558
273.421	0.0561
273.632	0.0565
273.842	0.0569
274.053	0.0574
274.263	0.0579
274.474	0.0583
274.684	0.0588
274.894	0.0593
275.105	0.0598
275.315	0.0604
275.526	0.061
275.736	0.0615
275.946	0.0621
276.157	0.0627
276.367	0.0633
276.577	0.064
276.788	0.0646
276.998	0.0652
277.208	0.0659
277.419	0.0665
277.629	0.0672
277.839	0.0678
278.049	0.0686
278.26	0.0693
278.47	0.07
278.68	0.0708
278.89	0.0715
279.101	0.0723
279.311	0.0731
279.521	0.0738
279.731	0.0746
279.942	0.0753
280.152	0.0761
280.362	0.0769
280.572	0.0777
280.782	0.0784
280.992	0.0792
281.203	0.08
281.413	0.0808
281.623	0.0816
281.833	0.0824
282.043	0.0832
282.253	0.0841
282.463	0.0848
282.674	0.0856
282.884	0.0864
283.094	0.0872
283.304	0.088
283.514	0.0888
283.724	0.0896
283.934	0.0904
284.144	0.0912
284.354	0.092
284.564	0.0928
284.774	0.0936
284.984	0.0944
285.194	0.0952
285.404	0.096
285.614	0.0967
285.824	0.0975
286.034	0.0983
286.244	0.099
286.454	0.0998
286.664	0.1006
286.874	0.1013
287.084	0.102
287.294	0.1028
287.503	0.1036
287.713	0.1043
287.923	0.1051
288.133	0.1058
288.343	0.1065
288.553	0.1071
288.763	0.1078
288.973	0.1085
289.182	0.1092
289.392	0.1098
289.602	0.1105
289.812	0.1112
290.022	0.1119
290.231	0.1125
290.441	0.1132
290.651	0.1138
290.861	0.1144
291.071	0.115
291.28	0.1155
291.49	0.1161
291.7	0.1167
291.91	0.1173
292.119	0.1179
292.329	0.1185
292.539	0.119
292.748	0.1196
292.958	0.1201
293.168	0.1206
293.377	0.1211
293.587	0.1217
293.797	0.1222
294.006	0.1226
294.216	0.1231
294.426	0.1236
294.635	0.124
294.845	0.1245
295.054	0.125
295.264	0.1254
295.474	0.1259
295.683	0.1264
295.893	0.1268
296.102	0.1272
296.312	0.1277
296.521	0.1282
296.731	0.1286
296.94	0.1291
297.15	0.1296
297.359	0.1301
297.569	0.1306
297.778	0.1311
297.988	0.1316
298.197	0.1321
298.407	0.1326
298.616	0.1332
298.826	0.1338
299.035	0.1344
299.245	0.135
299.454	0.1357
299.663	0.1364
299.873	0.1371
300.082	0.1378
300.292	0.1386
300.501	0.1394
300.71	0.1402
300.92	0.141
301.129	0.1419
301.338	0.1428
301.548	0.1438
301.757	0.1448
301.966	0.1458
302.176	0.1468
302.385	0.1479
302.594	0.149
302.804	0.1501
303.013	0.1512
303.222	0.1525
303.431	0.1537
303.641	0.155
303.85	0.1564
304.059	0.1578
304.268	0.1592
304.477	0.1606
304.687	0.1621
304.896	0.1636
305.105	0.1652
305.314	0.1668
305.523	0.1684
305.733	0.1701
305.942	0.1718
306.151	0.1736
306.36	0.1753
306.569	0.1772
306.778	0.1791
306.987	0.181
307.196	0.183
307.406	0.1851
307.615	0.1871
307.824	0.1893
308.033	0.1914
308.242	0.1935
308.451	0.1958
308.66	0.198
308.869	0.2003
309.078	0.2027
309.287	0.205
309.496	0.2075
309.705	0.2099
309.914	0.2125
310.123	0.215
310.332	0.2176
310.541	0.2203
310.75	0.2231
310.959	0.2258
311.168	0.2286
311.377	0.2314
311.585	0.2342
311.794	0.2371
312.003	0.24
312.212	0.243
312.421	0.2461
312.63	0.2491
312.839	0.2523
313.048	0.2555
313.256	0.2587
313.465	0.2619
313.674	0.2651
313.883	0.2683
314.092	0.2717
314.301	0.275
314.509	0.2785
314.718	0.2821
314.927	0.2857
315.136	0.2894
315.344	0.2931
315.553	0.2967
315.762	0.3004
315.971	0.3042
316.179	0.308
316.388	0.3119
316.597	0.3159
316.805	0.3199
317.014	0.324
317.223	0.3282
317.431	0.3325
317.64	0.3367
317.849	0.341
318.057	0.3454
318.266	0.3498
318.475	0.3542
318.683	0.3587
318.892	0.3631
319.1	0.3677
319.309	0.3723
319.518	0.3768
319.726	0.3814
319.935	0.3861
320.143	0.3908
320.352	0.3956
320.56	0.4004
320.769	0.4051
320.977	0.4099
321.186	0.4149
321.394	0.4199
321.603	0.425
321.811	0.43
322.02	0.4351
322.228	0.4402
322.437	0.4453
322.645	0.4504
322.854	0.4556
323.062	0.4608
323.27	0.466
323.479	0.4712
323.687	0.4766
323.896	0.4819
324.104	0.4873
324.312	0.4927
324.521	0.4982
324.729	0.5036
324.937	0.5091
325.146	0.5146
325.354	0.5202
325.562	0.5256
325.771	0.5312
325.979	0.5367
326.187	0.5422
326.396	0.5479
326.604	0.5536
326.812	0.5593
327.02	0.5651
327.229	0.5708
327.437	0.5765
327.645	0.5823
327.853	0.5883
328.061	0.5943
328.27	0.6004
328.478	0.6066
328.686	0.6128
328.894	0.6187
329.102	0.6247
329.311	0.6304
329.519	0.6362
329.727	0.642
329.935	0.6476
330.143	0.6534
330.351	0.659
330.559	0.6648
330.767	0.6703
330.975	0.6759
331.183	0.6816
331.392	0.6871
331.6	0.6927
331.808	0.6982
332.016	0.7038
332.224	0.7093
332.432	0.7149
332.64	0.7202
332.848	0.7257
333.056	0.7312
333.264	0.7369
333.472	0.7424
333.68	0.7479
333.888	0.7533
334.095	0.7586
334.303	0.764
334.511	0.7695
334.719	0.7748
334.927	0.7801
335.135	0.7854
335.343	0.7906
335.551	0.7958
335.759	0.8008
335.967	0.806
336.174	0.8109
336.382	0.8159
336.59	0.821
336.798	0.8259
337.006	0.8307
337.213	0.8354
337.421	0.8402
337.629	0.8449
337.837	0.8495
338.045	0.8541
338.252	0.8585
338.46	0.8629
338.668	0.8673
338.876	0.8715
339.083	0.8758
339.291	0.8799
339.499	0.8839
339.706	0.8879
339.914	0.8919
340.122	0.8956
340.329	0.8992
340.537	0.9029
340.745	0.9064
340.952	0.9099
341.16	0.9134
341.368	0.9167
341.575	0.92
341.783	0.923
341.99	0.9261
342.198	0.929
342.406	0.9317
342.613	0.9345
342.821	0.9372
343.028	0.9398
343.236	0.9422
343.443	0.9447
343.651	0.9468
343.858	0.9489
344.066	0.9509
344.273	0.9527
344.481	0.9546
344.688	0.9562
344.896	0.9577
345.103	0.9591
345.311	0.9604
345.518	0.9616
345.725	0.9627
345.933	0.9637
346.14	0.9645
346.348	0.9652
346.555	0.9658
346.762	0.9662
346.97	0.9666
347.177	0.9668
347.384	0.9668
347.592	0.9667
347.799	0.9665
348.006	0.9661
348.214	0.9658
348.421	0.9652
348.628	0.9646
348.836	0.9638
349.043	0.9629
349.25	0.9618
349.457	0.9604
349.665	0.959
349.872	0.9574
350.079	0.9559
350.286	0.9542
350.493	0.9525
350.701	0.9505
350.908	0.9482
351.115	0.9459
351.322	0.9435
351.529	0.941
351.736	0.9384
351.944	0.9355
352.151	0.9326
352.358	0.9295
352.565	0.9264
352.772	0.9231
352.979	0.9197
353.186	0.9162
353.393	0.9123
353.6	0.9086
353.807	0.9046
354.014	0.9006
354.221	0.8965
354.428	0.8922
354.635	0.8879
354.842	0.8833
355.049	0.8786
355.256	0.8739
355.463	0.8688
355.67	0.8638
355.877	0.8587
356.084	0.8536
356.291	0.8482
356.498	0.8429
356.705	0.8374
356.912	0.8316
357.119	0.8259
357.326	0.82
357.533	0.8142
357.74	0.8082
357.946	0.8021
358.153	0.7958
358.36	0.7897
358.567	0.7835
358.774	0.7769
358.981	0.7703
359.187	0.7638
359.394	0.7572
359.601	0.7505
359.808	0.7437
360.014	0.7368
360.221	0.7297
360.428	0.7227
360.635	0.7157
360.841	0.7087
361.048	0.7016
361.255	0.6946
361.462	0.6872
361.668	0.6799
361.875	0.6724
362.082	0.665
362.288	0.6576
362.495	0.6502
362.702	0.6428
362.908	0.6354
363.115	0.628
363.321	0.6204
363.528	0.613
363.735	0.6053
363.941	0.5977
364.148	0.5902
364.354	0.5825
364.561	0.5749
364.767	0.5675
364.974	0.5601
365.18	0.5522
365.387	0.5445
365.593	0.537
365.8	0.5294
366.006	0.5219
366.213	0.5142
366.419	0.5069
366.626	0.4995
366.832	0.4922
367.039	0.4847
367.245	0.4774
367.452	0.4701
367.658	0.4628
367.864	0.4556
368.071	0.4481
368.277	0.4408
368.483	0.4336
368.69	0.4265
368.896	0.4193
369.102	0.4121
369.309	0.4053
369.515	0.3986
369.721	0.3919
369.928	0.3851
370.134	0.3781
370.34	0.3711
370.547	0.3642
370.753	0.3574
370.959	0.3507
371.165	0.3441
371.372	0.3373
371.578	0.3304
371.784	0.3235
371.99	0.3169
372.196	0.3105
372.403	0.3039
372.609	0.2975
372.815	0.2915
373.021	0.2854
373.227	0.2793
373.433	0.2734
373.639	0.2675
373.845	0.2618
374.052	0.256
374.258	0.2504
374.464	0.2449
374.67	0.2395
374.876	0.234
375.082	0.2285
375.288	0.2232
375.494	0.2179
375.7	0.2128
375.906	0.208
376.112	0.2034
376.318	0.1986
376.524	0.194
376.73	0.1893
376.936	0.1848
377.142	0.1803
377.348	0.1759
377.554	0.1716
377.76	0.1673
377.966	0.1632
378.172	0.1589
378.377	0.1548
378.583	0.151
378.789	0.1471
378.995	0.1433
379.201	0.1395
379.407	0.1359
379.613	0.1321
379.818	0.1287
380.024	0.1253
380.23	0.1219
380.436	0.1185
380.642	0.1152
380.847	0.1122
381.053	0.1092
381.259	0.1061
381.465	0.103
381.67	0.1001
381.876	0.0971
382.082	0.0942
382.287	0.0914
382.493	0.0888
382.699	0.0863
382.905	0.0837
383.11	0.0812
383.316	0.0788
383.521	0.0764
383.727	0.074
383.933	0.0716
384.138	0.0693
384.344	0.0672
384.55	0.0651
384.755	0.0631
384.961	0.0611
385.166	0.0591
385.372	0.0572
385.577	0.0554
385.783	0.0537
385.988	0.052
386.194	0.0503
386.399	0.0488
386.605	0.0472
386.81	0.0457
387.016	0.0442
387.221	0.0427
387.427	0.0413
387.632	0.04
387.838	0.0386
388.043	0.0373
388.248	0.0361
388.454	0.0348
388.659	0.0336
388.865	0.0324
389.07	0.0313
389.275	0.0302
389.481	0.0291
389.686	0.0281
389.891	0.0272
390.097	0.0263
390.302	0.0254
390.507	0.0245
390.713	0.0236
390.918	0.0228
391.123	0.022
391.328	0.0212
391.534	0.0204
391.739	0.0196
391.944	0.0189
392.149	0.0182
392.355	0.0175
392.56	0.0168
392.765	0.0161
392.97	0.0155
393.175	0.0149
393.38	0.0144
393.586	0.0139
393.791	0.0133
393.996	0.0128
394.201	0.0123
394.406	0.0118
394.611	0.0113
394.816	0.0108
395.021	0.0103
395.226	0.0098
395.431	0.0094
395.637	0.009
395.842	0.0086
396.047	0.0082
396.252	0.0078
396.457	0.0074
396.662	0.007
396.867	0.0067
397.072	0.0063
397.277	0.006
397.481	0.0057
397.686	0.0054
397.891	0.0052
398.096	0.0049
398.301	0.0046
398.506	0.0043
398.711	0.0041
398.916	0.0038
399.121	0.0036
399.326	0.0034
399.53	0.0032
399.735	0.003
399.94	0.0028
400.145	0.0026
400.35	0.0024
400.555	0.0022
400.759	0.002
400.964	0.0019
401.169	0.0017
401.374	0.0015
401.578	0.0013
401.783	0.0012
401.988	0.001
402.193	0.0009
402.397	0.0008
402.602	0.0006
402.807	0.0005
403.011	0.0003
403.216	0.0002
403.421	0.0001
403.625	-0
403.83	-0.0001
404.035	-0.0002
404.239	-0.0003
404.444	-0.0004
404.648	-0.0005
404.853	-0.0006
405.057	-0.0007
405.262	-0.0008
405.467	-0.0009
405.671	-0.001
405.876	-0.0011
406.08	-0.0011
406.285	-0.0012
406.489	-0.0013
406.694	-0.0014
406.898	-0.0014
407.103	-0.0015
407.307	-0.0016
407.511	-0.0016
407.716	-0.0017
407.92	-0.0017
408.125	-0.0018
408.329	-0.0018
408.534	-0.0019
408.738	-0.0019
408.942	-0.0019
409.147	-0.0019
409.351	-0.002
409.555	-0.002
409.76	-0.002
409.964	-0.002
410.168	-0.0021
410.373	-0.0022
410.577	-0.0022
410.781	-0.0022
410.985	-0.0022
411.19	-0.0022
411.394	-0.0023
411.598	-0.0023
411.802	-0.0023
412.007	-0.0023
412.211	-0.0024
412.415	-0.0024
412.619	-0.0025
412.823	-0.0025
413.028	-0.0025
413.232	-0.0025
413.436	-0.0026
413.64	-0.0026
413.844	-0.0026
414.048	-0.0026
414.252	-0.0026
414.456	-0.0026
414.66	-0.0027
414.865	-0.0027
415.069	-0.0027
415.273	-0.0028
415.477	-0.0027
415.681	-0.0027
415.885	-0.0028
416.089	-0.0027
416.293	-0.0028
416.497	-0.0028
416.701	-0.0028
416.905	-0.0028
417.109	-0.0028
417.313	-0.0028
417.516	-0.0029
417.72	-0.0029
417.924	-0.0029
418.128	-0.0029
418.332	-0.003
418.536	-0.003
418.74	-0.003
418.944	-0.003
419.148	-0.003
419.351	-0.003
419.555	-0.003
419.759	-0.003
419.963	-0.0029
420.167	-0.003
420.37	-0.0031
420.574	-0.0031
420.778	-0.0031
420.982	-0.0032
421.185	-0.0032
421.389	-0.0033
421.593	-0.0033
421.797	-0.0034
422	-0.0034
422.204	-0.0034
422.408	-0.0034
422.611	-0.0034
422.815	-0.0034
423.019	-0.0034
423.222	-0.0034
423.426	-0.0034
423.629	-0.0034
423.833	-0.0034
424.037	-0.0034
424.24	-0.0034
424.444	-0.0034
424.647	-0.0034
424.851	-0.0034
425.054	-0.0034
425.258	-0.0034
425.461	-0.0034
425.665	-0.0035
425.868	-0.0035
426.072	-0.0035
426.275	-0.0036
426.479	-0.0035
426.682	-0.0035
426.886	-0.0035
427.089	-0.0035
427.293	-0.0035
427.496	-0.0034
427.699	-0.0034
427.903	-0.0034
428.106	-0.0034
428.309	-0.0034
428.513	-0.0034
428.716	-0.0035
428.919	-0.0035
429.123	-0.0035
429.326	-0.0035
429.529	-0.0035
429.733	-0.0035
429.936	-0.0036
430.139	-0.0035
430.342	-0.0035
430.546	-0.0035
430.749	-0.0035
430.952	-0.0036
431.155	-0.0035
431.359	-0.0036
431.562	-0.0036
431.765	-0.0036
431.968	-0.0036
432.171	-0.0036
432.374	-0.0036
432.578	-0.0036
432.781	-0.0036
432.984	-0.0036
433.187	-0.0036
433.39	-0.0036
433.593	-0.0036
433.796	-0.0036
433.999	-0.0035
434.202	-0.0035
434.405	-0.0035
434.608	-0.0035
434.811	-0.0035
435.014	-0.0035
435.217	-0.0035
435.42	-0.0035
435.623	-0.0035
435.826	-0.0035
436.029	-0.0035
436.232	-0.0035
436.435	-0.0035
436.638	-0.0036
436.841	-0.0036
437.044	-0.0036
437.247	-0.0036
437.45	-0.0036
437.652	-0.0036
437.855	-0.0035
438.058	-0.0035
438.261	-0.0035
438.464	-0.0035
438.667	-0.0035
438.869	-0.0035
439.072	-0.0035
439.275	-0.0035
439.478	-0.0035
439.68	-0.0035
439.883	-0.0035
440.086	-0.0035
440.289	-0.0035
440.491	-0.0035
440.694	-0.0035
440.897	-0.0035
441.099	-0.0035
441.302	-0.0035
441.505	-0.0034
441.707	-0.0034
441.91	-0.0034
442.113	-0.0034
442.315	-0.0035
442.518	-0.0035
442.72	-0.0034
442.923	-0.0034
443.126	-0.0034
443.328	-0.0034
443.531	-0.0034
443.733	-0.0034
443.936	-0.0034
444.138	-0.0034
444.341	-0.0035
444.543	-0.0035
444.746	-0.0036
444.948	-0.0036
445.151	-0.0036
445.353	-0.0035
445.555	-0.0035
445.758	-0.0035
445.96	-0.0036
446.163	-0.0035
446.365	-0.0035
446.567	-0.0035
446.77	-0.0035
446.972	-0.0035
447.175	-0.0035
447.377	-0.0035
447.579	-0.0036
447.781	-0.0036
447.984	-0.0036
448.186	-0.0037
448.388	-0.0036
448.591	-0.0036
448.793	-0.0037
448.995	-0.0037
449.197	-0.0037
449.4	-0.0038
449.602	-0.0038
449.804	-0.0038
450.006	-0.0038
450.208	-0.0038
450.411	-0.0037
450.613	-0.0037
450.815	-0.0037
451.017	-0.0037
451.219	-0.0036
451.421	-0.0036
451.623	-0.0037
451.825	-0.0037
452.027	-0.0037
452.229	-0.0036
452.432	-0.0037
452.634	-0.0037
452.836	-0.0037
453.038	-0.0037
453.24	-0.0037
453.442	-0.0037
453.644	-0.0037
453.846	-0.0037
454.048	-0.0037
454.25	-0.0037
454.451	-0.0037
454.653	-0.0037
454.855	-0.0037
455.057	-0.0037
455.259	-0.0037
455.461	-0.0037
455.663	-0.0037
455.865	-0.0036
456.067	-0.0037
456.268	-0.0037
456.47	-0.0037
456.672	-0.0037
456.874	-0.0037
457.076	-0.0037
457.277	-0.0037
457.479	-0.0038
457.681	-0.0037
457.883	-0.0038
458.084	-0.0037
458.286	-0.0038
458.488	-0.0038
458.69	-0.0038
458.891	-0.0039
459.093	-0.0039
459.295	-0.0039
459.496	-0.0039
459.698	-0.0039
459.9	-0.0039
460.101	-0.0039
460.303	-0.0039
460.504	-0.0039
460.706	-0.0039
460.908	-0.0039
461.109	-0.0039
461.311	-0.0039
461.512	-0.0039
461.714	-0.0039
461.915	-0.0039
462.117	-0.0039
462.318	-0.0039
462.52	-0.0039
462.721	-0.0039
462.923	-0.0039
463.124	-0.0039
463.326	-0.0038
463.527	-0.0038
463.729	-0.0038
463.93	-0.0038
464.131	-0.0038
464.333	-0.0038
464.534	-0.0038
464.735	-0.0038
464.937	-0.0038
465.138	-0.0038
465.34	-0.0038
465.541	-0.0038
465.742	-0.0038
465.943	-0.0038
466.145	-0.0038
466.346	-0.0038
466.547	-0.0038
466.748	-0.0038
466.95	-0.0038
467.151	-0.0038
467.352	-0.0038
467.553	-0.0038
467.755	-0.0038
467.956	-0.0038
468.157	-0.0039
468.358	-0.0038
468.559	-0.0038
468.76	-0.0038
468.961	-0.0038
469.163	-0.0038
469.364	-0.0038
469.565	-0.0038
469.766	-0.0038
469.967	-0.0038
470.168	-0.0039
470.369	-0.0038
470.57	-0.0039
470.771	-0.0038
470.972	-0.0039
471.173	-0.0039
471.374	-0.0038
471.575	-0.0038
471.776	-0.0038
471.977	-0.0038
472.178	-0.0038
472.379	-0.0038
472.58	-0.0038
472.781	-0.0038
472.982	-0.0038
473.182	-0.0038
473.383	-0.0038
473.584	-0.0039
473.785	-0.0039
473.986	-0.0039
474.187	-0.004
474.387	-0.0039
474.588	-0.004
474.789	-0.004
474.99	-0.004
475.191	-0.0041
475.391	-0.0041
475.592	-0.0041
475.793	-0.0042
475.994	-0.0042
476.194	-0.0042
476.395	-0.0042
476.596	-0.0043
476.796	-0.0043
476.997	-0.0043
477.198	-0.0043
477.398	-0.0043
477.599	-0.0043
477.799	-0.0043
478	-0.0042
478.201	-0.0042
478.401	-0.0042
478.602	-0.0042
478.802	-0.0042
479.003	-0.0042
479.203	-0.0042
479.404	-0.0041
479.604	-0.0041
479.805	-0.0041
480.005	-0.0041
480.206	-0.0041
480.406	-0.0041
480.607	-0.0041
480.807	-0.0042
481.008	-0.0042
481.208	-0.0041
481.409	-0.0041
481.609	-0.0041
481.809	-0.004
482.01	-0.004
482.21	-0.0041
482.41	-0.0041
482.611	-0.0042
482.811	-0.0042
483.011	-0.0043
483.212	-0.0044
483.412	-0.0044
483.612	-0.0044
483.812	-0.0045
484.013	-0.0045
484.213	-0.0045
484.413	-0.0045
484.613	-0.0045
484.814	-0.0045
485.014	-0.0045
485.214	-0.0045
485.414	-0.0045
485.614	-0.0046
485.814	-0.0045
486.015	-0.0046
486.215	-0.0045
486.415	-0.0045
486.615	-0.0045
486.815	-0.0045
487.015	-0.0044
487.215	-0.0044
487.415	-0.0044
487.615	-0.0044
487.815	-0.0044
488.015	-0.0044
488.215	-0.0044
488.415	-0.0044
488.615	-0.0043
488.815	-0.0043
489.015	-0.0042
489.215	-0.0042
489.415	-0.0041
489.615	-0.004
489.815	-0.004
490.015	-0.0039
490.215	-0.0039
490.415	-0.0039
490.614	-0.0039
490.814	-0.0039
491.014	-0.0038
491.214	-0.0038
491.414	-0.0038
491.613	-0.0038
491.813	-0.0037
492.013	-0.0038
492.213	-0.0038
492.413	-0.0038
492.612	-0.0038
492.812	-0.0039
493.012	-0.0038
493.211	-0.0038
493.411	-0.0038
493.611	-0.0038
493.811	-0.0038
494.01	-0.0038
494.21	-0.0038
494.409	-0.0038
494.609	-0.0038
494.809	-0.0038
495.008	-0.0038
495.208	-0.0038
495.407	-0.0038
495.607	-0.0037
495.807	-0.0037
496.006	-0.0037
496.206	-0.0037
496.405	-0.0037
496.605	-0.0037
496.804	-0.0037
497.004	-0.0038
497.203	-0.0038
497.403	-0.0038
497.602	-0.0039
497.801	-0.0039
498.001	-0.0039
498.2	-0.0039
498.4	-0.0039
498.599	-0.0039
498.798	-0.0039
498.998	-0.004
499.197	-0.004
499.396	-0.004
499.596	-0.004
499.795	-0.004
499.994	-0.004
500.194	-0.004
500.393	-0.004
500.592	-0.004
500.791	-0.004
500.991	-0.004
501.19	-0.004
501.389	-0.004
501.588	-0.0039
501.788	-0.0039
501.987	-0.0039
502.186	-0.004
502.385	-0.0039
502.584	-0.0039
502.783	-0.0039
502.982	-0.0039
503.182	-0.0038
503.381	-0.0038
503.58	-0.0038
503.779	-0.0038
503.978	-0.0038
504.177	-0.0038
504.376	-0.0038
504.575	-0.0038
504.774	-0.0038
504.973	-0.0038
505.172	-0.0038
505.371	-0.0038
505.57	-0.0038
505.769	-0.0038
505.968	-0.0038
506.167	-0.0038
506.366	-0.0038
506.565	-0.0038
506.763	-0.0038
506.962	-0.0038
507.161	-0.0038
507.36	-0.0038
507.559	-0.0039
507.758	-0.0039
507.957	-0.0039
508.155	-0.0039
508.354	-0.004
508.553	-0.004
508.752	-0.004
508.95	-0.004
509.149	-0.004
509.348	-0.004
509.547	-0.004
509.745	-0.0039
509.944	-0.004
510.143	-0.004
510.341	-0.0039
510.54	-0.0039
510.739	-0.0039
510.937	-0.0039
511.136	-0.0038
511.335	-0.0038
511.533	-0.0038
511.732	-0.0039
511.93	-0.0038
512.129	-0.0038
512.327	-0.0038
512.526	-0.0039
512.724	-0.0039
512.923	-0.0039
513.121	-0.0039
513.32	-0.0039
513.518	-0.0039
513.717	-0.0039
513.915	-0.0038
514.114	-0.0038
514.312	-0.0038
514.511	-0.0039
514.709	-0.0039
514.907	-0.0038
515.106	-0.0039
515.304	-0.0039
515.502	-0.0039
515.701	-0.0039
515.899	-0.0039
516.097	-0.0039
516.296	-0.0039
516.494	-0.0039
516.692	-0.0039
516.891	-0.0039
517.089	-0.0039
517.287	-0.0039
517.485	-0.0039
517.683	-0.0039
517.882	-0.0038
518.08	-0.0039
518.278	-0.0039
518.476	-0.0039
518.674	-0.0039
518.873	-0.0039
519.071	-0.0039
519.269	-0.0039
519.467	-0.004
519.665	-0.004
519.863	-0.004
520.061	-0.004
520.259	-0.0041
520.457	-0.004
520.655	-0.004
520.853	-0.004
521.051	-0.004
521.249	-0.004
521.447	-0.0041
521.645	-0.0041
521.843	-0.0042
522.041	-0.0042
522.239	-0.0042
522.437	-0.0043
522.635	-0.0043
522.833	-0.0042
523.031	-0.0043
523.229	-0.0043
523.426	-0.0043
523.624	-0.0043
523.822	-0.0043
524.02	-0.0044
524.218	-0.0043
524.415	-0.0043
524.613	-0.0043
524.811	-0.0043
525.009	-0.0043
525.207	-0.0043
525.404	-0.0043
525.602	-0.0043
525.8	-0.0042
525.997	-0.0042
526.195	-0.0042
526.393	-0.0042
526.59	-0.0042
526.788	-0.0042
526.986	-0.0042
527.183	-0.0041
527.381	-0.0041
527.578	-0.0041
527.776	-0.0041
527.974	-0.004
528.171	-0.004
528.369	-0.004
528.566	-0.004
528.764	-0.004
528.961	-0.0041
529.159	-0.0041
529.356	-0.0041
529.554	-0.004
529.751	-0.004
529.949	-0.0041
530.146	-0.0041
530.343	-0.0041
530.541	-0.0041
530.738	-0.0041
530.936	-0.0041
531.133	-0.004
531.33	-0.0041
531.528	-0.0041
531.725	-0.0041
531.922	-0.0041
532.12	-0.0041
532.317	-0.0041
532.514	-0.0041
532.711	-0.0041
532.909	-0.0041
533.106	-0.0042
533.303	-0.0041
533.5	-0.0041
533.698	-0.0041
533.895	-0.004
534.092	-0.004
534.289	-0.004
534.486	-0.004
534.683	-0.004
534.881	-0.004
535.078	-0.004
535.275	-0.004
535.472	-0.0039
535.669	-0.004
535.866	-0.004
536.063	-0.004
536.26	-0.0039
536.457	-0.004
536.654	-0.004
536.851	-0.0039
537.048	-0.0039
537.245	-0.0039
537.442	-0.0039
537.639	-0.0039
537.836	-0.0038
538.033	-0.0038
538.23	-0.0038
538.427	-0.0038
538.624	-0.0038
538.821	-0.0038
539.017	-0.0038
539.214	-0.0038
539.411	-0.0038
539.608	-0.0039
539.805	-0.0039
540.001	-0.0039
540.198	-0.0039
540.395	-0.0038
540.592	-0.0038
540.789	-0.0037
540.985	-0.0037
541.182	-0.0037
541.379	-0.0037
541.575	-0.0037
541.772	-0.0037
541.969	-0.0036
542.165	-0.0036
542.362	-0.0036
542.559	-0.0036
542.755	-0.0035
542.952	-0.0036
543.149	-0.0036
543.345	-0.0037
543.542	-0.0037
543.738	-0.0037
543.935	-0.0038
544.131	-0.0038
544.328	-0.0038
544.524	-0.0038
544.721	-0.0038
544.917	-0.0037
545.114	-0.0038
545.31	-0.0038
545.507	-0.0038
545.703	-0.0038
545.9	-0.0038
546.096	-0.0038
546.292	-0.0038
546.489	-0.0038
546.685	-0.0038
546.881	-0.0038
547.078	-0.0039
547.274	-0.0039
547.47	-0.0038
547.667	-0.0039
547.863	-0.0038
548.059	-0.0038
548.255	-0.0038
548.452	-0.0038
548.648	-0.0038
548.844	-0.0038
549.04	-0.0038
549.237	-0.0037
549.433	-0.0037
549.629	-0.0037
549.825	-0.0037
550.021	-0.0037
550.217	-0.0036
550.414	-0.0037
550.61	-0.0037
550.806	-0.0037
551.002	-0.0036
551.198	-0.0036
551.394	-0.0035
551.59	-0.0036
551.786	-0.0035
551.982	-0.0035
552.178	-0.0035
552.374	-0.0035
552.57	-0.0035
552.766	-0.0035
552.962	-0.0035
553.158	-0.0035
553.354	-0.0035
553.55	-0.0035
553.746	-0.0035
553.941	-0.0035
554.137	-0.0035
554.333	-0.0035
554.529	-0.0036
554.725	-0.0036
554.921	-0.0036
555.116	-0.0036
555.312	-0.0036
555.508	-0.0036
555.704	-0.0036
555.9	-0.0036
556.095	-0.0036
556.291	-0.0036
556.487	-0.0037
556.682	-0.0037
556.878	-0.0037
557.074	-0.0038
557.27	-0.0039
557.465	-0.0039
557.661	-0.004
557.856	-0.004
558.052	-0.004
558.248	-0.0041
558.443	-0.0041
558.639	-0.0042
558.834	-0.0043
559.03	-0.0043
559.225	-0.0043
559.421	-0.0042
559.616	-0.0043
559.812	-0.0042
560.007	-0.0043
560.203	-0.0043
560.398	-0.0043
560.594	-0.0043
560.789	-0.0043
560.985	-0.0043
561.18	-0.0043
561.375	-0.0043
561.571	-0.0042
561.766	-0.0042
561.962	-0.0042
562.157	-0.0042
562.352	-0.0042
562.548	-0.0041
562.743	-0.0041
562.938	-0.0041
563.133	-0.004
563.329	-0.004
563.524	-0.0039
563.719	-0.0039
563.914	-0.0038
564.11	-0.0038
564.305	-0.0037
564.5	-0.0037
564.695	-0.0036
564.89	-0.0036
565.085	-0.0036
565.28	-0.0035
565.476	-0.0035
565.671	-0.0035
565.866	-0.0035
566.061	-0.0036
566.256	-0.0036
566.451	-0.0036
566.646	-0.0036
566.841	-0.0036
567.036	-0.0036
567.231	-0.0037
567.426	-0.0037
567.621	-0.0037
567.816	-0.0037
568.011	-0.0037
568.206	-0.0037
568.401	-0.0037
568.596	-0.0038
568.791	-0.0038
568.985	-0.0038
569.18	-0.0038
569.375	-0.0038
569.57	-0.0038
569.765	-0.0039
569.96	-0.0038
570.154	-0.0039
570.349	-0.0039
570.544	-0.0039
570.739	-0.0039
570.933	-0.0039
571.128	-0.0039
571.323	-0.004
571.518	-0.004
571.712	-0.0039
571.907	-0.0039
572.102	-0.0039
572.296	-0.0039
572.491	-0.0039
572.686	-0.0039
572.88	-0.0039
573.075	-0.0039
573.269	-0.0039
573.464	-0.0039
573.658	-0.0039
573.853	-0.0039
574.047	-0.0039
574.242	-0.0039
574.437	-0.0039
574.631	-0.0039
574.825	-0.0039
575.02	-0.0039
575.214	-0.0039
575.409	-0.0039
575.603	-0.0039
575.798	-0.0039
575.992	-0.0039
576.186	-0.0038
576.381	-0.0038
576.575	-0.0038
576.77	-0.0038
576.964	-0.0038
577.158	-0.0038
577.352	-0.0038
577.547	-0.0038
577.741	-0.0039
577.935	-0.0039
578.13	-0.0037
578.324	-0.0036
578.518	-0.0034
578.712	-0.0033
578.906	-0.0031
579.101	-0.003
579.295	-0.0028
579.489	-0.0028
579.683	-0.0028
579.877	-0.0028
580.071	-0.0028
580.265	-0.0028
580.459	-0.0028
580.654	-0.0028
580.848	-0.0027
581.042	-0.0027
581.236	-0.0027
581.43	-0.0027
581.624	-0.0027
581.818	-0.0027
582.012	-0.0026
582.206	-0.0026
582.4	-0.0026
582.594	-0.0026
582.787	-0.0026
582.981	-0.0026
583.175	-0.0025
583.369	-0.0025
583.563	-0.0025
583.757	-0.0024
583.951	-0.0024
584.145	-0.0025
584.338	-0.0026
584.532	-0.0027
584.726	-0.0029
584.92	-0.003
585.114	-0.0032
585.307	-0.0033
585.501	-0.0033
585.695	-0.0032
585.888	-0.0032
586.082	-0.0032
586.276	-0.0031
586.47	-0.0031
586.663	-0.0031
586.857	-0.0032
587.05	-0.0032
587.244	-0.0031
587.438	-0.0031
587.631	-0.0031
587.825	-0.0032
588.018	-0.0032
588.212	-0.0032
588.405	-0.0033
588.599	-0.0033
588.792	-0.0033
588.986	-0.0033
589.179	-0.0033
589.373	-0.0033
589.566	-0.0033
589.76	-0.0033
589.953	-0.0033
590.147	-0.0034
590.34	-0.0034
590.533	-0.0034
590.727	-0.0034
590.92	-0.0034
591.114	-0.0034
591.307	-0.0034
591.5	-0.0034
591.693	-0.0035
591.887	-0.0035
592.08	-0.0036
592.273	-0.0036
592.467	-0.0036
592.66	-0.0036
592.853	-0.0036
593.046	-0.0036
593.239	-0.0036
593.433	-0.0036
593.626	-0.0036
593.819	-0.0037
594.012	-0.0037
594.205	-0.0037
594.398	-0.0037
594.591	-0.0038
594.784	-0.0038
594.977	-0.0039
595.171	-0.004
595.364	-0.004
595.557	-0.0041
595.75	-0.0041
595.943	-0.0042
596.136	-0.0042
596.329	-0.0043
596.522	-0.0043
596.715	-0.0043
596.907	-0.0043
597.1	-0.0044
597.293	-0.0044
597.486	-0.0044
597.679	-0.0044
597.872	-0.0044
598.065	-0.0045
598.258	-0.0044
598.45	-0.0045
598.643	-0.0045
598.836	-0.0045
599.029	-0.0044
599.222	-0.0044
599.414	-0.0044
599.607	-0.0044
599.8	-0.0043
599.992	-0.0042
600.185	-0.0042
600.378	-0.0041
600.571	-0.0041
600.763	-0.0041
600.956	-0.004
601.148	-0.004
601.341	-0.004
601.534	-0.004
601.726	-0.0039
601.919	-0.0039
602.111	-0.0039
602.304	-0.0039
602.496	-0.0039
602.689	-0.0039
602.881	-0.004
603.074	-0.0039
603.266	-0.0039
603.459	-0.0039
603.651	-0.0039
603.844	-0.0039
604.036	-0.0039
604.229	-0.0039
604.421	-0.0039
604.613	-0.0039
604.806	-0.0039
604.998	-0.004
605.19	-0.004
605.383	-0.004
605.575	-0.0041
605.767	-0.0042
605.96	-0.0042
606.152	-0.0043
606.344	-0.0043
606.536	-0.0043
606.729	-0.0043
606.921	-0.0043
607.113	-0.0043
607.305	-0.0043
607.497	-0.0043
607.69	-0.0043
607.882	-0.0043
608.074	-0.0042
608.266	-0.0042
608.458	-0.0041
608.65	-0.0041
608.842	-0.0041
609.034	-0.0041
609.226	-0.0041
609.418	-0.004
609.61	-0.004
609.802	-0.004
609.994	-0.0039
610.186	-0.0039
610.378	-0.0039
610.57	-0.0039
610.762	-0.0039
610.954	-0.0039
611.146	-0.0039
611.338	-0.0039
611.53	-0.0039
611.722	-0.0039
611.913	-0.0039
612.105	-0.0038
612.297	-0.0038
612.489	-0.0039
612.681	-0.0039
612.873	-0.0039
613.064	-0.004
613.256	-0.004
613.448	-0.0041
613.639	-0.0041
613.831	-0.0041
614.023	-0.0041
614.215	-0.0041
614.406	-0.0041
614.598	-0.0041
614.79	-0.0041
614.981	-0.0042
615.173	-0.0041
615.364	-0.0041
615.556	-0.0042
615.748	-0.0041
615.939	-0.0042
616.131	-0.0042
616.322	-0.0042
616.514	-0.0042
616.705	-0.0042
616.897	-0.0042
617.088	-0.0041
617.28	-0.0041
617.471	-0.0041
617.662	-0.004
617.854	-0.0039
618.045	-0.0039
618.237	-0.0038
618.428	-0.0037
618.619	-0.0037
618.811	-0.0036
619.002	-0.0035
619.193	-0.0035
619.385	-0.0035
619.576	-0.0036
619.767	-0.0036
619.958	-0.0037
620.15	-0.0038
620.341	-0.0039
620.532	-0.0039
620.723	-0.0039
620.914	-0.0039
621.106	-0.004
621.297	-0.004
621.488	-0.004
621.679	-0.004
621.87	-0.004
622.061	-0.0041
622.252	-0.0041
622.443	-0.0041
622.635	-0.0041
622.826	-0.0042
623.017	-0.0042
623.208	-0.0042
623.399	-0.0043
623.59	-0.0044
623.781	-0.0044
623.972	-0.0044
624.162	-0.0045
624.353	-0.0045
624.544	-0.0046
624.735	-0.0046
624.926	-0.0047
625.117	-0.0047
625.308	-0.0047
625.499	-0.0047
625.69	-0.0046
625.88	-0.0046
626.071	-0.0046
626.262	-0.0045
626.453	-0.0045
626.643	-0.0045
626.834	-0.0045
627.025	-0.0045
627.216	-0.0045
627.406	-0.0045
627.597	-0.0045
627.788	-0.0045
627.978	-0.0045
628.169	-0.0044
628.36	-0.0044
628.55	-0.0044
628.741	-0.0043
628.931	-0.0043
629.122	-0.0043
629.313	-0.0043
629.503	-0.0043
629.694	-0.0043
629.884	-0.0043
630.075	-0.0043
630.265	-0.0043
630.456	-0.0044
630.646	-0.0043
630.837	-0.0043
631.027	-0.0043
631.217	-0.0043
631.408	-0.0044
631.598	-0.0044
631.789	-0.0044
631.979	-0.0044
632.169	-0.0043
632.36	-0.0043
632.55	-0.0043
632.74	-0.0042
632.93	-0.0043
633.121	-0.0043
633.311	-0.0043
633.501	-0.0043
633.691	-0.0043
633.882	-0.0043
634.072	-0.0044
634.262	-0.0044
634.452	-0.0044
634.642	-0.0045
634.833	-0.0045
635.023	-0.0046
635.213	-0.0046
635.403	-0.0046
635.593	-0.0046
635.783	-0.0046
635.973	-0.0046
636.163	-0.0045
636.353	-0.0045
636.543	-0.0045
636.733	-0.0045
636.923	-0.0045
637.113	-0.0045
637.303	-0.0045
637.493	-0.0044
637.683	-0.0044
637.873	-0.0044
638.063	-0.0044
638.253	-0.0044
638.442	-0.0044
638.632	-0.0045
638.822	-0.0045
639.012	-0.0045
639.202	-0.0045
639.392	-0.0045
639.581	-0.0046
639.771	-0.0045
639.961	-0.0045
640.151	-0.0045
640.34	-0.0045
640.53	-0.0045
640.72	-0.0044
640.909	-0.0044
641.099	-0.0044
641.289	-0.0044
641.478	-0.0045
641.668	-0.0045
641.858	-0.0045
642.047	-0.0045
642.237	-0.0045
642.426	-0.0045
642.616	-0.0044
642.805	-0.0044
642.995	-0.0044
643.184	-0.0044
643.374	-0.0044
643.563	-0.0044
643.753	-0.0043
643.942	-0.0044
644.132	-0.0044
644.321	-0.0044
644.51	-0.0043
644.7	-0.0043
644.889	-0.0043
645.079	-0.0042
645.268	-0.0042
645.457	-0.0042
645.647	-0.0043
645.836	-0.0043
646.025	-0.0042
646.214	-0.0042
646.404	-0.0043
646.593	-0.0043
646.782	-0.0043
646.971	-0.0042
647.161	-0.0043
647.35	-0.0043
647.539	-0.0043
647.728	-0.0042
647.917	-0.0042
648.106	-0.0042
648.295	-0.0041
648.485	-0.0041
648.674	-0.0041
648.863	-0.004
649.052	-0.004
649.241	-0.0039
649.43	-0.0038
649.619	-0.0039
649.808	-0.0039
649.997	-0.0039
650.186	-0.0039
650.375	-0.004
650.564	-0.004
650.752	-0.004
650.941	-0.004
651.13	-0.004
651.319	-0.004
651.508	-0.004
651.697	-0.0041
651.886	-0.0042
652.074	-0.0042
652.263	-0.0039
652.452	-0.0035
652.641	-0.0032
652.83	-0.003
653.018	-0.0027
653.207	-0.0025
653.396	-0.0023
653.584	-0.0021
653.773	-0.0019
653.962	-0.0018
654.15	-0.0017
654.339	-0.0016
654.528	-0.0015
654.716	-0.0014
654.905	-0.0013
655.093	-0.0012
655.282	-0.0011
655.471	-0.001
655.659	-0.0009
655.848	-0.0008
656.036	-0.0007
656.225	-0.0006
656.413	-0.0006
656.602	-0.0005
656.79	-0.0004
656.978	-0.0004
657.167	-0.0003
657.355	-0.0002
657.544	-0.0002
657.732	-0.0001
657.92	-0
658.109	-0
658.297	-0
658.485	-0
658.674	-0
658.862	-0.0001
659.05	-0.0002
659.238	-0.0002
659.427	-0.0002
659.615	-0.0003
659.803	-0.0004
659.991	-0.0004
660.179	-0.0005
660.368	-0.0006
660.556	-0.0006
660.744	-0.0007
660.932	-0.0008
661.12	-0.0009
661.308	-0.0009
661.496	-0.001
661.684	-0.0011
661.872	-0.0012
662.06	-0.0013
662.248	-0.0015
662.436	-0.0016
662.624	-0.0018
662.812	-0.0019
663	-0.0021
663.188	-0.0023
663.376	-0.0025
663.564	-0.0027
663.752	-0.003
663.94	-0.0032
664.128	-0.0035
664.315	-0.0038
664.503	-0.0042
664.691	-0.004
664.879	-0.0041
665.067	-0.0041
665.255	-0.0041
665.442	-0.0041
665.63	-0.0041
665.818	-0.004
666.005	-0.004
666.193	-0.004
666.381	-0.0041
666.568	-0.0041
666.756	-0.004
666.944	-0.0039
667.131	-0.0039
667.319	-0.0038
667.507	-0.0038
667.694	-0.0038
667.882	-0.0038
668.069	-0.0038
668.257	-0.0038
668.444	-0.0038
668.632	-0.0038
668.819	-0.0038
669.007	-0.0038
669.194	-0.0038
669.382	-0.0037
669.569	-0.0038
669.757	-0.0038
669.944	-0.0038
670.131	-0.0038
670.319	-0.0039
670.506	-0.0039
670.693	-0.0039
670.881	-0.0038
671.068	-0.0038
671.255	-0.0039
671.443	-0.0039
671.63	-0.004
671.817	-0.004
672.004	-0.0039
672.191	-0.0039
672.379	-0.004
672.566	-0.0041
672.753	-0.0041
672.94	-0.0042
673.127	-0.0042
673.314	-0.0043
673.502	-0.0043
673.689	-0.0043
673.876	-0.0043
674.063	-0.0043
674.25	-0.0043
674.437	-0.0042
674.624	-0.0042
674.811	-0.0041
674.998	-0.004
675.185	-0.004
675.372	-0.0039
675.559	-0.0039
675.746	-0.0039
675.933	-0.0039
676.119	-0.0038
676.306	-0.0038
676.493	-0.0038
676.68	-0.0038
676.867	-0.0038
677.054	-0.0038
677.241	-0.0038
677.427	-0.0038
677.614	-0.0037
677.801	-0.0037
677.988	-0.0036
678.174	-0.0034
678.361	-0.0034
678.548	-0.0034
678.734	-0.0034
678.921	-0.0033
679.108	-0.0032
679.294	-0.0032
679.481	-0.0031
679.668	-0.0031
679.854	-0.0031
680.041	-0.0031
680.227	-0.0031
680.414	-0.0032
680.6	-0.0033
680.787	-0.0033
680.973	-0.0034
681.16	-0.0034
681.346	-0.0034
681.533	-0.0034
681.719	-0.0033
681.906	-0.0033
682.092	-0.0033
682.278	-0.0033
682.465	-0.0033
682.651	-0.0032
682.838	-0.0032
683.024	-0.0031
683.21	-0.0031
683.396	-0.0032
683.583	-0.0032
683.769	-0.0032
683.955	-0.0034
684.142	-0.0034
684.328	-0.0034
684.514	-0.0034
684.7	-0.0035
684.886	-0.0035
685.073	-0.0035
685.259	-0.0035
685.445	-0.0035
685.631	-0.0036
685.817	-0.0036
686.003	-0.0036
686.189	-0.0036
686.375	-0.0035
686.561	-0.0035
686.747	-0.0036
686.933	-0.0037
687.119	-0.0037
687.305	-0.0037
687.491	-0.0037
687.677	-0.0038
687.863	-0.0038
688.049	-0.0038
688.235	-0.0038
688.421	-0.0039
688.607	-0.004
688.793	-0.0041
688.978	-0.0041
689.164	-0.0042
689.35	-0.0043
689.536	-0.0043
689.722	-0.0043
689.907	-0.0043
690.093	-0.0043
690.279	-0.0044
690.465	-0.0044
690.65	-0.0044
690.836	-0.0044
691.022	-0.0045
691.207	-0.0045
691.393	-0.0045
691.578	-0.0046
691.764	-0.0046
691.95	-0.0047
692.135	-0.0048
692.321	-0.0048
692.506	-0.0049
692.692	-0.0048
692.877	-0.0049
693.063	-0.0048
693.248	-0.0048
693.434	-0.0048
693.619	-0.0048
693.805	-0.0048
693.99	-0.0048
694.176	-0.0048
694.361	-0.0047
694.546	-0.0046
694.732	-0.0046
694.917	-0.0046
695.102	-0.0045
695.288	-0.0045
695.473	-0.0045
695.658	-0.0045
695.843	-0.0045
696.029	-0.0044
696.214	-0.0044
696.399	-0.0044
696.584	-0.0044
696.77	-0.0043
696.955	-0.0043
697.14	-0.0043
697.325	-0.0042
697.51	-0.0042
697.695	-0.0041
697.88	-0.0042
698.065	-0.0042
698.251	-0.0042
698.436	-0.0042
698.621	-0.0041
698.806	-0.0042
698.991	-0.0042
699.176	-0.0043
699.361	-0.0043
699.546	-0.0044
699.73	-0.0044
699.915	-0.0044
700.1	-0.0045
700.285	-0.0044
700.47	-0.0044
700.655	-0.0044
700.84	-0.0044
701.025	-0.0045
701.209	-0.0044
701.394	-0.0044
701.579	-0.0044
701.764	-0.0045
701.948	-0.0045
702.133	-0.0045
702.318	-0.0045
702.503	-0.0045
702.687	-0.0045
702.872	-0.0045
703.057	-0.0045
703.241	-0.0044
703.426	-0.0043
703.61	-0.0042
703.795	-0.004
703.98	-0.004
704.164	-0.004
704.349	-0.0039
704.533	-0.0039
704.718	-0.0039
704.902	-0.0038
705.087	-0.0037
705.271	-0.0036
705.456	-0.0036
705.64	-0.0035
705.825	-0.0035
706.009	-0.0035
706.193	-0.0034
706.378	-0.0034
706.562	-0.0035
706.746	-0.0034
706.931	-0.0034
707.115	-0.0035
707.299	-0.0034
707.484	-0.0033
707.668	-0.0032
707.852	-0.0032
708.036	-0.0032
708.221	-0.0032
708.405	-0.0031
708.589	-0.0031
708.773	-0.0031
708.957	-0.0031
709.141	-0.0032
709.326	-0.0033
709.51	-0.0034
709.694	-0.0035
709.878	-0.0036
710.062	-0.0036
710.246	-0.0037
710.43	-0.0037
710.614	-0.0038
710.798	-0.0039
710.982	-0.004
711.166	-0.004
711.35	-0.0041
711.534	-0.0042
711.718	-0.0043
711.902	-0.0043
712.085	-0.0043
712.269	-0.0042
712.453	-0.0042
712.637	-0.0042
712.821	-0.0042
713.005	-0.0042
713.188	-0.0043
713.372	-0.0043
713.556	-0.0043
713.74	-0.0043
713.923	-0.0044
714.107	-0.0045
714.291	-0.0045
714.474	-0.0046
714.658	-0.0046
714.842	-0.0046
715.025	-0.0045
715.209	-0.0043
715.393	-0.0042
715.576	-0.0041
715.76	-0.004
715.943	-0.004
716.127	-0.004
716.31	-0.0041
716.494	-0.004
716.677	-0.004
716.861	-0.004
717.044	-0.0039
717.228	-0.0038
717.411	-0.0038
717.594	-0.0039
717.778	-0.004
717.961	-0.0041
718.145	-0.0041
718.328	-0.0041
718.511	-0.0041
718.695	-0.0041
718.878	-0.0041
719.061	-0.0041
719.244	-0.004
719.428	-0.004
719.611	-0.004
719.794	-0.004
719.977	-0.004
720.16	-0.0039
720.344	-0.0039
720.527	-0.0039
720.71	-0.004
720.893	-0.004
721.076	-0.004
721.259	-0.0041
721.442	-0.0042
721.625	-0.0041
721.808	-0.0041
721.991	-0.0041
722.174	-0.0041
722.357	-0.0041
722.54	-0.0042
722.723	-0.0042
722.906	-0.0042
723.089	-0.0041
723.272	-0.0039
723.455	-0.0038
723.638	-0.0037
723.821	-0.0036
724.003	-0.0037
724.186	-0.0037
724.369	-0.0037
724.552	-0.0037
724.735	-0.0038
724.917	-0.0039
725.1	-0.0039
725.283	-0.0038
725.466	-0.0038
725.648	-0.0038
725.831	-0.0037
726.014	-0.0037
726.196	-0.0036
726.379	-0.0036
726.562	-0.0036
726.744	-0.0036
726.927	-0.0036
727.109	-0.0037
727.292	-0.0037
727.474	-0.0038
727.657	-0.0038
727.839	-0.0038
728.022	-0.0038
728.204	-0.0037
728.387	-0.0037
728.569	-0.0037
728.752	-0.0038
728.934	-0.0039
729.116	-0.004
729.299	-0.004
729.481	-0.004
729.664	-0.004
729.846	-0.0041
730.028	-0.004
730.21	-0.004
730.393	-0.0039
730.575	-0.0039
730.757	-0.0039
730.939	-0.0039
731.122	-0.0039
731.304	-0.004
731.486	-0.0041
731.668	-0.0042
731.85	-0.0042
732.032	-0.0042
732.215	-0.0042
732.397	-0.0041
732.579	-0.004
732.761	-0.0039
732.943	-0.0038
733.125	-0.0037
733.307	-0.0037
733.489	-0.0037
733.671	-0.0037
733.853	-0.0037
734.035	-0.0036
734.217	-0.0036
734.399	-0.0036
734.581	-0.0036
734.762	-0.0036
734.944	-0.0036
735.126	-0.0036
735.308	-0.0035
735.49	-0.0035
735.672	-0.0035
735.853	-0.0035
736.035	-0.0035
736.217	-0.0036
736.399	-0.0036
736.58	-0.0036
736.762	-0.0036
736.944	-0.0036
737.126	-0.0035
737.307	-0.0035
737.489	-0.0035
737.67	-0.0036
737.852	-0.0036
738.034	-0.0036
738.215	-0.0037
738.397	-0.0037
738.578	-0.0037
738.76	-0.0037
738.941	-0.0037
739.123	-0.0037
739.304	-0.0037
739.486	-0.0037
739.667	-0.0037
739.849	-0.0036
740.03	-0.0036
740.211	-0.0036
740.393	-0.0037
740.574	-0.0036
740.756	-0.0036
740.937	-0.0036
741.118	-0.0037
741.299	-0.0037
741.481	-0.0037
741.662	-0.0037
741.843	-0.0036
742.025	-0.0035
742.206	-0.0035
742.387	-0.0035
742.568	-0.0035
742.749	-0.0035
742.93	-0.0035
743.112	-0.0035
743.293	-0.0035
743.474	-0.0035
743.655	-0.0036
743.836	-0.0036
744.017	-0.0036
744.198	-0.0036
744.379	-0.0036
744.56	-0.0037
744.741	-0.0036
744.922	-0.0037
745.103	-0.0036
745.284	-0.0036
745.465	-0.0036
745.646	-0.0035
745.827	-0.0035
746.007	-0.0035
746.188	-0.0035
746.369	-0.0035
746.55	-0.0035
746.731	-0.0035
746.911	-0.0036
747.092	-0.0036
747.273	-0.0037
747.454	-0.0037
747.634	-0.0036
747.815	-0.0036
747.996	-0.0036
748.177	-0.0035
748.357	-0.0035
748.538	-0.0034
748.718	-0.0033
748.899	-0.0033
749.08	-0.0033
749.26	-0.0032
749.441	-0.0032
749.621	-0.0031
749.802	-0.0031
749.982	-0.0031
750.163	-0.0031
750.343	-0.0031
750.524	-0.0031
750.704	-0.0032
750.885	-0.0032
751.065	-0.0033
751.245	-0.0034
751.426	-0.0034
751.606	-0.0034
751.786	-0.0035
751.967	-0.0036
752.147	-0.0036
752.327	-0.0035
752.508	-0.0035
752.688	-0.0035
752.868	-0.0035
753.048	-0.0035
753.229	-0.0036
753.409	-0.0037
753.589	-0.0038
753.769	-0.0038
753.949	-0.0038
754.129	-0.0039
754.309	-0.0039
754.489	-0.004
754.67	-0.004
754.85	-0.004
755.03	-0.0039
755.21	-0.004
755.39	-0.004
755.57	-0.004
755.75	-0.004
755.93	-0.004
756.11	-0.004
756.289	-0.004
756.469	-0.004
756.649	-0.004
756.829	-0.0041
757.009	-0.0041
757.189	-0.0041
757.369	-0.0042
757.548	-0.0041
757.728	-0.0041
757.908	-0.0041
758.088	-0.0042
758.267	-0.0043
758.447	-0.0044
758.627	-0.0045
758.807	-0.0046
758.986	-0.0046
759.166	-0.0045
759.346	-0.0045
759.525	-0.0045
759.705	-0.0045
759.884	-0.0044
760.064	-0.0044
760.243	-0.0044
760.423	-0.0045
760.603	-0.0046
760.782	-0.0046
760.962	-0.0045
761.141	-0.0045
761.32	-0.0044
761.5	-0.0044
761.679	-0.0044
761.859	-0.0044
762.038	-0.0043
762.217	-0.0042
762.397	-0.0041
762.576	-0.004
762.755	-0.0039
762.935	-0.0039
763.114	-0.0038
763.293	-0.0038
763.473	-0.0037
763.652	-0.0036
763.831	-0.0034
764.01	-0.0032
764.189	-0.0031
764.369	-0.0031
764.548	-0.003
764.727	-0.003
764.906	-0.003
765.085	-0.0031
765.264	-0.0032
765.443	-0.0033
765.622	-0.0034
765.801	-0.0034
765.98	-0.0034
766.159	-0.0035
766.338	-0.0036
766.517	-0.0037
766.696	-0.0038
766.875	-0.0039
767.054	-0.004
767.233	-0.004
767.412	-0.004
767.591	-0.004
767.769	-0.0041
767.948	-0.0042
768.127	-0.0042
768.306	-0.0043
768.485	-0.0043
768.663	-0.0044
768.842	-0.0044
769.021	-0.0044
769.2	-0.0045
769.378	-0.0045
769.557	-0.0045
769.736	-0.0045
769.914	-0.0044
770.093	-0.0044
770.271	-0.0044
770.45	-0.0043
770.629	-0.0041
770.807	-0.004
770.986	-0.0039
771.164	-0.0038
771.343	-0.0038
771.521	-0.0037
771.7	-0.0035
771.878	-0.0034
772.057	-0.0033
772.235	-0.0033
772.413	-0.0033
772.592	-0.0033
772.77	-0.0032
772.948	-0.0032
773.127	-0.0032
773.305	-0.0031
773.483	-0.0031
773.662	-0.0031
773.84	-0.0031
774.018	-0.003
774.196	-0.003
774.375	-0.003
774.553	-0.003
774.731	-0.0031
774.909	-0.0031
775.087	-0.0031
775.265	-0.0031
775.444	-0.0031
775.622	-0.0031
775.8	-0.0031
775.978	-0.0032
776.156	-0.0033
776.334	-0.0033
776.512	-0.0034
776.69	-0.0036
776.868	-0.0036
777.046	-0.0036
777.224	-0.0037
777.402	-0.0038
777.58	-0.0039
777.757	-0.004
777.935	-0.0039
778.113	-0.0039
778.291	-0.0039
778.469	-0.004
778.647	-0.0041
778.824	-0.0041
779.002	-0.0042
779.18	-0.0042
779.358	-0.0042
779.535	-0.0043
779.713	-0.0044
779.891	-0.0044
780.068	-0.0045
780.246	-0.0045
780.424	-0.0044
780.601	-0.0044
780.779	-0.0044
780.957	-0.0045
781.134	-0.0045
781.312	-0.0045
781.489	-0.0045
781.667	-0.0045
781.844	-0.0044
782.022	-0.0043
782.199	-0.0042
782.377	-0.0042
782.554	-0.0042
782.731	-0.0042
782.909	-0.0042
783.086	-0.0042
783.264	-0.0041
783.441	-0.0042
783.618	-0.0042
783.795	-0.0041
783.973	-0.0041
784.15	-0.0041
784.327	-0.004
784.505	-0.004
784.682	-0.0039
784.859	-0.0039
785.036	-0.0038
785.213	-0.0037
785.39	-0.0036
785.568	-0.0035
785.745	-0.0034
785.922	-0.0035
786.099	-0.0035
786.276	-0.0035
786.453	-0.0035
786.63	-0.0036
786.807	-0.0037
786.984	-0.0038
787.161	-0.004
787.338	-0.0041
787.515	-0.0042
787.692	-0.0042
787.869	-0.0042
788.046	-0.0042
788.222	-0.0042
788.399	-0.0041
788.576	-0.0041
788.753	-0.004
788.93	-0.0041
789.107	-0.0041
789.283	-0.0041
789.46	-0.0041
789.637	-0.0042
789.814	-0.0043
789.99	-0.0044
790.167	-0.0045
790.344	-0.0047
790.52	-0.0048
790.697	-0.0047
790.873	-0.0047
791.05	-0.0047
791.227	-0.0046
791.403	-0.0046
791.58	-0.0046
791.756	-0.0045
791.933	-0.0045
792.109	-0.0043
792.286	-0.0042
792.462	-0.0041
792.639	-0.004
792.815	-0.0039
792.991	-0.0039
793.168	-0.0039
793.344	-0.0039
793.521	-0.0039
793.697	-0.0039
793.873	-0.0039
794.049	-0.004
794.226	-0.0041
794.402	-0.004
794.578	-0.0039
794.754	-0.0039
794.931	-0.0039
795.107	-0.0038
795.283	-0.0038
795.459	-0.0036
795.635	-0.0036
795.811	-0.0034
795.988	-0.0034
796.164	-0.0034
796.34	-0.0035
796.516	-0.0036
796.692	-0.0038
796.868	-0.0039
797.044	-0.0039
797.22	-0.0041
797.396	-0.0042
797.572	-0.0044
797.748	-0.0045
797.924	-0.0046
798.099	-0.0046
798.275	-0.0046
798.451	-0.0046
798.627	-0.0045
798.803	-0.0045
798.979	-0.0045
799.154	-0.0044
799.33	-0.0044
799.506	-0.0044
799.682	-0.0043
799.857	-0.0044
800.033	-0.0046
800.209	-0.0046
800.385	-0.0046
800.56	-0.0046
800.736	-0.0046
800.911	-0.0045
801.087	-0.0044
801.263	-0.0044
801.438	-0.0043
801.614	-0.0043
801.789	-0.0041
801.965	-0.004
802.14	-0.0039
802.316	-0.0039
802.491	-0.0039
802.667	-0.0038
802.842	-0.0037
803.017	-0.0036
803.193	-0.0035
803.368	-0.0035
803.543	-0.0034
803.719	-0.0035
803.894	-0.0036
804.069	-0.0036
804.245	-0.0037
804.42	-0.0038
804.595	-0.0038
804.77	-0.0039
804.946	-0.0039
805.121	-0.004
805.296	-0.0039
805.471	-0.0037
805.646	-0.0036
805.821	-0.0036
805.997	-0.0036
806.172	-0.0036
806.347	-0.0036
806.522	-0.0037
806.697	-0.0038
806.872	-0.004
807.047	-0.004
807.222	-0.0041
807.397	-0.0043
807.572	-0.0044
807.747	-0.0045
807.921	-0.0045
808.096	-0.0046
808.271	-0.0046
808.446	-0.0047
808.621	-0.0046
808.796	-0.0046
808.971	-0.0045
809.145	-0.0045
809.32	-0.0045
809.495	-0.0046
809.67	-0.0046
809.844	-0.0046
810.019	-0.0047
810.194	-0.0046
810.368	-0.0045
810.543	-0.0045
810.718	-0.0044
810.892	-0.0045
811.067	-0.0046
811.241	-0.0046
811.416	-0.0046
811.59	-0.0047
811.765	-0.0047
811.939	-0.0046
812.114	-0.0045
812.288	-0.0045
812.463	-0.0044
812.637	-0.0044
812.812	-0.0042
812.986	-0.0042
813.16	-0.0042
813.335	-0.0042
813.509	-0.0041
813.683	-0.0041
813.858	-0.0041
814.032	-0.0042
814.206	-0.0042
814.381	-0.0043
814.555	-0.0044
814.729	-0.0043
814.903	-0.0042
815.077	-0.0041
815.252	-0.0039
815.426	-0.0038
815.6	-0.0037
815.774	-0.0037
815.948	-0.0038
816.122	-0.0038
816.296	-0.0038
816.47	-0.0038
816.644	-0.0038
816.818	-0.0038
816.992	-0.0038
817.166	-0.0038
817.34	-0.0039
817.514	-0.0039
817.688	-0.0039
817.862	-0.0038
818.036	-0.0038
818.209	-0.0038
818.383	-0.0037
818.557	-0.0037
818.731	-0.0036
818.905	-0.0037
819.078	-0.0038
819.252	-0.0039
819.426	-0.004
819.6	-0.0041
819.773	-0.0041
819.947	-0.0041
820.121	-0.0041
820.294	-0.0042
820.468	-0.0043
820.642	-0.0044
820.815	-0.0044
820.989	-0.0045
821.162	-0.0046
821.336	-0.0047
821.509	-0.0047
821.683	-0.0048
821.856	-0.0048
822.03	-0.0048
822.203	-0.0048
822.377	-0.0047
822.55	-0.0047
822.723	-0.0046
822.897	-0.0045
823.07	-0.0045
823.243	-0.0046
823.417	-0.0045
823.59	-0.0046
823.763	-0.0047
823.937	-0.0047
824.11	-0.0047
824.283	-0.0047
824.456	-0.0046
824.629	-0.0046
824.803	-0.0045
824.976	-0.0045
825.149	-0.0045
825.322	-0.0044
825.495	-0.0043
825.668	-0.0044
825.841	-0.0043
826.014	-0.0043
826.187	-0.0042
826.36	-0.0041
826.533	-0.0039
826.706	-0.0037
826.879	-0.0036
827.052	-0.0035
827.225	-0.0035
827.398	-0.0036
827.571	-0.0037
827.744	-0.0037
827.917	-0.0038
828.089	-0.0038
828.262	-0.004
828.435	-0.0039
828.608	-0.0039
828.781	-0.0039
828.953	-0.0039
829.126	-0.0038
829.299	-0.0038
829.471	-0.0039
829.644	-0.0039
829.817	-0.0039
829.989	-0.0039
830.162	-0.0039
830.335	-0.0037
830.507	-0.0037
830.68	-0.0037
830.852	-0.0038
831.025	-0.0038
831.197	-0.0039
831.37	-0.0039
831.542	-0.004
831.715	-0.0039
831.887	-0.0041
832.059	-0.0042
832.232	-0.0042
832.404	-0.0043
832.577	-0.0043
832.749	-0.0042
832.921	-0.0043
833.093	-0.0043
833.266	-0.0043
833.438	-0.0043
833.61	-0.0043
833.782	-0.0044
833.955	-0.0045
834.127	-0.0045
834.299	-0.0044
834.471	-0.0044
834.643	-0.0044
834.815	-0.0044
834.988	-0.0044
835.16	-0.0045
835.332	-0.0046
835.504	-0.0047
835.676	-0.0048
835.848	-0.0049
836.02	-0.0049
836.192	-0.0048
836.364	-0.0048
836.536	-0.0048
836.708	-0.0047
836.879	-0.0047
837.051	-0.0048
837.223	-0.0049
837.395	-0.0049
837.567	-0.0049
837.739	-0.0049
837.91	-0.005
838.082	-0.0051
838.254	-0.0049
838.426	-0.0048
838.597	-0.0048
838.769	-0.0049
838.941	-0.0048
839.112	-0.0047
839.284	-0.0048
839.456	-0.0047
839.627	-0.0047
839.799	-0.0049
839.97	-0.0047
840.142	-0.0047
840.314	-0.0046
840.485	-0.0045
840.657	-0.0044
840.828	-0.0043
840.999	-0.0043
841.171	-0.0043
841.342	-0.0043
841.514	-0.0043
841.685	-0.0043
841.856	-0.0043
842.028	-0.0043
842.199	-0.0043
842.37	-0.0043
842.542	-0.0042
842.713	-0.0042
842.884	-0.0042
843.056	-0.0042
843.227	-0.004
843.398	-0.0039
843.569	-0.0039
843.74	-0.0039
843.911	-0.0039
844.083	-0.0039
844.254	-0.0041
844.425	-0.0041
844.596	-0.0041
844.767	-0.0041
844.938	-0.0041
845.109	-0.0041
845.28	-0.0041
845.451	-0.0041
845.622	-0.0041
845.793	-0.0041
845.964	-0.0043
846.135	-0.0043
846.305	-0.0043
846.476	-0.0042
846.647	-0.0043
846.818	-0.0041
846.989	-0.0041
847.16	-0.0041
847.33	-0.004
847.501	-0.004
847.672	-0.004
847.843	-0.0039
848.013	-0.0039
848.184	-0.0039
848.355	-0.004
848.525	-0.004
848.696	-0.004
848.867	-0.004
849.037	-0.004
849.208	-0.0041
849.378	-0.0039
849.549	-0.0039
849.719	-0.0039
849.89	-0.0038
850.06	-0.0037
850.231	-0.0038
850.401	-0.0036
850.572	-0.0035
850.742	-0.0035
850.912	-0.0034
851.083	-0.0035
851.253	-0.0034
851.423	-0.0034
851.594	-0.0035
851.764	-0.0036
851.934	-0.0037
852.104	-0.0039
852.275	-0.004
852.445	-0.004
852.615	-0.0041
852.785	-0.0042
852.955	-0.0043
853.126	-0.0043
853.296	-0.0043
853.466	-0.0043
853.636	-0.0044
853.806	-0.0045
853.976	-0.0046
854.146	-0.0046
854.316	-0.0046
854.486	-0.0046
854.656	-0.0045
854.826	-0.0045
854.996	-0.0045
855.166	-0.0045
855.336	-0.0047
855.506	-0.0046
855.675	-0.0048
855.845	-0.0049
856.015	-0.005
856.185	-0.005
856.355	-0.0049
856.525	-0.0048
856.694	-0.0046
856.864	-0.0044
857.034	-0.0043
857.203	-0.0042
857.373	-0.004
857.543	-0.0039
857.712	-0.0038
857.882	-0.0037
858.052	-0.0036
858.221	-0.0036
858.391	-0.0035
858.56	-0.0035
858.73	-0.0034
858.899	-0.0031
859.069	-0.0029
859.238	-0.0028
859.408	-0.0026
859.577	-0.0025
859.747	-0.0026
859.916	-0.0028
860.085	-0.0027
860.255	-0.0028
860.424	-0.003
860.593	-0.0031
860.763	-0.0031
860.932	-0.0031
861.101	-0.0034
861.27	-0.0033
861.44	-0.0034
861.609	-0.0034
861.778	-0.0035
861.947	-0.0035
862.116	-0.0036
862.285	-0.0038
862.455	-0.0037
862.624	-0.0037
862.793	-0.0038
862.962	-0.0039
863.131	-0.0042
863.3	-0.0043
863.469	-0.0043
863.638	-0.0045
863.807	-0.0045
863.976	-0.0045
864.145	-0.0046
864.314	-0.0049
864.482	-0.0049
864.651	-0.005
864.82	-0.0051
864.989	-0.0051
865.158	-0.0049
865.327	-0.0049
865.495	-0.0048
865.664	-0.0047
865.833	-0.0046
866.002	-0.0047
866.17	-0.0047
866.339	-0.0044
866.508	-0.0044
866.676	-0.0044
866.845	-0.0043
867.013	-0.0043
867.182	-0.0044
867.351	-0.0044
867.519	-0.0043
867.688	-0.0043
867.856	-0.0044
868.025	-0.0044
868.193	-0.0044
868.362	-0.0042
868.53	-0.004
868.698	-0.004
868.867	-0.004
869.035	-0.0038
869.203	-0.0039
869.372	-0.004
869.54	-0.004
869.708	-0.004
869.877	-0.0042
870.045	-0.0044
870.213	-0.0045
870.381	-0.0046
870.55	-0.0046
870.718	-0.0045
870.886	-0.0046
871.054	-0.0048
871.222	-0.005
871.39	-0.005
871.558	-0.0049
871.727	-0.0049
871.895	-0.0049
872.063	-0.005
872.231	-0.0051
872.399	-0.0052
872.567	-0.0052
872.735	-0.0053
872.902	-0.0054
873.07	-0.0054
873.238	-0.0055
873.406	-0.0056
873.574	-0.0058
873.742	-0.0059
873.91	-0.0059
874.077	-0.0059
874.245	-0.006
874.413	-0.006
874.581	-0.0059
874.749	-0.0057
874.916	-0.0057
875.084	-0.0056
875.252	-0.0053
875.419	-0.0052
875.587	-0.0052
875.754	-0.0054
875.922	-0.0055
876.09	-0.0055
876.257	-0.0055
876.425	-0.0052
876.592	-0.0052
876.76	-0.0055
876.927	-0.0056
877.095	-0.0057
877.262	-0.0056
877.43	-0.0055
877.597	-0.0055
877.764	-0.0055
877.932	-0.0055
878.099	-0.0053
878.266	-0.0053
878.434	-0.0052
878.601	-0.0049
878.768	-0.0046
878.935	-0.0045
879.103	-0.0043
879.27	-0.0044
879.437	-0.0044
879.604	-0.0042
879.771	-0.0044
879.939	-0.0046
880.106	-0.0045
880.273	-0.0045
880.44	-0.0045
880.607	-0.0044
880.774	-0.0044
880.941	-0.0043
881.108	-0.0044
881.275	-0.0044
881.442	-0.0042
881.609	-0.0043
881.776	-0.0043
881.943	-0.0042
882.11	-0.0043
882.276	-0.0043
882.443	-0.0044
882.61	-0.0044
882.777	-0.0044
882.944	-0.0046
883.11	-0.0047
883.277	-0.0049
883.444	-0.0049
883.611	-0.0049
883.777	-0.0049
883.944	-0.0051
884.111	-0.0052
884.277	-0.0053
884.444	-0.0051
884.61	-0.0053
884.777	-0.0055
884.944	-0.0055
885.11	-0.0054
885.277	-0.0055
885.443	-0.0056
885.61	-0.0057
885.776	-0.006
885.942	-0.0063
886.109	-0.0064
886.275	-0.0063
886.442	-0.0063
