Parameters:
  Sample : 0.8_PLE_250_700_10_nm_PL_400_800_10nm_mapping
  Solvent : <unspecified>
  Comment : sample power diode spectrum 16

Data:
Wavelength [nm]	Intensity [Cnts.]
249.999999368811	8
260.000007301642	20
269.999986812763	28
279.999994745594	38
290.000002678426	51
300.000010611257	64
309.999990122378	73
319.999998055209	81
330.00000598804	88
339.999985499162	94
349.999993431993	98
360.000001364824	99
370.000009297655	104
379.999988808777	115
389.999996741608	127
400.000004674439	113
409.999984185561	122
419.999992118392	131
430.000000051223	133
440.000007984054	140
449.999987495175	161
459.999995428007	163
470.000003360838	183
479.999982871959	170
489.99999080479	158
499.999998737621	151
510.000006670452	149
520.000014603284	146
530.000022536115	144
539.999973625527	0
549.999981558358	0
559.999989491189	0
569.99999742402	134
580.000005356851	130
590.000013289682	125
600.000021222513	122
609.999972311925	117
619.999980244756	114
629.999988177587	111
639.999996110419	103
650.00000404325	103
660.000011976081	94
670.000019908912	93
679.999970998324	90
689.999978931155	89
699.999986863986	76
